# 3ds Max Wavefront OBJ Exporter v0.97b - (c)2007 guruware
# File Created: 19.05.2014 18:33:15

newmtl m_2
	Ns 10.0000
	Ni 1.5000
	d 1.0000
	Tr 0.0000
	Tf 1.0000 1.0000 1.0000 
	illum 2
	Ka 0.9255 0.9255 0.9255
	Kd 0.9255 0.9255 0.9255
	Ks 0.4860 0.4860 0.4860
	Ke 0.0000 0.0000 0.0000

newmtl m_1
	Ns 10.0000
	Ni 1.5000
	d 1.0000
	Tr 0.0000
	Tf 1.0000 1.0000 1.0000 
	illum 2
	Ka 0.5880 0.5880 0.5880
	Kd 0.5880 0.5880 0.5880
	Ks 0.3150 0.3150 0.3150
	Ke 0.0000 0.0000 0.0000
	map_Ka C:\textures\z86hvc.jpg
	map_Kd C:\textures\z86hvc.jpg

newmtl m_3
	Ns 5.0000
	Ni 1.5000
	d 1.0000
	Tr 0.0000
	Tf 1.0000 1.0000 1.0000 
	illum 2
	Ka 0.5880 0.5880 0.5880
	Kd 0.5880 0.5880 0.5880
	Ks 0.1080 0.1080 0.1080
	Ke 0.0000 0.0000 0.0000
	map_Ka C:\textures\z86ac.jpg
	map_Kd C:\textures\z86ac.jpg
