%YAML 1.1
%TAG !u! tag:unity3d.com,2011:
--- !u!1045 &1
EditorBuildSettings:
  m_ObjectHideFlags: 0
  serializedVersion: 2
  m_Scenes:
  - enabled: 1
    path: Assets/New Scenes/1-2-Justin/Justin - Scene 1.unity
    guid: 49ec58a5e1c0f463cb029edc29136af0
  - enabled: 1
    path: Assets/main.unity
    guid: 759c86f2349b34506b07cfa55320d20e
  - enabled: 1
    path: Assets/New Scenes/3-Brady/Brady.unity
    guid: b2c5da8796c9745d1b93fdebefa61ec1
  - enabled: 1
    path: Assets/New Scenes/3-Wallace/Wallace.unity
    guid: 8084df790b8ae4906bf235219040883c
  - enabled: 1
    path: Assets/New Scenes/5-6-Rachel/Rachel.unity
    guid: 51946c1cd601a4c5c87ff6584715a763
  - enabled: 1
    path: Assets/New Scenes/7-Ronny/Ronny.unity
    guid: 3b350a4040fd445bca011ecda47e0a55
  - enabled: 1
    path: Assets/New Scenes/8-9-Eric/Eric.unity
    guid: 40010aa1ea0ce524784d6b81f5386ac4
  - enabled: 1
    path: Assets/New Scenes/10-11-Daniel/Old Daniel Scene.unity
    guid: e84a5159d1fce42a9b686e91910e5537
  - enabled: 1
    path: Assets/New Scenes/12-Jasmine/Scenes/Jasmine.unity
    guid: fad5e1fc0f6066645a5b8b6ac8444ebf
  - enabled: 1
    path: Assets/New Scenes/13-Nikita/Nikita.unity
    guid: d3b83bbcdf29a464cb25812ec81f6d3b
  m_configObjects: {}
