# This file uses centimeters as units for non-parametric coordinates.

mtllib doorknob.mtl
g default
v 4.523901 8.825891 0.348937
v 4.452137 8.966732 0.348937
v 4.340359 9.078516 0.348937
v 4.199517 9.150280 0.348937
v 4.043380 9.175010 0.348937
v 3.887250 9.150280 0.348937
v 3.746402 9.078516 0.348937
v 3.634625 8.966732 0.348937
v 3.562861 8.825891 0.348937
v 3.538133 8.669761 0.348937
v 3.562861 8.513620 0.348937
v 3.634625 8.372781 0.348937
v 3.746402 8.261005 0.348937
v 3.887250 8.189238 0.348937
v 4.043380 8.164500 0.348937
v 4.199517 8.189238 0.348937
v 4.340358 8.261005 0.348937
v 4.452137 8.372781 0.348937
v 4.523901 8.513620 0.348937
v 4.548637 8.669761 0.348937
v 4.523901 8.825891 0.449830
v 4.452137 8.966732 0.449830
v 4.340359 9.078516 0.449830
v 4.199517 9.150280 0.449830
v 4.043380 9.175010 0.449830
v 3.887250 9.150280 0.449830
v 3.746402 9.078516 0.449830
v 3.634625 8.966732 0.449830
v 3.562861 8.825891 0.449830
v 3.538133 8.669761 0.449830
v 3.562861 8.513620 0.449830
v 3.634625 8.372781 0.449830
v 3.746402 8.261005 0.449830
v 3.887250 8.189238 0.449830
v 4.043380 8.164500 0.449830
v 4.199517 8.189238 0.449830
v 4.340358 8.261005 0.449830
v 4.452137 8.372781 0.449830
v 4.523901 8.513620 0.449830
v 4.548637 8.669761 0.449830
v 4.043380 8.669761 0.348937
v 4.291294 8.750311 0.484930
v 4.254272 8.822979 0.484930
v 4.196601 8.880632 0.484930
v 4.123933 8.917673 0.484930
v 4.043380 8.930418 0.484930
v 3.962828 8.917673 0.484930
v 3.890161 8.880632 0.484930
v 3.832492 8.822979 0.484930
v 3.795467 8.750311 0.484930
v 3.782708 8.669761 0.484930
v 3.795467 8.589206 0.484930
v 3.832492 8.516536 0.484930
v 3.890161 8.458871 0.484930
v 3.962828 8.421846 0.484930
v 4.043380 8.409087 0.484930
v 4.123933 8.421846 0.484930
v 4.196601 8.458871 0.484930
v 4.254272 8.516536 0.484930
v 4.291294 8.589206 0.484930
v 4.304058 8.669761 0.484930
v 4.291294 8.750311 0.715575
v 4.254272 8.822979 0.715575
v 4.196601 8.880632 0.715575
v 4.123933 8.917673 0.715575
v 4.043380 8.930418 0.715575
v 3.962828 8.917673 0.715575
v 3.890161 8.880632 0.715575
v 3.832492 8.822979 0.715575
v 3.795467 8.750311 0.715575
v 3.782708 8.669761 0.715575
v 3.795467 8.589206 0.715575
v 3.832492 8.516536 0.715575
v 3.890161 8.458871 0.715575
v 3.962828 8.421846 0.715575
v 4.043380 8.409087 0.715575
v 4.123933 8.421846 0.715575
v 4.196601 8.458871 0.715575
v 4.254272 8.516536 0.715575
v 4.291294 8.589206 0.715575
v 4.304058 8.669761 0.715575
v 4.324670 8.761157 0.759163
v 4.282660 8.843606 0.759163
v 4.217231 8.909034 0.759163
v 4.134777 8.951047 0.759163
v 4.043380 8.965520 0.759163
v 3.951983 8.951047 0.759163
v 3.869534 8.909034 0.759163
v 3.804101 8.843606 0.759163
v 3.762092 8.761157 0.759163
v 3.747615 8.669761 0.759163
v 3.762092 8.578363 0.759163
v 3.804101 8.495906 0.759163
v 3.869534 8.430479 0.759163
v 3.951983 8.388470 0.759163
v 4.043380 8.373984 0.759163
v 4.134777 8.388470 0.759163
v 4.217231 8.430479 0.759163
v 4.282660 8.495906 0.759163
v 4.324670 8.578363 0.759163
v 4.339145 8.669761 0.759163
v 4.381476 8.779605 0.834536
v 4.330984 8.878713 0.834536
v 4.252334 8.957353 0.834536
v 4.153234 9.007849 0.834536
v 4.043380 9.025245 0.834536
v 3.933527 9.007849 0.834536
v 3.834428 8.957353 0.834536
v 3.755782 8.878713 0.834536
v 3.705289 8.779605 0.834536
v 3.687890 8.669761 0.834536
v 3.705289 8.559906 0.834536
v 3.755782 8.460791 0.834536
v 3.834428 8.382154 0.834536
v 3.933527 8.331661 0.834536
v 4.043380 8.314259 0.834536
v 4.153234 8.331661 0.834536
v 4.252334 8.382154 0.834536
v 4.330984 8.460791 0.834536
v 4.381476 8.559906 0.834536
v 4.398871 8.669761 0.834536
v 4.396773 8.784584 0.926877
v 4.343996 8.888168 0.926877
v 4.261789 8.970361 0.926877
v 4.158205 9.023144 0.926877
v 4.043380 9.041333 0.926877
v 3.928555 9.023144 0.926877
v 3.824972 8.970361 0.926877
v 3.742766 8.888168 0.926877
v 3.689990 8.784584 0.926877
v 3.671803 8.669761 0.926877
v 3.689990 8.554928 0.926877
v 3.742766 8.451335 0.926877
v 3.824972 8.369142 0.926877
v 3.928555 8.316367 0.926877
v 4.043380 8.298175 0.926877
v 4.158205 8.316367 0.926877
v 4.261789 8.369142 0.926877
v 4.343996 8.451335 0.926877
v 4.396773 8.554928 0.926877
v 4.414961 8.669761 0.926877
v 4.396773 8.784584 1.027348
v 4.343996 8.888168 1.027348
v 4.261789 8.970361 1.027348
v 4.158205 9.023144 1.027348
v 4.043380 9.041333 1.027348
v 3.928555 9.023144 1.027348
v 3.824972 8.970361 1.016787
v 3.742766 8.888168 1.016787
v 3.689990 8.784584 1.016787
v 3.671803 8.669761 1.016787
v 3.689990 8.554928 1.016787
v 3.742766 8.451335 1.016787
v 3.824972 8.369142 1.016787
v 3.928555 8.316367 1.027348
v 4.043380 8.298175 1.027348
v 4.158205 8.316367 1.027348
v 4.261789 8.369142 1.027348
v 4.343996 8.451335 1.027348
v 4.396773 8.554928 1.027348
v 4.414961 8.669761 1.027348
v 4.363960 8.773922 1.110192
v 4.316082 8.867889 1.110192
v 4.241509 8.942453 1.110192
v 4.147544 8.990329 1.110192
v 4.043380 9.006829 1.110192
v 3.939217 8.990329 1.110192
v 3.845253 8.942453 1.110192
v 3.770680 8.867889 1.110212
v 3.722804 8.773922 1.110212
v 3.706306 8.669761 1.110212
v 3.722804 8.565594 1.110212
v 3.770680 8.471617 1.110212
v 3.845253 8.397057 1.110192
v 3.939217 8.349181 1.110192
v 4.043380 8.332677 1.110192
v 4.147544 8.349181 1.110192
v 4.241509 8.397057 1.110192
v 4.316082 8.471617 1.110192
v 4.363960 8.565594 1.110192
v 4.380457 8.669761 1.110192
v 4.236522 8.732512 1.211847
v 4.207677 8.789127 1.211847
v 4.162749 8.834050 1.211847
v 4.106137 8.862895 1.211847
v 4.043381 8.872834 1.211847
v 3.980625 8.862895 1.211847
v 3.924013 8.834050 1.211847
v 3.879084 8.789127 1.211847
v 3.850241 8.732512 1.211847
v 3.840301 8.669759 1.211847
v 3.850241 8.607000 1.211847
v 3.879084 8.550381 1.211847
v 3.924013 8.505458 1.211847
v 3.980625 8.476617 1.211847
v 4.043381 8.466671 1.211847
v 4.106137 8.476617 1.211847
v 4.162749 8.505458 1.211847
v 4.207677 8.550381 1.211847
v 4.236522 8.607000 1.211847
v 4.246462 8.669759 1.211847
v 4.090617 8.685102 1.254017
v 4.083562 8.698947 1.254017
v 4.043381 8.669754 1.254017
v 4.072575 8.709934 1.254017
v 4.058729 8.716989 1.254017
v 4.043381 8.719419 1.254017
v 4.028033 8.716989 1.254017
v 4.014188 8.709934 1.254017
v 4.003200 8.698947 1.254017
v 3.996146 8.685102 1.254017
v 3.993715 8.669754 1.254017
v 3.996146 8.654406 1.254017
v 4.003200 8.640559 1.254017
v 4.014188 8.629572 1.254017
v 4.028033 8.622518 1.254017
v 4.043381 8.620086 1.254017
v 4.058729 8.622518 1.254017
v 4.072575 8.629572 1.254017
v 4.083562 8.640559 1.254017
v 4.090617 8.654406 1.254017
v 4.093048 8.669754 1.254017
vt 0.648603 0.107966
vt 0.626409 0.064408
vt 0.591842 0.029841
vt 0.548284 0.007647
vt 0.500000 -0.000000
vt 0.451716 0.007647
vt 0.408159 0.029841
vt 0.373591 0.064409
vt 0.351397 0.107966
vt 0.343750 0.156250
vt 0.351397 0.204534
vt 0.373591 0.248091
vt 0.408159 0.282659
vt 0.451716 0.304853
vt 0.500000 0.312500
vt 0.548284 0.304853
vt 0.591841 0.282659
vt 0.626409 0.248091
vt 0.648603 0.204534
vt 0.656250 0.156250
vt 0.375000 0.312500
vt 0.387500 0.312500
vt 0.400000 0.312500
vt 0.412500 0.312500
vt 0.425000 0.312500
vt 0.437500 0.312500
vt 0.450000 0.312500
vt 0.462500 0.312500
vt 0.475000 0.312500
vt 0.487500 0.312500
vt 0.500000 0.312500
vt 0.512500 0.312500
vt 0.525000 0.312500
vt 0.537500 0.312500
vt 0.550000 0.312500
vt 0.562500 0.312500
vt 0.575000 0.312500
vt 0.587500 0.312500
vt 0.600000 0.312500
vt 0.612500 0.312500
vt 0.625000 0.312500
vt 0.375000 0.688440
vt 0.387500 0.688440
vt 0.400000 0.688440
vt 0.412500 0.688440
vt 0.425000 0.688440
vt 0.437500 0.688440
vt 0.450000 0.688440
vt 0.462500 0.688440
vt 0.475000 0.688440
vt 0.487500 0.688440
vt 0.500000 0.688440
vt 0.512500 0.688440
vt 0.525000 0.688440
vt 0.537500 0.688440
vt 0.550000 0.688440
vt 0.562500 0.688440
vt 0.575000 0.688440
vt 0.587500 0.688440
vt 0.600000 0.688440
vt 0.612500 0.688440
vt 0.625000 0.688440
vt 0.648603 0.795466
vt 0.626409 0.751908
vt 0.591842 0.717341
vt 0.548284 0.695147
vt 0.500000 0.687500
vt 0.451716 0.695147
vt 0.408159 0.717341
vt 0.373591 0.751909
vt 0.351397 0.795466
vt 0.343750 0.843750
vt 0.351397 0.892034
vt 0.373591 0.935591
vt 0.408159 0.970159
vt 0.451716 0.992353
vt 0.500000 1.000000
vt 0.548284 0.992353
vt 0.591841 0.970159
vt 0.626409 0.935591
vt 0.648603 0.892034
vt 0.656250 0.843750
vt 0.500000 0.150000
vt 0.500000 0.837500
vt 0.648603 0.892034
vt 0.626409 0.935591
vt 0.591841 0.970159
vt 0.548284 0.992353
vt 0.500000 1.000000
vt 0.451716 0.992353
vt 0.408159 0.970159
vt 0.373591 0.935591
vt 0.351397 0.892034
vt 0.343750 0.843750
vt 0.351397 0.795466
vt 0.373591 0.751909
vt 0.408159 0.717341
vt 0.451716 0.695147
vt 0.500000 0.687500
vt 0.548284 0.695147
vt 0.591842 0.717341
vt 0.626409 0.751908
vt 0.648603 0.795466
vt 0.656250 0.843750
vt 0.648603 0.892034
vt 0.626409 0.935591
vt 0.591841 0.970159
vt 0.548284 0.992353
vt 0.500000 1.000000
vt 0.451716 0.992353
vt 0.408159 0.970159
vt 0.373591 0.935591
vt 0.351397 0.892034
vt 0.343750 0.843750
vt 0.351397 0.795466
vt 0.373591 0.751909
vt 0.408159 0.717341
vt 0.451716 0.695147
vt 0.500000 0.687500
vt 0.548284 0.695147
vt 0.591842 0.717341
vt 0.626409 0.751908
vt 0.648603 0.795466
vt 0.656250 0.843750
vt 0.648603 0.892034
vt 0.626409 0.935591
vt 0.591841 0.970159
vt 0.548284 0.992353
vt 0.500000 1.000000
vt 0.451716 0.992353
vt 0.408159 0.970159
vt 0.373591 0.935591
vt 0.351397 0.892034
vt 0.343750 0.843750
vt 0.351397 0.795466
vt 0.373591 0.751909
vt 0.408159 0.717341
vt 0.451716 0.695147
vt 0.500000 0.687500
vt 0.548284 0.695147
vt 0.591842 0.717341
vt 0.626409 0.751908
vt 0.648603 0.795466
vt 0.656250 0.843750
vt 0.648603 0.892034
vt 0.626409 0.935591
vt 0.591841 0.970159
vt 0.548284 0.992353
vt 0.500000 1.000000
vt 0.451716 0.992353
vt 0.408159 0.970159
vt 0.373591 0.935591
vt 0.351397 0.892034
vt 0.343750 0.843750
vt 0.351397 0.795466
vt 0.373591 0.751909
vt 0.408159 0.717341
vt 0.451716 0.695147
vt 0.500000 0.687500
vt 0.548284 0.695147
vt 0.591842 0.717341
vt 0.626409 0.751908
vt 0.648603 0.795466
vt 0.656250 0.843750
vt 0.648603 0.892034
vt 0.626409 0.935591
vt 0.591841 0.970159
vt 0.548284 0.992353
vt 0.500000 1.000000
vt 0.451716 0.992353
vt 0.408159 0.970159
vt 0.373591 0.935591
vt 0.351397 0.892034
vt 0.343750 0.843750
vt 0.351397 0.795466
vt 0.373591 0.751909
vt 0.408159 0.717341
vt 0.451716 0.695147
vt 0.500000 0.687500
vt 0.548284 0.695147
vt 0.591842 0.717341
vt 0.626409 0.751908
vt 0.648603 0.795466
vt 0.656250 0.843750
vt 0.648603 0.892034
vt 0.626409 0.935591
vt 0.591841 0.970159
vt 0.548284 0.992353
vt 0.500000 1.000000
vt 0.451716 0.992353
vt 0.408159 0.970159
vt 0.373591 0.935591
vt 0.351397 0.892034
vt 0.343750 0.843750
vt 0.351397 0.795466
vt 0.373591 0.751909
vt 0.408159 0.717341
vt 0.451716 0.695147
vt 0.500000 0.687500
vt 0.548284 0.695147
vt 0.591842 0.717341
vt 0.626409 0.751908
vt 0.648603 0.795466
vt 0.656250 0.843750
vt 0.648603 0.892034
vt 0.626409 0.935591
vt 0.591841 0.970159
vt 0.548284 0.992353
vt 0.500000 1.000000
vt 0.451716 0.992353
vt 0.408159 0.970159
vt 0.373591 0.935591
vt 0.351397 0.892034
vt 0.343750 0.843750
vt 0.351397 0.795466
vt 0.373591 0.751909
vt 0.408159 0.717341
vt 0.451716 0.695147
vt 0.500000 0.687500
vt 0.548284 0.695147
vt 0.591842 0.717341
vt 0.626409 0.751908
vt 0.648603 0.795466
vt 0.656250 0.843750
vt 0.648603 0.892034
vt 0.626409 0.935591
vt 0.591841 0.970159
vt 0.548284 0.992353
vt 0.500000 1.000000
vt 0.451716 0.992353
vt 0.408159 0.970159
vt 0.373591 0.935591
vt 0.351397 0.892034
vt 0.343750 0.843750
vt 0.351397 0.795466
vt 0.373591 0.751909
vt 0.408159 0.717341
vt 0.451716 0.695147
vt 0.500000 0.687500
vt 0.548284 0.695147
vt 0.591842 0.717341
vt 0.626409 0.751908
vt 0.648603 0.795466
vt 0.656250 0.843750
vt 0.648603 0.892034
vt 0.626409 0.935591
vt 0.591841 0.970159
vt 0.548284 0.992353
vt 0.500000 1.000000
vt 0.451716 0.992353
vt 0.408159 0.970159
vt 0.373591 0.935591
vt 0.351397 0.892034
vt 0.343750 0.843750
vt 0.351397 0.795466
vt 0.373591 0.751909
vt 0.408159 0.717341
vt 0.451716 0.695147
vt 0.500000 0.687500
vt 0.548284 0.695147
vt 0.591842 0.717341
vt 0.626409 0.751908
vt 0.648603 0.795466
vt 0.656250 0.843750
vn 0.951048 0.309042 0.000000
vn 0.809017 0.587786 0.000000
vn 0.809017 0.587786 0.000000
vn 0.951048 0.309042 0.000000
vn 0.587803 0.809004 0.000000
vn 0.587803 0.809004 0.000000
vn 0.309017 0.951057 0.000000
vn 0.309017 0.951057 0.000000
vn 0.000000 1.000000 0.000000
vn 0.000000 1.000000 0.000000
vn -0.309017 0.951057 0.000000
vn -0.309017 0.951057 0.000000
vn -0.587796 0.809009 0.000000
vn -0.587796 0.809009 0.000000
vn -0.809019 0.587783 0.000000
vn -0.809019 0.587783 0.000000
vn -0.951056 0.309019 0.000000
vn -0.951056 0.309019 0.000000
vn -1.000000 0.000000 0.000000
vn -1.000000 0.000000 0.000000
vn -0.951058 -0.309011 -0.000000
vn -0.951058 -0.309011 -0.000000
vn -0.809008 -0.587797 -0.000000
vn -0.809008 -0.587797 -0.000000
vn -0.587788 -0.809015 -0.000000
vn -0.587788 -0.809015 -0.000000
vn -0.309050 -0.951046 -0.000000
vn -0.309050 -0.951046 -0.000000
vn 0.000000 -1.000000 -0.000000
vn 0.000000 -1.000000 -0.000000
vn 0.309051 -0.951045 -0.000000
vn 0.309051 -0.951045 -0.000000
vn 0.587795 -0.809010 -0.000000
vn 0.587795 -0.809010 -0.000000
vn 0.809004 -0.587802 -0.000000
vn 0.809004 -0.587802 -0.000000
vn 0.951051 -0.309035 -0.000000
vn 0.951051 -0.309035 -0.000000
vn 1.000000 -0.000000 0.000000
vn 1.000000 -0.000000 0.000000
vn 0.000000 0.000000 -1.000000
vn 0.000000 0.000000 -1.000000
vn 0.000000 0.000000 -1.000000
vn 0.000000 0.000000 -1.000000
vn 0.000000 0.000000 -1.000000
vn 0.000000 0.000000 -1.000000
vn 0.000000 0.000000 -1.000000
vn 0.000000 0.000000 -1.000000
vn 0.000000 0.000000 -1.000000
vn 0.000000 0.000000 -1.000000
vn 0.000000 0.000000 -1.000000
vn 0.000000 0.000000 -1.000000
vn 0.000000 0.000000 -1.000000
vn 0.000000 0.000000 -1.000000
vn 0.000000 0.000000 -1.000000
vn 0.000000 0.000000 -1.000000
vn 0.000000 0.000000 -1.000000
vn 0.000000 0.000000 -1.000000
vn 0.000000 0.000000 -1.000000
vn 0.000000 0.000000 -1.000000
vn 0.000000 0.000000 -1.000000
vn 0.000000 0.000004 1.000000
vn 0.000000 -0.000000 1.000000
vn 0.000000 0.000000 1.000000
vn 0.000000 -0.000000 1.000000
vn 0.000000 -0.000000 1.000000
vn 0.000000 -0.000000 1.000000
vn 0.000000 -0.000000 1.000000
vn 0.000000 -0.000000 1.000000
vn 0.000000 -0.000000 1.000000
vn 0.000000 -0.000000 1.000000
vn 0.000000 -0.000000 1.000000
vn 0.000000 -0.000000 1.000000
vn 0.000000 -0.000000 1.000000
vn 0.000000 -0.000000 1.000000
vn 0.000000 -0.000000 1.000000
vn 0.000000 -0.000000 1.000000
vn 0.000000 0.000002 1.000000
vn 0.000000 0.000002 1.000000
vn 0.000000 -0.000000 1.000000
vn 0.000000 -0.000004 1.000000
vn 0.000000 -0.000000 1.000000
vn 0.128121 0.065280 0.989608
vn 0.128121 0.065280 0.989608
vn 0.128121 0.065280 0.989608
vn 0.128121 0.065280 0.989608
vn 0.101671 0.101679 0.989608
vn 0.101671 0.101679 0.989608
vn 0.101671 0.101679 0.989608
vn 0.101671 0.101679 0.989608
vn 0.065285 0.128111 0.989609
vn 0.065285 0.128111 0.989609
vn 0.065285 0.128111 0.989609
vn 0.065285 0.128111 0.989609
vn 0.022486 0.142018 0.989609
vn 0.022486 0.142018 0.989609
vn 0.022486 0.142018 0.989609
vn 0.022486 0.142018 0.989609
vn -0.022487 0.142018 0.989609
vn -0.022487 0.142018 0.989609
vn -0.022487 0.142018 0.989609
vn -0.022487 0.142018 0.989609
vn -0.065284 0.128112 0.989609
vn -0.065284 0.128112 0.989609
vn -0.065284 0.128112 0.989609
vn -0.065284 0.128112 0.989609
vn -0.101672 0.101677 0.989608
vn -0.101672 0.101677 0.989608
vn -0.101672 0.101677 0.989608
vn -0.101672 0.101677 0.989608
vn -0.128120 0.065281 0.989608
vn -0.128120 0.065281 0.989608
vn -0.128120 0.065281 0.989608
vn -0.128120 0.065281 0.989608
vn -0.142022 0.022494 0.989608
vn -0.142022 0.022494 0.989608
vn -0.142022 0.022494 0.989608
vn -0.142022 0.022494 0.989608
vn -0.142022 -0.022493 0.989608
vn -0.142022 -0.022493 0.989608
vn -0.142022 -0.022493 0.989608
vn -0.142022 -0.022493 0.989608
vn -0.128119 -0.065280 0.989608
vn -0.128119 -0.065280 0.989608
vn -0.128119 -0.065280 0.989608
vn -0.128119 -0.065280 0.989608
vn -0.101675 -0.101678 0.989608
vn -0.101675 -0.101678 0.989608
vn -0.101675 -0.101678 0.989608
vn -0.101675 -0.101678 0.989608
vn -0.065281 -0.128119 0.989608
vn -0.065281 -0.128119 0.989608
vn -0.065281 -0.128119 0.989608
vn -0.065281 -0.128119 0.989608
vn -0.022499 -0.142017 0.989608
vn -0.022499 -0.142017 0.989608
vn -0.022499 -0.142017 0.989608
vn -0.022499 -0.142017 0.989608
vn 0.022499 -0.142017 0.989608
vn 0.022499 -0.142017 0.989608
vn 0.022499 -0.142017 0.989608
vn 0.022499 -0.142017 0.989608
vn 0.065282 -0.128118 0.989608
vn 0.065282 -0.128118 0.989608
vn 0.065282 -0.128118 0.989608
vn 0.065282 -0.128118 0.989608
vn 0.101675 -0.101680 0.989608
vn 0.101675 -0.101680 0.989608
vn 0.101675 -0.101680 0.989608
vn 0.101675 -0.101680 0.989608
vn 0.128120 -0.065280 0.989608
vn 0.128120 -0.065280 0.989608
vn 0.128120 -0.065280 0.989608
vn 0.128120 -0.065280 0.989608
vn 0.142020 -0.022500 0.989608
vn 0.142020 -0.022500 0.989608
vn 0.142020 -0.022500 0.989608
vn 0.142020 -0.022500 0.989608
vn 0.142020 0.022502 0.989608
vn 0.142020 0.022502 0.989608
vn 0.142020 0.022502 0.989608
vn 0.142020 0.022502 0.989608
vn 0.891027 0.453950 0.000000
vn 0.891027 0.453950 0.000000
vn 0.891027 0.453950 0.000000
vn 0.891027 0.453950 0.000000
vn 0.706995 0.707219 0.000000
vn 0.706995 0.707219 0.000000
vn 0.706995 0.707219 0.000000
vn 0.706995 0.707219 0.000000
vn 0.454129 0.890936 0.000000
vn 0.454129 0.890936 0.000000
vn 0.454129 0.890936 0.000000
vn 0.454129 0.890936 0.000000
vn 0.156284 0.987712 0.000000
vn 0.156284 0.987712 0.000000
vn 0.156284 0.987712 0.000000
vn 0.156284 0.987712 0.000000
vn -0.156284 0.987712 0.000000
vn -0.156284 0.987712 0.000000
vn -0.156284 0.987712 0.000000
vn -0.156284 0.987712 0.000000
vn -0.454133 0.890934 0.000000
vn -0.454133 0.890934 0.000000
vn -0.454133 0.890934 0.000000
vn -0.454133 0.890934 0.000000
vn -0.707012 0.707201 0.000000
vn -0.707012 0.707201 0.000000
vn -0.707012 0.707201 0.000000
vn -0.707012 0.707201 0.000000
vn -0.891013 0.453979 0.000000
vn -0.891013 0.453979 0.000000
vn -0.891013 0.453979 0.000000
vn -0.891013 0.453979 0.000000
vn -0.987686 0.156449 0.000000
vn -0.987686 0.156449 0.000000
vn -0.987686 0.156449 0.000000
vn -0.987686 0.156449 0.000000
vn -0.987687 -0.156442 -0.000000
vn -0.987687 -0.156442 -0.000000
vn -0.987687 -0.156442 -0.000000
vn -0.987687 -0.156442 -0.000000
vn -0.891017 -0.453969 -0.000000
vn -0.891017 -0.453969 -0.000000
vn -0.891017 -0.453969 -0.000000
vn -0.891017 -0.453969 -0.000000
vn -0.707083 -0.707130 -0.000000
vn -0.707083 -0.707130 -0.000000
vn -0.707083 -0.707130 -0.000000
vn -0.707083 -0.707130 -0.000000
vn -0.453983 -0.891010 -0.000000
vn -0.453983 -0.891010 -0.000000
vn -0.453983 -0.891010 -0.000000
vn -0.453983 -0.891010 -0.000000
vn -0.156445 -0.987687 -0.000000
vn -0.156445 -0.987687 -0.000000
vn -0.156445 -0.987687 -0.000000
vn -0.156445 -0.987687 -0.000000
vn 0.156445 -0.987687 -0.000000
vn 0.156445 -0.987687 -0.000000
vn 0.156445 -0.987687 -0.000000
vn 0.156445 -0.987687 -0.000000
vn 0.453979 -0.891013 -0.000000
vn 0.453979 -0.891013 -0.000000
vn 0.453979 -0.891013 -0.000000
vn 0.453979 -0.891013 -0.000000
vn 0.707065 -0.707148 -0.000000
vn 0.707065 -0.707148 -0.000000
vn 0.707065 -0.707148 -0.000000
vn 0.707065 -0.707148 -0.000000
vn 0.891032 -0.453941 -0.000000
vn 0.891032 -0.453941 -0.000000
vn 0.891032 -0.453941 -0.000000
vn 0.891032 -0.453941 -0.000000
vn 0.987678 -0.156500 -0.000000
vn 0.987678 -0.156500 -0.000000
vn 0.987678 -0.156500 -0.000000
vn 0.987678 -0.156500 -0.000000
vn 0.987677 0.156507 0.000000
vn 0.987677 0.156507 0.000000
vn 0.987677 0.156507 0.000000
vn 0.987677 0.156507 0.000000
vn 0.697408 0.355329 -0.622385
vn 0.697408 0.355329 -0.622385
vn 0.697408 0.355329 -0.622385
vn 0.697408 0.355329 -0.622385
vn 0.553387 0.553470 -0.622442
vn 0.553387 0.553470 -0.622442
vn 0.553387 0.553470 -0.622442
vn 0.553387 0.553470 -0.622442
vn 0.355369 0.697322 -0.622458
vn 0.355369 0.697322 -0.622458
vn 0.355369 0.697322 -0.622458
vn 0.355369 0.697322 -0.622458
vn 0.122367 0.773042 -0.622441
vn 0.122367 0.773042 -0.622441
vn 0.122367 0.773042 -0.622441
vn 0.122367 0.773042 -0.622441
vn -0.122367 0.773042 -0.622441
vn -0.122367 0.773042 -0.622441
vn -0.122367 0.773042 -0.622441
vn -0.122367 0.773042 -0.622441
vn -0.355383 0.697323 -0.622449
vn -0.355383 0.697323 -0.622449
vn -0.355383 0.697323 -0.622449
vn -0.355383 0.697323 -0.622449
vn -0.553383 0.553474 -0.622442
vn -0.553383 0.553474 -0.622442
vn -0.553383 0.553474 -0.622442
vn -0.553383 0.553474 -0.622442
vn -0.697391 0.355329 -0.622404
vn -0.697391 0.355329 -0.622404
vn -0.697391 0.355329 -0.622404
vn -0.697391 0.355329 -0.622404
vn -0.773062 0.122450 -0.622400
vn -0.773062 0.122450 -0.622400
vn -0.773062 0.122450 -0.622400
vn -0.773062 0.122450 -0.622400
vn -0.773064 -0.122446 -0.622398
vn -0.773064 -0.122446 -0.622398
vn -0.773064 -0.122446 -0.622398
vn -0.773064 -0.122446 -0.622398
vn -0.697397 -0.355310 -0.622409
vn -0.697397 -0.355310 -0.622409
vn -0.697397 -0.355310 -0.622409
vn -0.697397 -0.355310 -0.622409
vn -0.553417 -0.553465 -0.622420
vn -0.553417 -0.553465 -0.622420
vn -0.553417 -0.553465 -0.622420
vn -0.553417 -0.553465 -0.622420
vn -0.355328 -0.697385 -0.622411
vn -0.355328 -0.697385 -0.622411
vn -0.355328 -0.697385 -0.622411
vn -0.355328 -0.697385 -0.622411
vn -0.122482 -0.773007 -0.622462
vn -0.122482 -0.773007 -0.622462
vn -0.122482 -0.773007 -0.622462
vn -0.122482 -0.773007 -0.622462
vn 0.122482 -0.773007 -0.622462
vn 0.122482 -0.773007 -0.622462
vn 0.122482 -0.773007 -0.622462
vn 0.122482 -0.773007 -0.622462
vn 0.355314 -0.697384 -0.622421
vn 0.355314 -0.697384 -0.622421
vn 0.355314 -0.697384 -0.622421
vn 0.355314 -0.697384 -0.622421
vn 0.553421 -0.553461 -0.622419
vn 0.553421 -0.553460 -0.622419
vn 0.553422 -0.553461 -0.622420
vn 0.553421 -0.553460 -0.622419
vn 0.697414 -0.355309 -0.622390
vn 0.697414 -0.355310 -0.622390
vn 0.697414 -0.355310 -0.622390
vn 0.697414 -0.355310 -0.622390
vn 0.773086 -0.122467 -0.622367
vn 0.773086 -0.122467 -0.622367
vn 0.773086 -0.122467 -0.622367
vn 0.773086 -0.122467 -0.622367
vn 0.773084 0.122471 -0.622368
vn 0.773084 0.122471 -0.622368
vn 0.773084 0.122471 -0.622368
vn 0.773084 0.122471 -0.622368
vn 0.701658 0.357492 -0.616340
vn 0.701658 0.357492 -0.616340
vn 0.701658 0.357492 -0.616340
vn 0.701658 0.357492 -0.616340
vn 0.556819 0.556857 -0.616330
vn 0.556819 0.556857 -0.616330
vn 0.556819 0.556857 -0.616330
vn 0.556819 0.556857 -0.616330
vn 0.357523 0.701663 -0.616317
vn 0.357523 0.701663 -0.616317
vn 0.357523 0.701663 -0.616317
vn 0.357523 0.701663 -0.616317
vn 0.123170 0.777804 -0.616320
vn 0.123169 0.777804 -0.616320
vn 0.123170 0.777804 -0.616320
vn 0.123170 0.777804 -0.616320
vn -0.123169 0.777804 -0.616320
vn -0.123169 0.777804 -0.616320
vn -0.123169 0.777804 -0.616320
vn -0.123169 0.777804 -0.616320
vn -0.357530 0.701655 -0.616322
vn -0.357530 0.701655 -0.616322
vn -0.357530 0.701655 -0.616322
vn -0.357530 0.701655 -0.616322
vn -0.556819 0.556860 -0.616328
vn -0.556819 0.556860 -0.616328
vn -0.556819 0.556860 -0.616328
vn -0.556819 0.556860 -0.616328
vn -0.701677 0.357498 -0.616315
vn -0.701677 0.357498 -0.616315
vn -0.701677 0.357498 -0.616315
vn -0.701677 0.357498 -0.616315
vn -0.777799 0.123201 -0.616319
vn -0.777799 0.123201 -0.616319
vn -0.777799 0.123201 -0.616319
vn -0.777799 0.123201 -0.616319
vn -0.777798 -0.123193 -0.616323
vn -0.777798 -0.123193 -0.616323
vn -0.777798 -0.123193 -0.616323
vn -0.777798 -0.123193 -0.616323
vn -0.701674 -0.357466 -0.616338
vn -0.701674 -0.357466 -0.616338
vn -0.701674 -0.357466 -0.616338
vn -0.701674 -0.357466 -0.616338
vn -0.556790 -0.556854 -0.616359
vn -0.556791 -0.556854 -0.616359
vn -0.556791 -0.556854 -0.616359
vn -0.556790 -0.556854 -0.616359
vn -0.357498 -0.701637 -0.616361
vn -0.357498 -0.701637 -0.616361
vn -0.357498 -0.701637 -0.616361
vn -0.357498 -0.701637 -0.616361
vn -0.123239 -0.777773 -0.616345
vn -0.123239 -0.777773 -0.616345
vn -0.123239 -0.777773 -0.616345
vn -0.123239 -0.777773 -0.616345
vn 0.123239 -0.777773 -0.616345
vn 0.123239 -0.777773 -0.616345
vn 0.123239 -0.777773 -0.616345
vn 0.123239 -0.777773 -0.616345
vn 0.357491 -0.701645 -0.616356
vn 0.357491 -0.701645 -0.616356
vn 0.357491 -0.701645 -0.616356
vn 0.357491 -0.701645 -0.616356
vn 0.556791 -0.556851 -0.616361
vn 0.556791 -0.556851 -0.616361
vn 0.556791 -0.556851 -0.616361
vn 0.556791 -0.556851 -0.616361
vn 0.701655 -0.357460 -0.616363
vn 0.701655 -0.357460 -0.616363
vn 0.701655 -0.357460 -0.616363
vn 0.701655 -0.357460 -0.616363
vn 0.777791 -0.123170 -0.616336
vn 0.777791 -0.123170 -0.616336
vn 0.777792 -0.123170 -0.616336
vn 0.777792 -0.123170 -0.616336
vn 0.777794 0.123177 -0.616331
vn 0.777794 0.123177 -0.616331
vn 0.777794 0.123177 -0.616331
vn 0.777794 0.123177 -0.616331
vn 0.878116 0.447392 -0.169565
vn 0.878117 0.447392 -0.169565
vn 0.878116 0.447392 -0.169565
vn 0.878117 0.447392 -0.169565
vn 0.696820 0.696920 -0.169540
vn 0.696820 0.696920 -0.169540
vn 0.696820 0.696920 -0.169540
vn 0.696820 0.696920 -0.169540
vn 0.447438 0.878101 -0.169525
vn 0.447438 0.878101 -0.169525
vn 0.447438 0.878101 -0.169525
vn 0.447438 0.878101 -0.169525
vn 0.154168 0.973387 -0.169559
vn 0.154168 0.973387 -0.169559
vn 0.154168 0.973387 -0.169559
vn 0.154168 0.973387 -0.169559
vn -0.154167 0.973387 -0.169559
vn -0.154167 0.973387 -0.169559
vn -0.154167 0.973387 -0.169559
vn -0.154167 0.973387 -0.169559
vn -0.447443 0.878098 -0.169527
vn -0.447443 0.878098 -0.169527
vn -0.447443 0.878098 -0.169527
vn -0.447443 0.878098 -0.169527
vn -0.696827 0.696910 -0.169554
vn -0.696827 0.696910 -0.169554
vn -0.696827 0.696910 -0.169554
vn -0.696827 0.696910 -0.169554
vn -0.878113 0.447386 -0.169596
vn -0.878113 0.447386 -0.169596
vn -0.878113 0.447386 -0.169596
vn -0.878113 0.447386 -0.169596
vn -0.973382 0.154178 -0.169580
vn -0.973382 0.154178 -0.169579
vn -0.973382 0.154178 -0.169580
vn -0.973382 0.154178 -0.169580
vn -0.973384 -0.154165 -0.169580
vn -0.973384 -0.154165 -0.169580
vn -0.973384 -0.154165 -0.169580
vn -0.973384 -0.154165 -0.169580
vn -0.878127 -0.447359 -0.169596
vn -0.878127 -0.447359 -0.169596
vn -0.878127 -0.447359 -0.169596
vn -0.878127 -0.447359 -0.169596
vn -0.696817 -0.696917 -0.169568
vn -0.696817 -0.696917 -0.169568
vn -0.696817 -0.696917 -0.169568
vn -0.696817 -0.696917 -0.169568
vn -0.447409 -0.878113 -0.169536
vn -0.447409 -0.878113 -0.169536
vn -0.447409 -0.878113 -0.169536
vn -0.447409 -0.878113 -0.169536
vn -0.154208 -0.973386 -0.169530
vn -0.154208 -0.973386 -0.169530
vn -0.154208 -0.973386 -0.169530
vn -0.154208 -0.973386 -0.169530
vn 0.154209 -0.973386 -0.169529
vn 0.154209 -0.973386 -0.169529
vn 0.154209 -0.973386 -0.169529
vn 0.154209 -0.973386 -0.169529
vn 0.447404 -0.878116 -0.169533
vn 0.447404 -0.878116 -0.169533
vn 0.447404 -0.878116 -0.169533
vn 0.447404 -0.878116 -0.169533
vn 0.696810 -0.696927 -0.169554
vn 0.696810 -0.696927 -0.169554
vn 0.696810 -0.696927 -0.169554
vn 0.696810 -0.696927 -0.169554
vn 0.878130 -0.447364 -0.169565
vn 0.878130 -0.447364 -0.169565
vn 0.878130 -0.447364 -0.169565
vn 0.878130 -0.447364 -0.169565
vn 0.973385 -0.154152 -0.169585
vn 0.973385 -0.154152 -0.169585
vn 0.973385 -0.154152 -0.169585
vn 0.973385 -0.154152 -0.169585
vn 0.973383 0.154165 -0.169585
vn 0.973383 0.154165 -0.169585
vn 0.973383 0.154165 -0.169585
vn 0.973383 0.154165 -0.169585
vn 0.891013 0.453978 0.000000
vn 0.891013 0.453978 0.000000
vn 0.891013 0.453978 0.000000
vn 0.891013 0.453978 0.000000
vn 0.707049 0.707165 0.000000
vn 0.707049 0.707165 0.000000
vn 0.707049 0.707165 0.000000
vn 0.707049 0.707165 0.000000
vn 0.454018 0.890993 0.000000
vn 0.454018 0.890993 0.000000
vn 0.454018 0.890993 0.000000
vn 0.454018 0.890993 0.000000
vn 0.156453 0.987685 0.000000
vn 0.156453 0.987685 0.000000
vn 0.156453 0.987685 0.000000
vn 0.156453 0.987685 0.000000
vn -0.156452 0.987686 0.000000
vn -0.156452 0.987686 0.000000
vn -0.156452 0.987686 0.000000
vn -0.156452 0.987686 0.000000
vn -0.454024 0.890989 0.000000
vn -0.454024 0.890989 0.000000
vn -0.454024 0.890989 0.000000
vn -0.454024 0.890989 0.000000
vn -0.707049 0.707165 0.000000
vn -0.707049 0.707165 0.000000
vn -0.707049 0.707165 0.000000
vn -0.707049 0.707165 0.000000
vn -0.891016 0.453972 0.000000
vn -0.891016 0.453972 0.000000
vn -0.891016 0.453972 0.000000
vn -0.891016 0.453972 0.000000
vn -0.987688 0.156438 0.000000
vn -0.987688 0.156438 0.000000
vn -0.987688 0.156438 0.000000
vn -0.987688 0.156438 0.000000
vn -0.987690 -0.156426 -0.000000
vn -0.987690 -0.156426 -0.000000
vn -0.987690 -0.156426 -0.000000
vn -0.987690 -0.156426 -0.000000
vn -0.891030 -0.453945 -0.000000
vn -0.891030 -0.453945 -0.000000
vn -0.891030 -0.453945 -0.000000
vn -0.891030 -0.453945 -0.000000
vn -0.707049 -0.707165 -0.000000
vn -0.707049 -0.707165 -0.000000
vn -0.707049 -0.707165 -0.000000
vn -0.707049 -0.707165 -0.000000
vn -0.453972 -0.891016 -0.000000
vn -0.453972 -0.891016 -0.000000
vn -0.453972 -0.891016 -0.000000
vn -0.453972 -0.891016 -0.000000
vn -0.156484 -0.987680 -0.000000
vn -0.156484 -0.987680 -0.000000
vn -0.156484 -0.987680 -0.000000
vn -0.156484 -0.987680 -0.000000
vn 0.156486 -0.987680 -0.000000
vn 0.156486 -0.987680 -0.000000
vn 0.156486 -0.987680 -0.000000
vn 0.156486 -0.987680 -0.000000
vn 0.453965 -0.891020 -0.000000
vn 0.453965 -0.891020 -0.000000
vn 0.453965 -0.891020 -0.000000
vn 0.453965 -0.891020 -0.000000
vn 0.707049 -0.707165 -0.000000
vn 0.707049 -0.707165 -0.000000
vn 0.707049 -0.707165 -0.000000
vn 0.707049 -0.707165 -0.000000
vn 0.891026 -0.453951 -0.000000
vn 0.891026 -0.453951 -0.000000
vn 0.891026 -0.453951 -0.000000
vn 0.891026 -0.453951 -0.000000
vn 0.987687 -0.156442 -0.000000
vn 0.987687 -0.156442 -0.000000
vn 0.987687 -0.156442 -0.000000
vn 0.987687 -0.156442 -0.000000
vn 0.987685 0.156455 -0.000000
vn 0.987685 0.156455 -0.000000
vn 0.987685 0.156455 -0.000000
vn 0.987685 0.156455 -0.000000
vn 0.824022 0.419850 0.380414
vn 0.824022 0.419850 0.380414
vn 0.824022 0.419850 0.380414
vn 0.824022 0.419849 0.380414
vn 0.653902 0.653994 0.380401
vn 0.653902 0.653994 0.380401
vn 0.653902 0.653994 0.380401
vn 0.653902 0.653994 0.380401
vn 0.419868 0.824018 0.380401
vn 0.419868 0.824018 0.380401
vn 0.419868 0.824018 0.380401
vn 0.419868 0.824018 0.380401
vn 0.144690 0.913420 0.380431
vn 0.144690 0.913420 0.380431
vn 0.144690 0.913420 0.380431
vn 0.144690 0.913420 0.380431
vn -0.144690 0.913420 0.380433
vn -0.144690 0.913420 0.380433
vn -0.144690 0.913420 0.380433
vn -0.144690 0.913420 0.380433
vn -0.438690 0.823112 0.360607
vn -0.438690 0.823112 0.360607
vn -0.438690 0.823112 0.360607
vn -0.438690 0.823112 0.360607
vn -0.664221 0.664356 0.342698
vn -0.664221 0.664356 0.342698
vn -0.664221 0.664356 0.342698
vn -0.664221 0.664356 0.342698
vn -0.837066 0.426483 0.342684
vn -0.837066 0.426483 0.342684
vn -0.837066 0.426483 0.342684
vn -0.837066 0.426483 0.342684
vn -0.927885 0.146968 0.342682
vn -0.927885 0.146968 0.342682
vn -0.927885 0.146968 0.342682
vn -0.927885 0.146968 0.342682
vn -0.927885 -0.146958 0.342684
vn -0.927885 -0.146958 0.342684
vn -0.927885 -0.146958 0.342684
vn -0.927885 -0.146958 0.342684
vn -0.837078 -0.426451 0.342696
vn -0.837078 -0.426451 0.342696
vn -0.837078 -0.426451 0.342696
vn -0.837078 -0.426451 0.342696
vn -0.664206 -0.664358 0.342722
vn -0.664206 -0.664358 0.342722
vn -0.664206 -0.664358 0.342722
vn -0.664206 -0.664359 0.342722
vn -0.438663 -0.823120 0.360623
vn -0.438663 -0.823119 0.360623
vn -0.438663 -0.823120 0.360623
vn -0.438663 -0.823119 0.360623
vn -0.144723 -0.913422 0.380415
vn -0.144723 -0.913422 0.380415
vn -0.144723 -0.913422 0.380415
vn -0.144723 -0.913422 0.380415
vn 0.144723 -0.913423 0.380413
vn 0.144723 -0.913423 0.380413
vn 0.144723 -0.913423 0.380413
vn 0.144723 -0.913423 0.380413
vn 0.419839 -0.824025 0.380418
vn 0.419839 -0.824025 0.380418
vn 0.419839 -0.824025 0.380418
vn 0.419839 -0.824025 0.380418
vn 0.653886 -0.653994 0.380427
vn 0.653886 -0.653994 0.380427
vn 0.653886 -0.653994 0.380427
vn 0.653886 -0.653994 0.380427
vn 0.824032 -0.419818 0.380426
vn 0.824032 -0.419818 0.380426
vn 0.824032 -0.419818 0.380426
vn 0.824032 -0.419818 0.380426
vn 0.913426 -0.144668 0.380426
vn 0.913426 -0.144668 0.380426
vn 0.913426 -0.144668 0.380426
vn 0.913426 -0.144668 0.380426
vn 0.913426 0.144678 0.380424
vn 0.913426 0.144678 0.380424
vn 0.913426 0.144678 0.380424
vn 0.913426 0.144678 0.380424
vn 0.542754 0.276538 0.793061
vn 0.542754 0.276538 0.793061
vn 0.542753 0.276538 0.793061
vn 0.542754 0.276538 0.793061
vn 0.430708 0.430756 0.793058
vn 0.430707 0.430756 0.793058
vn 0.430708 0.430756 0.793058
vn 0.430707 0.430756 0.793058
vn 0.276543 0.542762 0.793053
vn 0.276543 0.542762 0.793053
vn 0.276543 0.542762 0.793053
vn 0.276543 0.542762 0.793053
vn 0.095301 0.601652 0.793053
vn 0.095301 0.601652 0.793053
vn 0.095301 0.601652 0.793053
vn 0.095301 0.601652 0.793053
vn -0.095300 0.601651 0.793053
vn -0.095300 0.601651 0.793053
vn -0.095300 0.601651 0.793053
vn -0.095300 0.601651 0.793053
vn -0.276546 0.542761 0.793053
vn -0.276546 0.542761 0.793053
vn -0.276546 0.542761 0.793053
vn -0.276546 0.542761 0.793053
vn -0.430617 0.430797 0.793085
vn -0.430617 0.430797 0.793085
vn -0.430617 0.430797 0.793085
vn -0.430617 0.430797 0.793085
vn -0.542697 0.276496 0.793114
vn -0.542697 0.276496 0.793114
vn -0.542697 0.276496 0.793114
vn -0.542697 0.276496 0.793114
vn -0.601575 0.095287 0.793113
vn -0.601575 0.095287 0.793113
vn -0.601575 0.095287 0.793113
vn -0.601575 0.095287 0.793113
vn -0.601578 -0.095282 0.793112
vn -0.601578 -0.095282 0.793112
vn -0.601578 -0.095282 0.793111
vn -0.601578 -0.095282 0.793111
vn -0.542708 -0.276476 0.793113
vn -0.542708 -0.276476 0.793113
vn -0.542708 -0.276476 0.793113
vn -0.542708 -0.276476 0.793113
vn -0.430610 -0.430804 0.793084
vn -0.430610 -0.430804 0.793084
vn -0.430610 -0.430804 0.793084
vn -0.430610 -0.430804 0.793084
vn -0.276535 -0.542766 0.793053
vn -0.276535 -0.542766 0.793053
vn -0.276535 -0.542766 0.793053
vn -0.276535 -0.542766 0.793053
vn -0.095334 -0.601643 0.793056
vn -0.095334 -0.601643 0.793056
vn -0.095334 -0.601643 0.793056
vn -0.095334 -0.601643 0.793056
vn 0.095334 -0.601644 0.793055
vn 0.095334 -0.601643 0.793055
vn 0.095334 -0.601643 0.793055
vn 0.095334 -0.601643 0.793055
vn 0.276532 -0.542768 0.793053
vn 0.276532 -0.542768 0.793053
vn 0.276532 -0.542768 0.793053
vn 0.276532 -0.542768 0.793053
vn 0.430700 -0.430763 0.793058
vn 0.430701 -0.430763 0.793058
vn 0.430701 -0.430763 0.793058
vn 0.430701 -0.430763 0.793058
vn 0.542765 -0.276519 0.793060
vn 0.542764 -0.276519 0.793060
vn 0.542764 -0.276519 0.793060
vn 0.542764 -0.276519 0.793060
vn 0.601649 -0.095282 0.793057
vn 0.601649 -0.095282 0.793057
vn 0.601649 -0.095282 0.793057
vn 0.601649 -0.095282 0.793057
vn 0.601647 0.095289 0.793058
vn 0.601647 0.095289 0.793058
vn 0.601647 0.095289 0.793058
vn 0.601647 0.095289 0.793058
vn 0.238890 0.121714 0.963389
vn 0.238890 0.121714 0.963389
vn 0.238890 0.121714 0.963389
vn 0.238890 0.121714 0.963389
vn 0.189571 0.189592 0.963389
vn 0.189571 0.189592 0.963389
vn 0.189571 0.189592 0.963389
vn 0.189571 0.189592 0.963389
vn 0.121718 0.238890 0.963388
vn 0.121718 0.238890 0.963388
vn 0.121718 0.238890 0.963388
vn 0.121718 0.238890 0.963388
vn 0.041942 0.264810 0.963388
vn 0.041942 0.264810 0.963388
vn 0.041942 0.264810 0.963388
vn 0.041942 0.264810 0.963388
vn -0.041941 0.264810 0.963388
vn -0.041941 0.264810 0.963388
vn -0.041941 0.264810 0.963388
vn -0.041941 0.264810 0.963388
vn -0.121719 0.238889 0.963388
vn -0.121719 0.238889 0.963388
vn -0.121719 0.238889 0.963388
vn -0.121719 0.238889 0.963388
vn -0.189569 0.189592 0.963389
vn -0.189569 0.189592 0.963389
vn -0.189569 0.189592 0.963389
vn -0.189569 0.189592 0.963389
vn -0.238893 0.121710 0.963388
vn -0.238893 0.121710 0.963388
vn -0.238893 0.121710 0.963388
vn -0.238893 0.121710 0.963388
vn -0.264810 0.041946 0.963388
vn -0.264810 0.041946 0.963388
vn -0.264810 0.041946 0.963388
vn -0.264810 0.041946 0.963388
vn -0.264812 -0.041943 0.963387
vn -0.264812 -0.041943 0.963387
vn -0.264812 -0.041943 0.963387
vn -0.264812 -0.041943 0.963387
vn -0.238898 -0.121702 0.963388
vn -0.238898 -0.121702 0.963388
vn -0.238898 -0.121702 0.963388
vn -0.238898 -0.121702 0.963388
vn -0.189570 -0.189594 0.963388
vn -0.189570 -0.189594 0.963388
vn -0.189570 -0.189594 0.963388
vn -0.189570 -0.189595 0.963388
vn -0.121708 -0.238900 0.963387
vn -0.121708 -0.238900 0.963387
vn -0.121708 -0.238900 0.963387
vn -0.121708 -0.238900 0.963387
vn -0.041966 -0.264810 0.963387
vn -0.041966 -0.264810 0.963387
vn -0.041966 -0.264810 0.963387
vn -0.041966 -0.264810 0.963387
vn 0.041966 -0.264810 0.963387
vn 0.041966 -0.264810 0.963387
vn 0.041966 -0.264810 0.963387
vn 0.041966 -0.264810 0.963387
vn 0.121707 -0.238900 0.963387
vn 0.121707 -0.238901 0.963387
vn 0.121707 -0.238901 0.963387
vn 0.121707 -0.238901 0.963387
vn 0.189572 -0.189593 0.963388
vn 0.189572 -0.189593 0.963388
vn 0.189572 -0.189593 0.963388
vn 0.189572 -0.189593 0.963388
vn 0.238895 -0.121708 0.963388
vn 0.238895 -0.121708 0.963388
vn 0.238895 -0.121708 0.963388
vn 0.238895 -0.121708 0.963388
vn 0.264812 -0.041939 0.963388
vn 0.264812 -0.041939 0.963387
vn 0.264812 -0.041939 0.963387
vn 0.264812 -0.041939 0.963387
vn 0.264810 0.041942 0.963388
vn 0.264810 0.041942 0.963388
vn 0.264810 0.041942 0.963388
vn 0.264810 0.041942 0.963388
s 1
g pCylinder1
usemtl initialShadingGroup
f 1/21/1 2/22/2 22/43/3 21/42/4
f 2/22/2 3/23/5 23/44/6 22/43/3
f 3/23/5 4/24/7 24/45/8 23/44/6
f 4/24/7 5/25/9 25/46/10 24/45/8
f 5/25/9 6/26/11 26/47/12 25/46/10
f 6/26/11 7/27/13 27/48/14 26/47/12
f 7/27/13 8/28/15 28/49/16 27/48/14
f 8/28/15 9/29/17 29/50/18 28/49/16
f 9/29/17 10/30/19 30/51/20 29/50/18
f 10/30/19 11/31/21 31/52/22 30/51/20
f 11/31/21 12/32/23 32/53/24 31/52/22
f 12/32/23 13/33/25 33/54/26 32/53/24
f 13/33/25 14/34/27 34/55/28 33/54/26
f 14/34/27 15/35/29 35/56/30 34/55/28
f 15/35/29 16/36/31 36/57/32 35/56/30
f 16/36/31 17/37/33 37/58/34 36/57/32
f 17/37/33 18/38/35 38/59/36 37/58/34
f 18/38/35 19/39/37 39/60/38 38/59/36
f 19/39/37 20/40/39 40/61/40 39/60/38
f 20/40/39 1/41/1 21/62/4 40/61/40
s 2
f 2/2/41 1/1/42 41/83/43
f 3/3/44 2/2/41 41/83/43
f 4/4/45 3/3/44 41/83/43
f 5/5/46 4/4/45 41/83/43
f 6/6/47 5/5/46 41/83/43
f 7/7/48 6/6/47 41/83/43
f 8/8/49 7/7/48 41/83/43
f 9/9/50 8/8/49 41/83/43
f 10/10/51 9/9/50 41/83/43
f 11/11/52 10/10/51 41/83/43
f 12/12/53 11/11/52 41/83/43
f 13/13/54 12/12/53 41/83/43
f 14/14/55 13/13/54 41/83/43
f 15/15/56 14/14/55 41/83/43
f 16/16/57 15/15/56 41/83/43
f 17/17/58 16/16/57 41/83/43
f 18/18/59 17/17/58 41/83/43
f 19/19/60 18/18/59 41/83/43
f 20/20/61 19/19/60 41/83/43
f 1/1/42 20/20/61 41/83/43
s 3
f 202/245/62 203/246/63 204/84/64
f 203/246/63 205/247/65 204/84/64
f 205/247/65 206/248/66 204/84/64
f 206/248/66 207/249/67 204/84/64
f 207/249/67 208/250/68 204/84/64
f 208/250/68 209/251/69 204/84/64
f 209/251/69 210/252/70 204/84/64
f 210/252/70 211/253/71 204/84/64
f 211/253/71 212/254/72 204/84/64
f 212/254/72 213/255/73 204/84/64
f 213/255/73 214/256/74 204/84/64
f 214/256/74 215/257/75 204/84/64
f 215/257/75 216/258/76 204/84/64
f 216/258/76 217/259/77 204/84/64
f 217/259/77 218/260/78 204/84/64
f 218/260/78 219/261/79 204/84/64
f 219/261/79 220/262/80 204/84/64
f 220/262/80 221/263/81 204/84/64
f 221/263/81 222/264/82 204/84/64
f 222/264/82 202/245/62 204/84/64
s off
f 21/81/83 22/80/84 43/86/85 42/85/86
f 22/80/87 23/79/88 44/87/89 43/86/90
f 23/79/91 24/78/92 45/88/93 44/87/94
f 24/78/95 25/77/96 46/89/97 45/88/98
f 25/77/99 26/76/100 47/90/101 46/89/102
f 26/76/103 27/75/104 48/91/105 47/90/106
f 27/75/107 28/74/108 49/92/109 48/91/110
f 28/74/111 29/73/112 50/93/113 49/92/114
f 29/73/115 30/72/116 51/94/117 50/93/118
f 30/72/119 31/71/120 52/95/121 51/94/122
f 31/71/123 32/70/124 53/96/125 52/95/126
f 32/70/127 33/69/128 54/97/129 53/96/130
f 33/69/131 34/68/132 55/98/133 54/97/134
f 34/68/135 35/67/136 56/99/137 55/98/138
f 35/67/139 36/66/140 57/100/141 56/99/142
f 36/66/143 37/65/144 58/101/145 57/100/146
f 37/65/147 38/64/148 59/102/149 58/101/150
f 38/64/151 39/63/152 60/103/153 59/102/154
f 39/63/155 40/82/156 61/104/157 60/103/158
f 40/82/159 21/81/160 42/85/161 61/104/162
f 42/85/163 43/86/164 63/106/165 62/105/166
f 43/86/167 44/87/168 64/107/169 63/106/170
f 44/87/171 45/88/172 65/108/173 64/107/174
f 45/88/175 46/89/176 66/109/177 65/108/178
f 46/89/179 47/90/180 67/110/181 66/109/182
f 47/90/183 48/91/184 68/111/185 67/110/186
f 48/91/187 49/92/188 69/112/189 68/111/190
f 49/92/191 50/93/192 70/113/193 69/112/194
f 50/93/195 51/94/196 71/114/197 70/113/198
f 51/94/199 52/95/200 72/115/201 71/114/202
f 52/95/203 53/96/204 73/116/205 72/115/206
f 53/96/207 54/97/208 74/117/209 73/116/210
f 54/97/211 55/98/212 75/118/213 74/117/214
f 55/98/215 56/99/216 76/119/217 75/118/218
f 56/99/219 57/100/220 77/120/221 76/119/222
f 57/100/223 58/101/224 78/121/225 77/120/226
f 58/101/227 59/102/228 79/122/229 78/121/230
f 59/102/231 60/103/232 80/123/233 79/122/234
f 60/103/235 61/104/236 81/124/237 80/123/238
f 61/104/239 42/85/240 62/105/241 81/124/242
f 62/105/243 63/106/244 83/126/245 82/125/246
f 63/106/247 64/107/248 84/127/249 83/126/250
f 64/107/251 65/108/252 85/128/253 84/127/254
f 65/108/255 66/109/256 86/129/257 85/128/258
f 66/109/259 67/110/260 87/130/261 86/129/262
f 67/110/263 68/111/264 88/131/265 87/130/266
f 68/111/267 69/112/268 89/132/269 88/131/270
f 69/112/271 70/113/272 90/133/273 89/132/274
f 70/113/275 71/114/276 91/134/277 90/133/278
f 71/114/279 72/115/280 92/135/281 91/134/282
f 72/115/283 73/116/284 93/136/285 92/135/286
f 73/116/287 74/117/288 94/137/289 93/136/290
f 74/117/291 75/118/292 95/138/293 94/137/294
f 75/118/295 76/119/296 96/139/297 95/138/298
f 76/119/299 77/120/300 97/140/301 96/139/302
f 77/120/303 78/121/304 98/141/305 97/140/306
f 78/121/307 79/122/308 99/142/309 98/141/310
f 79/122/311 80/123/312 100/143/313 99/142/314
f 80/123/315 81/124/316 101/144/317 100/143/318
f 81/124/319 62/105/320 82/125/321 101/144/322
f 82/125/323 83/126/324 103/146/325 102/145/326
f 83/126/327 84/127/328 104/147/329 103/146/330
f 84/127/331 85/128/332 105/148/333 104/147/334
f 85/128/335 86/129/336 106/149/337 105/148/338
f 86/129/339 87/130/340 107/150/341 106/149/342
f 87/130/343 88/131/344 108/151/345 107/150/346
f 88/131/347 89/132/348 109/152/349 108/151/350
f 89/132/351 90/133/352 110/153/353 109/152/354
f 90/133/355 91/134/356 111/154/357 110/153/358
f 91/134/359 92/135/360 112/155/361 111/154/362
f 92/135/363 93/136/364 113/156/365 112/155/366
f 93/136/367 94/137/368 114/157/369 113/156/370
f 94/137/371 95/138/372 115/158/373 114/157/374
f 95/138/375 96/139/376 116/159/377 115/158/378
f 96/139/379 97/140/380 117/160/381 116/159/382
f 97/140/383 98/141/384 118/161/385 117/160/386
f 98/141/387 99/142/388 119/162/389 118/161/390
f 99/142/391 100/143/392 120/163/393 119/162/394
f 100/143/395 101/144/396 121/164/397 120/163/398
f 101/144/399 82/125/400 102/145/401 121/164/402
f 102/145/403 103/146/404 123/166/405 122/165/406
f 103/146/407 104/147/408 124/167/409 123/166/410
f 104/147/411 105/148/412 125/168/413 124/167/414
f 105/148/415 106/149/416 126/169/417 125/168/418
f 106/149/419 107/150/420 127/170/421 126/169/422
f 107/150/423 108/151/424 128/171/425 127/170/426
f 108/151/427 109/152/428 129/172/429 128/171/430
f 109/152/431 110/153/432 130/173/433 129/172/434
f 110/153/435 111/154/436 131/174/437 130/173/438
f 111/154/439 112/155/440 132/175/441 131/174/442
f 112/155/443 113/156/444 133/176/445 132/175/446
f 113/156/447 114/157/448 134/177/449 133/176/450
f 114/157/451 115/158/452 135/178/453 134/177/454
f 115/158/455 116/159/456 136/179/457 135/178/458
f 116/159/459 117/160/460 137/180/461 136/179/462
f 117/160/463 118/161/464 138/181/465 137/180/466
f 118/161/467 119/162/468 139/182/469 138/181/470
f 119/162/471 120/163/472 140/183/473 139/182/474
f 120/163/475 121/164/476 141/184/477 140/183/478
f 121/164/479 102/145/480 122/165/481 141/184/482
f 122/165/483 123/166/484 143/186/485 142/185/486
f 123/166/487 124/167/488 144/187/489 143/186/490
f 124/167/491 125/168/492 145/188/493 144/187/494
f 125/168/495 126/169/496 146/189/497 145/188/498
f 126/169/499 127/170/500 147/190/501 146/189/502
f 127/170/503 128/171/504 148/191/505 147/190/506
f 128/171/507 129/172/508 149/192/509 148/191/510
f 129/172/511 130/173/512 150/193/513 149/192/514
f 130/173/515 131/174/516 151/194/517 150/193/518
f 131/174/519 132/175/520 152/195/521 151/194/522
f 132/175/523 133/176/524 153/196/525 152/195/526
f 133/176/527 134/177/528 154/197/529 153/196/530
f 134/177/531 135/178/532 155/198/533 154/197/534
f 135/178/535 136/179/536 156/199/537 155/198/538
f 136/179/539 137/180/540 157/200/541 156/199/542
f 137/180/543 138/181/544 158/201/545 157/200/546
f 138/181/547 139/182/548 159/202/549 158/201/550
f 139/182/551 140/183/552 160/203/553 159/202/554
f 140/183/555 141/184/556 161/204/557 160/203/558
f 141/184/559 122/165/560 142/185/561 161/204/562
f 142/185/563 143/186/564 163/206/565 162/205/566
f 143/186/567 144/187/568 164/207/569 163/206/570
f 144/187/571 145/188/572 165/208/573 164/207/574
f 145/188/575 146/189/576 166/209/577 165/208/578
f 146/189/579 147/190/580 167/210/581 166/209/582
f 147/190/583 148/191/584 168/211/585 167/210/586
f 148/191/587 149/192/588 169/212/589 168/211/590
f 149/192/591 150/193/592 170/213/593 169/212/594
f 150/193/595 151/194/596 171/214/597 170/213/598
f 151/194/599 152/195/600 172/215/601 171/214/602
f 152/195/603 153/196/604 173/216/605 172/215/606
f 153/196/607 154/197/608 174/217/609 173/216/610
f 154/197/611 155/198/612 175/218/613 174/217/614
f 155/198/615 156/199/616 176/219/617 175/218/618
f 156/199/619 157/200/620 177/220/621 176/219/622
f 157/200/623 158/201/624 178/221/625 177/220/626
f 158/201/627 159/202/628 179/222/629 178/221/630
f 159/202/631 160/203/632 180/223/633 179/222/634
f 160/203/635 161/204/636 181/224/637 180/223/638
f 161/204/639 142/185/640 162/205/641 181/224/642
f 162/205/643 163/206/644 183/226/645 182/225/646
f 163/206/647 164/207/648 184/227/649 183/226/650
f 164/207/651 165/208/652 185/228/653 184/227/654
f 165/208/655 166/209/656 186/229/657 185/228/658
f 166/209/659 167/210/660 187/230/661 186/229/662
f 167/210/663 168/211/664 188/231/665 187/230/666
f 168/211/667 169/212/668 189/232/669 188/231/670
f 169/212/671 170/213/672 190/233/673 189/232/674
f 170/213/675 171/214/676 191/234/677 190/233/678
f 171/214/679 172/215/680 192/235/681 191/234/682
f 172/215/683 173/216/684 193/236/685 192/235/686
f 173/216/687 174/217/688 194/237/689 193/236/690
f 174/217/691 175/218/692 195/238/693 194/237/694
f 175/218/695 176/219/696 196/239/697 195/238/698
f 176/219/699 177/220/700 197/240/701 196/239/702
f 177/220/703 178/221/704 198/241/705 197/240/706
f 178/221/707 179/222/708 199/242/709 198/241/710
f 179/222/711 180/223/712 200/243/713 199/242/714
f 180/223/715 181/224/716 201/244/717 200/243/718
f 181/224/719 162/205/720 182/225/721 201/244/722
f 182/225/723 183/226/724 203/246/725 202/245/726
f 183/226/727 184/227/728 205/247/729 203/246/730
f 184/227/731 185/228/732 206/248/733 205/247/734
f 185/228/735 186/229/736 207/249/737 206/248/738
f 186/229/739 187/230/740 208/250/741 207/249/742
f 187/230/743 188/231/744 209/251/745 208/250/746
f 188/231/747 189/232/748 210/252/749 209/251/750
f 189/232/751 190/233/752 211/253/753 210/252/754
f 190/233/755 191/234/756 212/254/757 211/253/758
f 191/234/759 192/235/760 213/255/761 212/254/762
f 192/235/763 193/236/764 214/256/765 213/255/766
f 193/236/767 194/237/768 215/257/769 214/256/770
f 194/237/771 195/238/772 216/258/773 215/257/774
f 195/238/775 196/239/776 217/259/777 216/258/778
f 196/239/779 197/240/780 218/260/781 217/259/782
f 197/240/783 198/241/784 219/261/785 218/260/786
f 198/241/787 199/242/788 220/262/789 219/261/790
f 199/242/791 200/243/792 221/263/793 220/262/794
f 200/243/795 201/244/796 222/264/797 221/263/798
f 201/244/799 182/225/800 202/245/801 222/264/802
