%YAML 1.1
%TAG !u! tag:unity3d.com,2011:
--- !u!1 &54725761529742626
GameObject:
  m_ObjectHideFlags: 0
  m_CorrespondingSourceObject: {fileID: 0}
  m_PrefabInstance: {fileID: 0}
  m_PrefabAsset: {fileID: 0}
  serializedVersion: 6
  m_Component:
  - component: {fileID: 54725761529742636}
  - component: {fileID: 54725761529742627}
  m_Layer: 0
  m_Name: SceneController
  m_TagString: Untagged
  m_Icon: {fileID: 0}
  m_NavMeshLayer: 0
  m_StaticEditorFlags: 0
  m_IsActive: 1
--- !u!4 &54725761529742636
Transform:
  m_ObjectHideFlags: 0
  m_CorrespondingSourceObject: {fileID: 0}
  m_PrefabInstance: {fileID: 0}
  m_PrefabAsset: {fileID: 0}
  m_GameObject: {fileID: 54725761529742626}
  m_LocalRotation: {x: 0, y: 0, z: 0, w: 1}
  m_LocalPosition: {x: 0, y: 0, z: 0}
  m_LocalScale: {x: 1, y: 1, z: 1}
  m_Children: []
  m_Father: {fileID: 0}
  m_RootOrder: 0
  m_LocalEulerAnglesHint: {x: 0, y: 0, z: 0}
--- !u!114 &54725761529742627
MonoBehaviour:
  m_ObjectHideFlags: 0
  m_CorrespondingSourceObject: {fileID: 0}
  m_PrefabInstance: {fileID: 0}
  m_PrefabAsset: {fileID: 0}
  m_GameObject: {fileID: 54725761529742626}
  m_Enabled: 1
  m_EditorHideFlags: 0
  m_Script: {fileID: 11500000, guid: ff4fdb141bec748e48b72fcd570be3e7, type: 3}
  m_Name: 
  m_EditorClassIdentifier: 
  timeToUnload: 1
  sceneNames:
  - Justin - Scene 1
  - Justin - Scene 2
  - Brady
  - Rachel
  - Ronny
  - Eric
  - Eric
  - Daniel
  - Jasmine
  - Nikita
  intro: {fileID: 0}
  appController: {fileID: 0}
  walkingController_temporary: {fileID: 0}
