# Blender v2.81 (sub 16) OBJ File: 'ComatoseScene.blend'
# www.blender.org
mtllib Key.mtl
o Key_Cube
v 0.077410 0.220581 1.735596
v 0.368813 0.220581 1.735596
v 0.077410 0.220581 1.859699
v 0.368813 0.220581 1.859699
v -0.291415 0.176169 1.743461
v -0.132612 0.176169 1.743461
v -0.291415 0.176169 1.873316
v -0.132612 0.176169 1.873316
v -0.316945 -0.553921 1.924188
v -0.356575 -0.553921 1.887525
v 0.779148 0.514622 1.924188
v 0.821621 0.514622 1.887525
v 0.500528 0.209750 1.887525
v 0.458395 0.209750 1.924188
v -0.500528 -0.437819 1.887525
v -0.459720 -0.437819 1.924188
v 0.500528 -0.437819 1.887525
v 0.458549 -0.437819 1.924188
v -0.821621 0.514622 1.887525
v -0.779820 0.514622 1.924188
v -0.459367 0.209750 1.924188
v -0.500528 0.209750 1.887525
v -0.317587 -1.270248 1.924188
v -0.356575 -1.270248 1.887525
v -0.318043 -1.379779 1.924188
v -0.356575 -1.379779 1.887525
v -0.318349 -1.436734 1.924188
v -0.356575 -1.436734 1.887525
v -0.318530 -1.482737 1.924188
v -0.356575 -1.482737 1.887525
v -0.318601 -1.574742 1.924188
v -0.356575 -1.574742 1.887525
v -0.318566 -1.710560 1.924188
v -0.356575 -1.710560 1.887525
v -0.318424 -1.809137 1.924188
v -0.356575 -1.809137 1.887525
v -0.318163 -1.918667 1.924188
v -0.356575 -1.918667 1.887525
v -0.308381 -2.124583 1.887525
v -0.022560 -2.267550 1.924188
v -0.018114 -2.304213 1.887525
v 1.012700 0.879726 1.924188
v 1.055072 0.879726 1.887525
v -1.055072 0.879726 1.887525
v -1.013217 0.879726 1.924188
v 1.108075 1.293729 1.924188
v 1.150525 1.293729 1.887525
v -1.150525 1.293729 1.887525
v -1.108511 1.293729 1.924188
v 1.006292 1.710991 1.924188
v 1.049206 1.710991 1.887525
v -1.049206 1.710991 1.887525
v -1.006683 1.710991 1.924188
v 0.749307 2.079356 1.924188
v 0.793090 2.079356 1.887525
v -0.793090 2.079356 1.887525
v -0.749672 2.079356 1.924188
v 0.324391 2.369483 1.887525
v 0.338842 2.332820 1.924188
v -0.339192 2.332820 1.924188
v -0.324391 2.369483 1.887525
v -0.356575 -0.553921 1.719349
v -0.316945 -0.553921 1.682686
v 0.821621 0.514622 1.719349
v 0.779148 0.514622 1.682686
v 0.458395 0.209750 1.682686
v 0.500528 0.209750 1.719349
v -0.459720 -0.437819 1.682686
v -0.500528 -0.437819 1.719349
v 0.458549 -0.437819 1.682686
v 0.500528 -0.437819 1.719349
v -0.779820 0.514622 1.682686
v -0.821621 0.514622 1.719349
v -0.500528 0.209750 1.719349
v -0.459367 0.209750 1.682686
v -0.356575 -1.270248 1.719349
v -0.317587 -1.270248 1.682686
v -0.356575 -1.379779 1.719349
v -0.318043 -1.379779 1.682686
v -0.356575 -1.436734 1.719349
v -0.318349 -1.436734 1.682686
v -0.356575 -1.482737 1.719349
v -0.318530 -1.482737 1.682686
v -0.356575 -1.574742 1.719349
v -0.318601 -1.574742 1.682686
v -0.356575 -1.710560 1.719349
v -0.318566 -1.710560 1.682686
v -0.356575 -1.809137 1.719349
v -0.318424 -1.809137 1.682686
v -0.356575 -1.918667 1.719349
v -0.318163 -1.918667 1.682686
v -0.308381 -2.124583 1.719349
v -0.018114 -2.304213 1.719349
v -0.022560 -2.267550 1.682686
v 1.055072 0.879726 1.719349
v 1.012700 0.879726 1.682686
v -1.013217 0.879726 1.682686
v -1.055072 0.879726 1.719349
v 1.150525 1.293729 1.719349
v 1.108075 1.293729 1.682686
v -1.108511 1.293729 1.682686
v -1.150525 1.293729 1.719349
v 1.049206 1.710991 1.719349
v 1.006292 1.710991 1.682686
v -1.006683 1.710991 1.682686
v -1.049206 1.710991 1.719349
v 0.793090 2.079356 1.719349
v 0.749307 2.079356 1.682686
v -0.749672 2.079356 1.682686
v -0.793090 2.079356 1.719349
v 0.338842 2.332820 1.682686
v 0.324391 2.369483 1.719349
v -0.324391 2.369483 1.719349
v -0.339192 2.332820 1.682686
v 1.087732 1.502360 1.924188
v 1.131647 1.502360 1.887525
v -1.088152 1.502360 1.924188
v -1.131641 1.502360 1.887525
v 1.131647 1.502360 1.719349
v 1.087732 1.502360 1.682686
v -1.131641 1.502360 1.719349
v -1.088152 1.502360 1.682686
v 0.902370 1.895173 1.924188
v 0.946931 1.895173 1.887525
v -0.902753 1.895173 1.924188
v -0.946926 1.895173 1.887525
v 0.946931 1.895173 1.719349
v 0.902370 1.895173 1.682686
v -0.946926 1.895173 1.719349
v -0.902753 1.895173 1.682686
v 0.625365 2.206088 1.924188
v 0.642221 2.224420 1.887525
v -0.625749 2.206088 1.924188
v -0.642195 2.224420 1.887525
v 0.642221 2.224420 1.719349
v 0.625365 2.206088 1.682686
v -0.642195 2.224420 1.719349
v -0.625749 2.206088 1.682686
v 1.086697 1.086728 1.924188
v 1.130160 1.086728 1.887525
v -1.087180 1.086728 1.924188
v -1.130155 1.086728 1.887525
v 1.130160 1.086728 1.719349
v 1.086698 1.086728 1.682686
v -1.130155 1.086728 1.719349
v -1.087180 1.086728 1.682686
v 0.930595 0.697174 1.924188
v 0.974658 0.697174 1.887525
v -0.931200 0.697174 1.924188
v -0.974647 0.697174 1.887525
v 0.974658 0.697174 1.719349
v 0.930595 0.697174 1.682686
v -0.974647 0.697174 1.719349
v -0.931200 0.697174 1.682686
v -0.616775 0.362186 1.887525
v -0.578074 0.362186 1.924188
v 0.616747 0.362186 1.887525
v 0.577280 0.362186 1.924188
v -0.578074 0.362186 1.682686
v -0.616775 0.362186 1.719349
v 0.577280 0.362186 1.682686
v 0.616747 0.362186 1.719349
v -0.115750 2.018104 1.682686
v -0.115750 2.018104 1.924188
v 0.000000 2.041128 1.682686
v 0.000000 2.041128 1.924188
v -0.059008 2.035316 1.682686
v -0.059008 2.035316 1.924188
v -0.251495 1.570615 1.924188
v -0.251495 1.570615 1.682686
v -0.213879 1.524780 1.924188
v -0.213879 1.524780 1.682686
v -0.186560 1.502360 1.924188
v -0.279446 1.622908 1.924188
v -0.279446 1.622908 1.682686
v -0.168043 1.487164 1.682686
v -0.168043 1.487164 1.924188
v -0.000000 1.436188 1.682686
v -0.000000 1.436188 1.924188
v 0.059009 1.442000 1.682686
v 0.059009 1.442000 1.924188
v -0.186560 1.502360 1.682686
v -0.059009 1.442000 1.682686
v -0.059009 1.442000 1.924188
v 0.296658 1.797667 1.924188
v 0.296658 1.797667 1.682686
v 0.213879 1.952537 1.682686
v 0.213879 1.952537 1.924188
v 0.168043 1.990153 1.682686
v 0.168043 1.990153 1.924188
v 0.115750 1.459212 1.682686
v 0.115750 1.459212 1.924188
v 0.279446 1.854409 1.924188
v 0.279446 1.854409 1.682686
v -0.251494 1.906702 1.682686
v -0.251494 1.906702 1.924188
v -0.213878 1.952537 1.682686
v -0.213878 1.952537 1.924188
v -0.257657 1.895173 1.924188
v -0.257657 1.895173 1.682686
v 0.059009 2.035316 1.682686
v 0.059009 2.035316 1.924188
v -0.279446 1.854409 1.924188
v -0.279446 1.854409 1.682686
v 0.279446 1.622908 1.924188
v 0.279446 1.622908 1.682686
v 0.296658 1.679649 1.924188
v 0.296658 1.679649 1.682686
v 0.251495 1.570615 1.924188
v 0.251495 1.570615 1.682686
v 0.302470 1.738658 1.924188
v 0.302470 1.738658 1.682686
v 0.299745 1.710991 1.682686
v 0.299745 1.710991 1.924188
v -0.296658 1.679650 1.924188
v -0.296658 1.679650 1.682686
v -0.168043 1.990153 1.682686
v -0.168043 1.990153 1.924188
v -0.115750 1.459213 1.682686
v -0.115750 1.459213 1.924188
v -0.299745 1.710991 1.924188
v -0.302470 1.738659 1.924188
v -0.302470 1.738659 1.682686
v -0.299745 1.710991 1.682686
v 0.251495 1.906701 1.682686
v 0.251495 1.906702 1.924188
v 0.213879 1.524780 1.924188
v 0.213879 1.524780 1.682686
v 0.186560 1.502360 1.682686
v 0.257656 1.895173 1.924188
v 0.257656 1.895173 1.682686
v 0.186560 1.502360 1.924188
v 0.168043 1.487164 1.682686
v 0.168043 1.487164 1.924188
v -0.296658 1.797668 1.924188
v -0.296658 1.797668 1.682686
v 0.115750 2.018104 1.682686
v 0.115750 2.018104 1.924188
v -0.132612 0.176169 1.924188
v -0.291415 0.176169 1.924188
v -0.291415 -0.437819 1.924188
v -0.291415 -0.553921 1.924188
v -0.291415 -1.270248 1.924188
v -0.291415 -1.379779 1.924188
v -0.291415 -1.436734 1.924188
v -0.291415 -1.482737 1.924188
v -0.291415 -1.574742 1.924188
v -0.291415 -1.710560 1.924188
v -0.291415 -1.809137 1.924188
v -0.291415 -1.918667 1.924188
v -0.291415 -2.032062 1.924188
v -0.291415 -2.124583 1.903561
v -0.291415 -2.145335 1.873316
v -0.291415 -2.145335 1.887525
v -0.132612 -0.437819 1.924188
v -0.132612 -0.553921 1.924188
v -0.132612 -1.270248 1.924188
v -0.132612 -1.379779 1.924188
v -0.132612 -1.436734 1.924188
v -0.132612 -1.482737 1.924188
v -0.132612 -1.574742 1.924188
v -0.132612 -1.710560 1.924188
v -0.132612 -1.809137 1.924188
v -0.132612 -1.918667 1.924188
v -0.132612 -2.124583 1.924188
v -0.132612 -2.304213 1.873316
v -0.132612 -2.304213 1.887525
v -0.132612 -2.267550 1.924188
v -0.161516 -2.304213 1.873316
v -0.132612 0.176169 1.682686
v -0.291415 -2.145335 1.743461
v -0.132612 -2.304213 1.743461
v -0.161516 -2.304213 1.743461
v -0.291415 -0.437819 1.682686
v -0.291415 -0.553921 1.682686
v -0.291415 -1.270248 1.682686
v -0.291415 -1.379779 1.682686
v -0.291415 -1.436734 1.682686
v -0.291415 -1.482737 1.682686
v -0.291415 -1.574742 1.682686
v -0.291415 -1.710560 1.682686
v -0.291415 -1.809137 1.682686
v -0.291415 -1.918667 1.682686
v -0.291415 -2.032062 1.682686
v -0.291415 -2.145335 1.719349
v -0.291415 -2.124583 1.703313
v -0.291415 0.176169 1.682686
v -0.132612 -0.437819 1.682686
v -0.132612 -0.553921 1.682686
v -0.132612 -1.270248 1.682686
v -0.132612 -1.379779 1.682686
v -0.132612 -1.436734 1.682686
v -0.132612 -1.482737 1.682686
v -0.132612 -1.574742 1.682686
v -0.132612 -1.710560 1.682686
v -0.132612 -1.809137 1.682686
v -0.132612 -1.918667 1.682686
v -0.132612 -2.124583 1.682686
v -0.132612 -2.267550 1.682686
v -0.132612 -2.304213 1.719349
v 0.368813 0.220581 1.924188
v 0.077410 -2.124583 1.924188
v 0.077410 -2.216245 1.887525
v 0.077410 -2.175721 1.924188
v 0.077410 0.220581 1.924188
v 0.077410 0.209750 1.924188
v 0.077410 -0.437819 1.924188
v 0.077410 -0.553921 1.924188
v 0.077410 -1.270248 1.924188
v 0.077410 -1.379779 1.924188
v 0.077410 -1.436734 1.924188
v 0.077410 -1.482737 1.924188
v 0.077410 -1.574742 1.924188
v 0.077410 -1.710560 1.924188
v 0.077410 -1.809137 1.924188
v 0.077410 -1.918667 1.924188
v 0.077410 -2.216245 1.859699
v 0.368813 0.209750 1.924188
v 0.368813 -0.437819 1.924188
v 0.368813 -0.510449 1.924188
v 0.368813 -0.544051 1.859699
v 0.368813 -0.544051 1.887525
v 0.356575 -0.553921 1.859699
v 0.356575 -1.270248 1.859699
v 0.310572 -1.379779 1.859699
v 0.310572 -1.436734 1.859699
v 0.336859 -1.482737 1.859699
v 0.347812 -1.809137 1.859699
v 0.347812 -1.918667 1.859699
v 0.253616 -1.574742 1.859699
v 0.249235 -1.710560 1.859699
v 0.176945 -2.124583 1.859699
v 0.368813 0.220581 1.682686
v 0.077410 -2.216245 1.735596
v 0.368813 -0.544051 1.735596
v 0.356575 -0.553921 1.735596
v 0.356575 -1.270248 1.735596
v 0.310572 -1.379779 1.735596
v 0.310572 -1.436734 1.735596
v 0.336859 -1.482737 1.735596
v 0.253616 -1.574742 1.735596
v 0.249235 -1.710559 1.735596
v 0.347812 -1.809137 1.735596
v 0.347812 -1.918667 1.735596
v 0.176945 -2.124583 1.735596
v 0.077410 -0.437819 1.682686
v 0.077410 -0.553921 1.682686
v 0.077410 -1.270248 1.682686
v 0.077410 -1.379779 1.682686
v 0.077410 -1.436734 1.682686
v 0.077410 -1.482737 1.682686
v 0.077410 -1.574742 1.682686
v 0.077410 -1.710560 1.682686
v 0.077410 -1.809137 1.682686
v 0.077410 -1.918667 1.682686
v 0.077410 -2.216245 1.719349
v 0.077410 -2.124583 1.682686
v 0.077410 -2.175721 1.682686
v 0.077410 0.220581 1.682686
v 0.077410 0.209750 1.682686
v 0.368813 0.209750 1.682686
v 0.368813 -0.437819 1.682686
v 0.368813 -0.510449 1.682686
v 0.368813 -0.544051 1.719349
vt 0.379095 0.879170
vt 0.390638 0.879170
vt 0.390638 0.934961
vt 0.379095 0.934961
vt 0.445448 0.909574
vt 0.436342 0.909574
vt 0.436342 0.879170
vt 0.445448 0.879170
vt 0.078401 0.378840
vt 0.395539 0.269285
vt 0.399491 0.231164
vt 0.054396 0.350377
vt 0.874961 0.485057
vt 0.905063 0.485057
vt 0.905063 0.361271
vt 0.874961 0.361271
vt 0.036664 0.906294
vt 0.006562 0.906294
vt 0.006562 0.927060
vt 0.009470 0.927060
vt 0.009470 0.948698
vt 0.031683 0.948698
vt 0.031683 0.927060
vt 0.036664 0.927060
vt 0.948289 0.000000
vt 0.918187 0.000000
vt 0.918187 0.030557
vt 0.948289 0.030557
vt 0.948289 0.065907
vt 0.918187 0.065907
vt 0.918187 0.103644
vt 0.948289 0.103644
vt 0.948289 0.143395
vt 0.918187 0.143395
vt 0.918187 0.185918
vt 0.948289 0.185918
vt 0.948289 0.224743
vt 0.918187 0.224743
vt 0.918187 0.265817
vt 0.948289 0.265817
vt 0.931809 0.791669
vt 0.961911 0.791669
vt 0.961911 0.731946
vt 0.931809 0.731946
vt 0.761889 0.528008
vt 0.565086 0.460022
vt 0.522342 0.475948
vt 0.787897 0.567684
vt 0.486522 0.500330
vt 0.462517 0.528793
vt 0.807611 0.648006
vt 0.803660 0.609885
vt 0.438540 0.562189
vt 0.423528 0.598682
vt 0.801101 0.729114
vt 0.808838 0.690109
vt 0.750017 0.493214
vt 0.785638 0.375135
vt 0.770352 0.369854
vt 0.734758 0.487943
vt 0.415529 0.637925
vt 0.417938 0.680764
vt 0.538358 0.722363
vt 0.540606 0.716829
vt 0.546657 0.707495
vt 0.554293 0.699604
vt 0.563220 0.693459
vt 0.569106 0.690978
vt 0.425518 0.720466
vt 0.441470 0.763061
vt 0.696805 0.851267
vt 0.733002 0.826687
vt 0.623182 0.788750
vt 0.621498 0.790489
vt 0.612571 0.796634
vt 0.602696 0.800797
vt 0.592252 0.802816
vt 0.581641 0.802616
vt 0.571270 0.800204
vt 0.561538 0.795672
vt 0.552819 0.789194
vt 0.545447 0.781020
vt 0.539707 0.771463
vt 0.535819 0.760891
vt 0.535403 0.758426
vt 0.455613 0.793464
vt 0.497459 0.833436
vt 0.612955 0.873335
vt 0.668727 0.867084
vt 0.159780 0.879170
vt 0.129679 0.879170
vt 0.129679 1.000000
vt 0.159780 1.000000
vt 0.874961 0.337167
vt 0.905063 0.337167
vt 0.905063 0.200237
vt 0.874961 0.200237
vt 0.905063 0.179300
vt 0.874961 0.179300
vt 0.049788 0.957141
vt 0.079890 0.957141
vt 0.079890 0.913715
vt 0.049788 0.913715
vt 0.954851 0.036928
vt 0.984953 0.036928
vt 0.984953 0.000000
vt 0.954851 0.000000
vt 0.874961 0.116070
vt 0.905063 0.116070
vt 0.905063 0.097226
vt 0.874961 0.097226
vt 0.954851 0.113457
vt 0.984953 0.113457
vt 0.984953 0.072891
vt 0.954851 0.072891
vt 0.353769 0.351162
vt 0.379776 0.311486
vt 0.114222 0.403222
vt 0.156966 0.419148
vt 0.905063 0.168413
vt 0.874961 0.168413
vt 0.007408 0.241245
vt 0.160985 0.188192
vt 0.155099 0.185711
vt 0.146172 0.179566
vt 0.138537 0.171675
vt 0.132486 0.162341
vt 0.130237 0.156807
vt 0.009818 0.198406
vt 0.341897 0.385956
vt 0.326637 0.391227
vt 0.362232 0.509316
vt 0.377517 0.504035
vt 0.905063 0.076289
vt 0.874961 0.076289
vt 0.954851 0.192927
vt 0.984953 0.192927
vt 0.984953 0.153297
vt 0.954851 0.153297
vt 0.905063 0.159619
vt 0.874961 0.159619
vt 0.017397 0.158704
vt 0.127283 0.120743
vt 0.127699 0.118279
vt 0.131587 0.107707
vt 0.137327 0.098150
vt 0.144698 0.089976
vt 0.153417 0.083498
vt 0.163149 0.078966
vt 0.173520 0.076554
vt 0.184132 0.076353
vt 0.194576 0.078373
vt 0.204451 0.082536
vt 0.213378 0.088681
vt 0.215061 0.090420
vt 0.324881 0.052483
vt 0.288685 0.027903
vt 0.033349 0.116109
vt 0.874961 0.515740
vt 0.905063 0.515740
vt 0.905063 0.036287
vt 0.874961 0.036287
vt 0.954851 0.265563
vt 0.984953 0.265563
vt 0.984953 0.231714
vt 0.954851 0.231714
vt 0.366224 0.522560
vt 0.030419 0.316981
vt 0.400717 0.189061
vt 0.392980 0.150056
vt 0.015408 0.280488
vt 0.905063 0.142032
vt 0.874961 0.142032
vt 0.047492 0.085706
vt 0.260607 0.012086
vt 0.204834 0.005835
vt 0.089338 0.045734
vt 0.774345 0.356610
vt 0.905063 0.032095
vt 0.900747 0.032095
vt 0.900747 0.000000
vt 0.877505 0.000000
vt 0.877505 0.032095
vt 0.874961 0.032095
vt 0.931809 0.545758
vt 0.961911 0.545758
vt 0.961911 0.515740
vt 0.931809 0.515740
vt 0.961911 0.607732
vt 0.931809 0.607732
vt 0.221100 0.558070
vt 0.214148 0.560471
vt 0.245051 0.573172
vt 0.251802 0.570840
vt 0.284425 0.703799
vt 0.291066 0.701505
vt 0.296297 0.918420
vt 0.289459 0.925446
vt 0.320736 0.925446
vt 0.328122 0.918420
vt 0.360491 0.348840
vt 0.349074 0.383476
vt 0.384668 0.501565
vt 0.185565 0.439961
vt 0.178554 0.442383
vt 0.290446 0.723773
vt 0.297009 0.721505
vt 0.293576 0.734159
vt 0.300088 0.731909
vt 0.296105 0.742548
vt 0.302585 0.740309
vt 0.301162 0.759325
vt 0.307631 0.757091
vt 0.308627 0.784093
vt 0.315102 0.781856
vt 0.314046 0.802069
vt 0.320544 0.799824
vt 0.320066 0.822042
vt 0.326609 0.819782
vt 0.339594 0.856757
vt 0.342484 0.855758
vt 0.337399 0.838886
vt 0.043226 0.906577
vt 0.043226 0.928303
vt 0.403045 0.266692
vt 0.406708 0.228670
vt 0.071001 0.381397
vt 0.107101 0.405682
vt 0.408121 0.186504
vt 0.400211 0.147558
vt 0.023099 0.319510
vt 0.047267 0.352840
vt 0.378048 0.113207
vt 0.385528 0.110623
vt 0.360017 0.077429
vt 0.352707 0.079954
vt 0.000000 0.243804
vt 0.008251 0.282961
vt 0.332472 0.049861
vt 0.296143 0.025326
vt 0.009873 0.161303
vt 0.002574 0.200908
vt 0.200357 0.000000
vt 0.089844 0.038177
vt 0.925247 0.788299
vt 0.925247 0.734428
vt 0.043683 0.083331
vt 0.025953 0.118664
vt 0.622269 0.318699
vt 0.629220 0.321100
vt 0.659922 0.308330
vt 0.653172 0.305998
vt 0.699187 0.177665
vt 0.692546 0.175371
vt 0.289459 0.879170
vt 0.296297 0.886195
vt 0.328122 0.886195
vt 0.320736 0.879170
vt 0.768612 0.530330
vt 0.757194 0.495694
vt 0.792789 0.377605
vt 0.586675 0.436787
vt 0.593686 0.439209
vt 0.705130 0.157665
vt 0.698566 0.155397
vt 0.708208 0.147261
vt 0.701697 0.145011
vt 0.710706 0.138861
vt 0.704226 0.136622
vt 0.715751 0.122079
vt 0.709283 0.119845
vt 0.723222 0.097314
vt 0.716748 0.095077
vt 0.728665 0.079346
vt 0.722167 0.077101
vt 0.734730 0.059388
vt 0.728187 0.057128
vt 0.745519 0.040284
vt 0.750605 0.023412
vt 0.747715 0.022414
vt 0.751745 0.019628
vt 0.000000 0.906577
vt 0.000000 0.928303
vt 0.811165 0.612478
vt 0.814829 0.650500
vt 0.479121 0.497773
vt 0.515222 0.473488
vt 0.816241 0.692666
vt 0.808332 0.731612
vt 0.431220 0.559660
vt 0.455387 0.526330
vt 0.793649 0.768547
vt 0.786168 0.765963
vt 0.760828 0.799216
vt 0.768138 0.801741
vt 0.408121 0.635366
vt 0.416372 0.596209
vt 0.740592 0.829309
vt 0.704263 0.853844
vt 0.417993 0.717867
vt 0.410695 0.678262
vt 0.608478 0.879170
vt 0.497965 0.840993
vt 0.968473 0.788299
vt 0.968473 0.734428
vt 0.451804 0.795839
vt 0.434074 0.760506
vt 0.224542 0.166236
vt 0.222223 0.170097
vt 0.214852 0.178271
vt 0.206133 0.184749
vt 0.196401 0.189281
vt 0.186030 0.191693
vt 0.175418 0.191893
vt 0.164974 0.189873
vt 0.573095 0.689297
vt 0.583539 0.687277
vt 0.594150 0.687477
vt 0.604521 0.689889
vt 0.614253 0.694421
vt 0.622973 0.700899
vt 0.630344 0.709073
vt 0.632663 0.712934
vt 0.954851 0.298727
vt 0.984953 0.298727
vt 0.128252 0.151922
vt 0.125999 0.140819
vt 0.125812 0.129459
vt 0.533933 0.749711
vt 0.534119 0.738351
vt 0.536373 0.727248
vt 0.968473 0.604613
vt 0.968473 0.548764
vt 0.911625 0.267726
vt 0.911625 0.296776
vt 0.918187 0.299462
vt 0.925247 0.604613
vt 0.925247 0.548764
vt 0.954851 0.267726
vt 0.948289 0.299462
vt 0.954851 0.296776
vt 0.795131 0.570183
vt 0.387011 0.308987
vt 0.079890 0.879170
vt 0.049788 0.879170
vt 0.086452 0.921749
vt 0.086452 0.964606
vt 0.558494 0.457745
vt 0.043226 0.921749
vt 0.043226 0.964606
vt 0.150374 0.421425
vt 0.277000 0.408374
vt 0.276404 0.406399
vt 0.326042 0.389252
vt 0.049788 0.983799
vt 0.079890 0.983799
vt 0.734162 0.489918
vt 0.684525 0.472771
vt 0.685120 0.470796
vt 0.203006 0.942714
vt 0.159780 0.942714
vt 0.159780 0.937001
vt 0.159780 0.931957
vt 0.203006 0.931957
vt 0.203006 0.937001
vt 0.203006 0.961090
vt 0.159780 0.961090
vt 0.159780 0.952551
vt 0.203006 0.952551
vt 0.203006 0.952562
vt 0.246233 0.952562
vt 0.246233 0.961083
vt 0.129679 0.940232
vt 0.086452 0.940232
vt 0.086452 0.929029
vt 0.129679 0.929029
vt 0.203006 0.920693
vt 0.159780 0.920693
vt 0.159780 0.909355
vt 0.203006 0.909355
vt 0.203006 0.898380
vt 0.159780 0.898379
vt 0.159780 0.888187
vt 0.203006 0.888187
vt 0.246233 0.910947
vt 0.289459 0.910947
vt 0.289459 0.922290
vt 0.246233 0.922290
vt 0.203006 0.898408
vt 0.246233 0.898408
vt 0.246233 0.909391
vt 0.203006 0.909391
vt 0.129679 0.960475
vt 0.086452 0.960475
vt 0.086452 0.958353
vt 0.086452 0.950850
vt 0.129679 0.950850
vt 0.129679 0.958353
vt 0.246233 0.920731
vt 0.203006 0.920731
vt 0.289459 0.933287
vt 0.246233 0.933287
vt 0.159780 0.879170
vt 0.203006 0.879170
vt 0.203006 0.879170
vt 0.246233 0.879170
vt 0.246233 0.888204
vt 0.203006 0.888204
vt 0.246233 0.879170
vt 0.289459 0.879170
vt 0.289459 0.888965
vt 0.246233 0.888965
vt 0.203006 0.942739
vt 0.246233 0.942739
vt 0.246233 0.946708
vt 0.203006 0.946708
vt 0.246233 0.943516
vt 0.289459 0.943516
vt 0.289459 0.952584
vt 0.246233 0.952584
vt 0.640475 0.757640
vt 0.639418 0.762845
vt 0.635185 0.773264
vt 0.629134 0.782598
vt 0.203006 0.931991
vt 0.246233 0.931991
vt 0.129679 0.886969
vt 0.086452 0.886969
vt 0.086452 0.882321
vt 0.086452 0.879170
vt 0.129679 0.879170
vt 0.129679 0.882321
vt 0.129679 0.906597
vt 0.086452 0.906597
vt 0.086452 0.896230
vt 0.129679 0.896230
vt 0.159780 0.900799
vt 0.203006 0.900799
vt 0.246233 0.899694
vt 0.289459 0.899694
vt 0.086452 0.923705
vt 0.086452 0.917672
vt 0.129679 0.917672
vt 0.129679 0.923705
vt 0.232354 0.121531
vt 0.233551 0.127428
vt 0.233738 0.138788
vt 0.231851 0.149968
vt 0.227963 0.160540
vt 0.221013 0.096572
vt 0.227064 0.105906
vt 0.231298 0.116325
vt 0.636084 0.718630
vt 0.639972 0.729202
vt 0.641859 0.740382
vt 0.641672 0.751742
vt 0.129679 0.968737
vt 0.086452 0.968737
vt 0.301545 0.719938
vt 0.304676 0.730325
vt 1.000000 0.978554
vt 0.990894 0.978554
vt 0.990894 0.515740
vt 0.993438 0.515740
vt 1.000000 0.522581
vt 1.000000 0.549257
vt 1.000000 0.587679
vt 1.000000 0.608116
vt 1.000000 0.626509
vt 1.000000 0.651852
vt 1.000000 0.669019
vt 1.000000 0.677602
vt 1.000000 0.688230
vt 1.000000 0.708667
vt 1.000000 0.842326
vt 1.000000 0.863990
vt 0.343625 0.859542
vt 0.331166 0.818208
vt 0.319727 0.780258
vt 0.325145 0.798234
vt 0.256150 0.569338
vt 0.295524 0.699965
vt 0.312261 0.755491
vt 0.877505 0.475862
vt 0.868399 0.475862
vt 0.868399 0.358495
vt 0.868399 0.336301
vt 0.868399 0.199372
vt 0.868399 0.178435
vt 0.868399 0.167547
vt 0.868399 0.158754
vt 0.868399 0.141167
vt 0.868399 0.115204
vt 0.868399 0.096361
vt 0.868399 0.075424
vt 0.868399 0.053748
vt 0.872091 0.036062
vt 0.307204 0.738713
vt 0.249769 0.548166
vt 0.379408 0.879170
vt 0.398912 0.872433
vt 0.396139 0.866009
vt 0.377393 0.872484
vt 0.034121 0.879170
vt 0.010878 0.879170
vt 0.010878 0.884637
vt 0.006562 0.884637
vt 0.036664 0.884637
vt 0.034121 0.884637
vt 0.868399 0.991019
vt 0.868399 0.515740
vt 0.896823 0.515740
vt 0.896823 0.960576
vt 0.873573 0.991019
vt 0.980016 0.978554
vt 0.980016 0.515740
vt 0.990894 0.515740
vt 0.990894 0.630304
vt 0.990894 0.651967
vt 0.990894 0.785627
vt 0.990894 0.806064
vt 0.990894 0.816691
vt 0.990894 0.825275
vt 0.990894 0.842442
vt 0.990894 0.867784
vt 0.990894 0.886178
vt 0.990894 0.906615
vt 0.990894 0.945037
vt 0.990894 0.971713
vt 0.984332 0.978554
vt 0.425464 0.879170
vt 0.436342 0.879170
vt 0.436342 0.909574
vt 0.425464 0.909574
vt 0.896823 0.960576
vt 0.896823 0.515740
vt 0.925247 0.515740
vt 0.925247 0.991019
vt 0.920074 0.991019
vt 0.703645 0.179205
vt 0.664271 0.309832
vt 0.715325 0.140457
vt 0.712796 0.148845
vt 0.657889 0.331004
vt 0.709666 0.159232
vt 0.785514 0.006686
vt 0.804260 0.013162
vt 0.807033 0.006738
vt 0.787529 0.000000
vt 0.739286 0.060962
vt 0.733266 0.080936
vt 0.727847 0.098912
vt 0.911625 0.475862
vt 0.900747 0.475862
vt 0.907933 0.036062
vt 0.911625 0.053748
vt 0.911625 0.075424
vt 0.911625 0.096361
vt 0.911625 0.115204
vt 0.911625 0.141167
vt 0.911625 0.158754
vt 0.911625 0.167547
vt 0.911625 0.178435
vt 0.911625 0.199372
vt 0.911625 0.336301
vt 0.911625 0.358495
vt 0.720382 0.123679
vt 0.387971 0.776531
vt 0.352196 0.788890
vt 0.358216 0.808863
vt 0.393991 0.796505
vt 0.911625 0.451553
vt 0.933838 0.451553
vt 0.933838 0.433121
vt 0.911625 0.433121
vt 0.318976 0.547635
vt 0.283201 0.559993
vt 0.322575 0.690620
vt 0.358350 0.678262
vt 0.352780 0.886195
vt 0.379095 0.886195
vt 0.371678 0.879170
vt 0.353742 0.879170
vt 0.933838 0.299462
vt 0.911625 0.299462
vt 0.328122 0.927012
vt 0.350335 0.927012
vt 0.350335 0.904321
vt 0.328122 0.904321
vt 0.350335 0.879170
vt 0.328122 0.879170
vt 0.375087 0.733788
vt 0.339312 0.746147
vt 0.346777 0.770914
vt 0.382552 0.758555
vt 0.009470 0.987332
vt 0.031683 0.987332
vt 0.216020 0.436201
vt 0.243070 0.426857
vt 0.276819 0.538821
vt 0.312594 0.526463
vt 0.405310 0.834055
vt 0.369535 0.846414
vt 0.408121 0.843380
vt 0.328595 0.710594
vt 0.364370 0.698235
vt 0.936790 0.934342
vt 0.925247 0.934342
vt 0.925247 0.791669
vt 0.930228 0.791669
vt 0.936790 0.797939
vt 0.936790 0.811491
vt 0.936790 0.932321
vt 0.911625 0.462180
vt 0.933838 0.462180
vt 0.370030 0.717010
vt 0.334255 0.729369
vt 0.911625 0.471910
vt 0.933838 0.471910
vt 0.980016 0.515740
vt 0.980016 0.981551
vt 0.968473 0.981551
vt 0.968473 0.979480
vt 0.968473 0.855694
vt 0.968473 0.833501
vt 0.968473 0.696572
vt 0.968473 0.675634
vt 0.968473 0.664747
vt 0.968473 0.655953
vt 0.968473 0.638366
vt 0.968473 0.612404
vt 0.968473 0.593561
vt 0.968473 0.572623
vt 0.968473 0.533261
vt 0.968473 0.523486
vt 0.975036 0.515740
vt 0.350335 0.891527
vt 0.350335 0.915307
vt 0.352780 0.915307
vt 0.352780 0.918420
vt 0.379095 0.918420
vt 0.352780 0.891527
vt 0.331726 0.720980
vt 0.367501 0.708621
vt 0.328122 0.947449
vt 0.350335 0.947449
vt 0.868399 0.320418
vt 0.868399 0.466934
vt 0.816241 0.466934
vt 0.816241 0.000000
vt 0.834057 0.017564
vt 0.864640 0.057021
vt 0.864640 0.078008
vt 0.846996 0.096897
vt 0.847780 0.122922
vt 0.862680 0.140552
vt 0.857975 0.149366
vt 0.857975 0.160280
vt 0.866209 0.181268
vt 0.866209 0.318527
vt 0.425464 0.902950
vt 0.425464 0.879170
vt 0.408121 0.879170
vt 0.408121 0.902950
vt 0.796091 0.102639
vt 0.760316 0.090280
vt 0.754898 0.108256
vt 0.790673 0.120615
vt 0.813430 0.045115
vt 0.777655 0.032756
vt 0.766337 0.070307
vt 0.802112 0.082665
vt 0.868399 0.466934
vt 0.868399 0.933867
vt 0.816241 0.933867
vt 0.816241 0.787352
vt 0.818432 0.785460
vt 0.818432 0.648201
vt 0.826666 0.627214
vt 0.826666 0.616300
vt 0.821961 0.607485
vt 0.836860 0.589855
vt 0.837644 0.563831
vt 0.820000 0.544942
vt 0.820000 0.523954
vt 0.850583 0.484497
vt 0.772491 0.180935
vt 0.736716 0.168576
vt 0.730696 0.188550
vt 0.766471 0.200908
vt 0.727097 0.331535
vt 0.691322 0.319177
vt 0.684940 0.340349
vt 0.720715 0.352707
vt 0.933838 0.442134
vt 0.933838 0.299462
vt 0.943309 0.299462
vt 0.943309 0.301483
vt 0.943309 0.422313
vt 0.943309 0.435865
vt 0.936746 0.442134
vt 0.353743 0.925446
vt 0.371678 0.925446
vt 0.778150 0.162160
vt 0.742375 0.149801
vt 0.739847 0.158190
vt 0.775622 0.170549
vt 0.994424 0.465811
vt 0.984953 0.465811
vt 0.984953 0.000000
vt 0.987861 0.000000
vt 0.994424 0.007746
vt 0.994424 0.017522
vt 0.994424 0.056884
vt 0.994424 0.077821
vt 0.994424 0.096664
vt 0.994424 0.122626
vt 0.994424 0.140214
vt 0.994424 0.149007
vt 0.994424 0.159895
vt 0.994424 0.180832
vt 0.994424 0.317761
vt 0.994424 0.339955
vt 0.994424 0.463741
vt 0.390638 0.879170
vt 0.400108 0.879170
vt 0.400108 0.934961
vt 0.390638 0.934961
vt 0.747433 0.133024
vt 0.783208 0.145382
vt 0.651191 0.452313
vt 0.624141 0.442969
vt 0.816241 0.035790
vn 0.0000 -1.0000 0.0000
vn 0.0000 0.0000 1.0000
vn -1.0000 0.0000 0.0000
vn 0.6774 -0.7356 -0.0000
vn 0.9151 -0.4031 0.0000
vn 0.9952 -0.0979 0.0000
vn 0.9300 0.3675 0.0000
vn 0.7675 0.6411 0.0000
vn 0.4152 0.9097 0.0000
vn 0.0000 0.0000 -1.0000
vn 1.0000 0.0000 0.0000
vn 0.5969 -0.8023 0.0000
vn -0.7664 -0.6424 0.0000
vn -0.9401 -0.3410 0.0000
vn -0.9959 0.0901 0.0000
vn -0.7952 -0.6064 0.0000
vn -0.9737 -0.2279 0.0000
vn -0.8742 0.4855 0.0000
vn -0.6278 -0.7784 0.0000
vn -0.7742 -0.6330 0.0000
vn -0.6930 0.7209 0.0000
vn 0.0000 1.0000 0.0000
vn -0.5179 -0.6395 0.5681
vn -0.6821 0.0003 0.7313
vn -0.5010 -0.6682 0.5500
vn 0.5941 -0.4582 0.6612
vn 0.6571 0.0001 0.7538
vn -0.6667 0.0002 0.7453
vn -0.6872 0.0014 0.7265
vn -0.6908 0.0019 0.7231
vn -0.6931 0.0014 0.7209
vn -0.6942 0.0003 0.7197
vn -0.6944 -0.0001 0.7196
vn -0.6936 -0.0005 0.7204
vn -0.6917 -0.0008 0.7222
vn -0.6801 -0.1597 0.7155
vn 0.5245 -0.5703 0.6322
vn 0.6217 -0.2767 0.7328
vn -0.5729 -0.4777 0.6661
vn 0.6478 -0.0653 0.7590
vn -0.6365 -0.2292 0.7364
vn 0.6254 0.2456 0.7406
vn -0.6498 0.0611 0.7577
vn 0.5638 0.4697 0.6793
vn -0.6073 0.3400 0.7180
vn 0.0000 0.7071 0.7071
vn 0.3364 0.7480 0.5721
vn -0.5621 0.5683 0.6009
vn -0.5179 -0.6395 -0.5681
vn -0.6821 0.0003 -0.7313
vn -0.5010 -0.6682 -0.5500
vn 0.5941 -0.4582 -0.6612
vn 0.6571 0.0001 -0.7538
vn -0.6667 0.0002 -0.7453
vn -0.6872 0.0014 -0.7265
vn -0.6908 0.0019 -0.7231
vn -0.6931 0.0014 -0.7209
vn -0.6942 0.0003 -0.7197
vn -0.6944 -0.0001 -0.7196
vn -0.6936 -0.0005 -0.7204
vn -0.6917 -0.0008 -0.7222
vn -0.6801 -0.1597 -0.7155
vn -0.5989 -0.4897 -0.6337
vn 0.5245 -0.5703 -0.6322
vn 0.6217 -0.2767 -0.7328
vn -0.5729 -0.4777 -0.6661
vn 0.6478 -0.0653 -0.7590
vn -0.6365 -0.2292 -0.7364
vn 0.6254 0.2456 -0.7406
vn -0.6498 0.0611 -0.7577
vn 0.5638 0.4697 -0.6793
vn -0.6073 0.3400 -0.7180
vn 0.0000 0.7071 -0.7071
vn 0.3364 0.7480 -0.5721
vn -0.5621 0.5683 -0.6009
vn -0.6287 0.2469 -0.7374
vn 0.6460 0.0607 -0.7609
vn -0.6287 0.2469 0.7374
vn 0.6460 0.0607 0.7609
vn -0.9300 0.3675 0.0000
vn 0.9959 0.0901 0.0000
vn -0.5660 0.4716 -0.6762
vn 0.6045 0.3384 -0.7212
vn -0.5660 0.4716 0.6762
vn 0.6045 0.3384 0.7212
vn -0.7675 0.6410 0.0000
vn 0.8743 0.4855 0.0000
vn -0.3371 0.7495 -0.5697
vn 0.5601 0.5663 -0.6047
vn -0.3371 0.7495 0.5697
vn 0.5601 0.5663 0.6047
vn -0.4152 0.9097 0.0000
vn 0.6931 0.7208 0.0000
vn -0.6518 -0.0657 -0.7555
vn 0.6325 -0.2278 -0.7404
vn -0.6518 -0.0657 0.7555
vn 0.6325 -0.2278 0.7404
vn -0.9952 -0.0979 0.0000
vn 0.9401 -0.3410 0.0000
vn -0.6261 -0.2785 -0.7283
vn 0.5690 -0.4746 -0.6716
vn -0.6261 -0.2785 0.7283
vn 0.5690 -0.4746 0.6716
vn -0.9151 -0.4032 0.0000
vn 0.7663 -0.6424 0.0000
vn 0.4982 -0.6647 -0.5567
vn -0.5997 -0.4622 -0.6532
vn 0.4982 -0.6647 0.5567
vn -0.5997 -0.4622 0.6532
vn -0.5970 -0.8022 0.0000
vn 0.7952 -0.6063 0.0000
vn -0.9952 0.0980 0.0000
vn -0.8819 0.4714 0.0000
vn -0.7730 0.6344 -0.0000
vn 0.9952 -0.0980 0.0000
vn -0.9569 -0.2903 0.0000
vn -0.9952 -0.0980 0.0000
vn -0.7730 -0.6344 -0.0000
vn 0.0980 -0.9952 0.0000
vn 0.0980 0.9952 0.0000
vn 0.8819 -0.4714 0.0000
vn -0.0980 0.9952 0.0000
vn 0.2903 -0.9569 0.0000
vn -0.6344 -0.7730 -0.0000
vn 0.4714 0.8819 0.0000
vn -0.4714 -0.8819 0.0000
vn -0.6344 0.7730 0.0000
vn 0.6344 -0.7730 -0.0000
vn 0.9569 -0.2903 0.0000
vn -0.4714 0.8819 0.0000
vn 0.6344 0.7730 -0.0000
vn 0.8819 0.4714 0.0000
vn -0.8819 -0.4714 0.0000
vn -0.0980 -0.9952 0.0000
vn 0.9952 0.0980 0.0000
vn -0.9569 0.2903 -0.0000
vn 0.2903 0.9569 0.0000
vn 0.4714 -0.8819 -0.0000
vn -0.2903 -0.9569 0.0000
vn 0.9569 0.2903 0.0000
vn -0.2903 0.9569 -0.0000
vn 0.7730 -0.6344 0.0000
vn 0.7730 0.6344 0.0000
vn -0.5989 -0.4897 0.6337
vn 0.0000 -0.7071 0.7071
vn 0.0000 -0.7071 -0.7071
vn 0.9220 -0.3872 0.0000
vn 0.5108 -0.6325 0.5823
vn 0.7071 0.7071 0.0000
vn 0.9995 -0.0322 -0.0000
vn 0.7696 -0.6386 0.0000
vn 0.8682 0.4961 0.0000
vn 0.6278 -0.7784 0.0000
vn 0.7415 -0.6709 0.0000
vn 0.5108 -0.6325 -0.5823
usemtl Material.001
s off
f 4/1/1 301/2/1 305/3/1 3/4/1
f 8/5/1 239/6/1 240/7/1 7/8/1
f 149/9/2 147/10/2 42/11/2 45/12/2
f 22/13/3 74/14/3 69/15/3 15/16/3
f 41/17/4 93/18/4 356/19/4 334/20/4 345/21/4 332/22/4 317/23/4 303/24/4
f 148/25/5 151/26/5 95/27/5 43/28/5
f 140/29/6 143/30/6 99/31/6 47/32/6
f 116/33/7 119/34/7 103/35/7 51/36/7
f 124/37/8 127/38/8 107/39/8 55/40/8
f 132/41/9 135/42/9 112/43/9 58/44/9
f 161/45/10 159/46/10 72/47/10 65/48/10
f 154/49/10 97/50/10 96/51/10 152/52/10
f 146/53/10 101/54/10 100/55/10 144/56/10
f 66/57/10 70/58/10 362/59/10 361/60/10
f 122/61/10 105/62/10 224/63/10 216/64/10 175/65/10 170/66/10 172/67/10 182/68/10
f 130/69/10 109/70/10 108/71/10 128/72/10 231/73/10 225/74/10 187/75/10 189/76/10 237/77/10 201/78/10 165/79/10 167/80/10 163/81/10 217/82/10 197/83/10 195/84/10 200/85/10
f 138/86/10 114/87/10 111/88/10 136/89/10
f 17/90/11 71/91/11 67/92/11 13/93/11
f 10/94/3 62/95/3 76/96/3 24/97/3
f 24/97/3 76/96/3 78/98/3 26/99/3
f 157/100/12 162/101/12 64/102/12 12/103/12
f 150/104/13 153/105/13 73/106/13 19/107/13
f 34/108/3 86/109/3 88/110/3 36/111/3
f 142/112/14 145/113/14 98/114/14 44/115/14
f 158/116/2 11/117/2 20/118/2 156/119/2
f 26/99/3 78/98/3 80/120/3 28/121/3
f 117/122/2 173/123/2 171/124/2 169/125/2 174/126/2 215/127/2 221/128/2 53/129/2
f 14/130/2 318/131/2 319/132/2 18/133/2
f 36/111/3 88/110/3 90/134/3 38/135/3
f 118/136/15 121/137/15 102/138/15 48/139/15
f 28/121/3 80/120/3 82/140/3 30/141/3
f 125/142/2 199/143/2 196/144/2 198/145/2 218/146/2 164/147/2 168/148/2 166/149/2 202/150/2 238/151/2 190/152/2 188/153/2 226/154/2 230/155/2 123/156/2 54/157/2 57/158/2
f 155/159/16 160/160/16 74/14/16 22/13/16
f 38/135/17 90/134/17 92/161/17 39/162/17
f 126/163/18 129/164/18 106/165/18 52/166/18
f 18/133/2 319/132/2 320/167/2
f 141/168/2 139/169/2 46/170/2 49/171/2
f 30/141/3 82/140/3 84/172/3 32/173/3
f 133/174/2 131/175/2 59/176/2 60/177/2
f 70/58/10 363/178/10 362/59/10
f 15/16/19 69/15/19 62/95/19 10/94/19
f 39/162/20 92/161/20 285/179/20 271/180/20 273/181/20 269/182/20 253/183/20 254/184/20
f 134/185/21 137/186/21 110/187/21 56/188/21
f 32/173/3 84/172/3 86/109/3 34/108/3
f 58/44/22 112/43/22 113/189/22 61/190/22
f 16/191/23 15/192/23 10/193/23 9/194/23
f 9/194/24 10/193/24 24/195/24 23/196/24
f 155/197/25 156/198/25 20/199/25 19/200/25
f 157/201/26 158/116/26 14/130/26 13/202/26
f 18/133/27 17/203/27 13/202/27 14/130/27
f 21/204/28 22/205/28 15/192/28 16/191/28
f 23/196/29 24/195/29 26/206/29 25/207/29
f 25/207/30 26/206/30 28/208/30 27/209/30
f 27/209/31 28/208/31 30/210/31 29/211/31
f 29/211/32 30/210/32 32/212/32 31/213/32
f 31/213/33 32/212/33 34/214/33 33/215/33
f 33/215/34 34/214/34 36/216/34 35/217/34
f 35/217/35 36/216/35 38/218/35 37/219/35
f 37/219/36 38/218/36 39/220/36 252/221/36 251/222/36
f 40/223/37 41/17/37 303/24/37 304/224/37
f 147/10/38 148/225/38 43/226/38 42/11/38
f 149/9/39 150/227/39 19/228/39 20/118/39
f 139/169/40 140/229/40 47/230/40 46/170/40
f 141/168/41 142/231/41 44/232/41 45/12/41
f 115/233/42 116/234/42 51/235/42 50/236/42
f 117/122/43 118/237/43 48/238/43 49/171/43
f 123/156/44 124/239/44 55/240/44 54/157/44
f 125/142/45 126/241/45 52/242/45 53/129/45
f 59/176/46 58/243/46 61/244/46 60/177/46
f 131/245/47 132/41/47 58/44/47 59/246/47
f 133/174/48 134/247/48 56/248/48 57/158/48
f 69/249/49 68/250/49 63/251/49 62/252/49
f 62/252/50 63/251/50 77/253/50 76/254/50
f 159/255/51 160/256/51 73/257/51 72/258/51
f 161/45/52 162/259/52 67/260/52 66/57/52
f 71/261/53 70/58/53 66/57/53 67/260/53
f 74/262/54 75/263/54 68/250/54 69/249/54
f 76/254/55 77/253/55 79/264/55 78/265/55
f 78/265/56 79/264/56 81/266/56 80/267/56
f 80/267/57 81/266/57 83/268/57 82/269/57
f 82/269/58 83/268/58 85/270/58 84/271/58
f 84/271/59 85/270/59 87/272/59 86/273/59
f 86/273/60 87/272/60 89/274/60 88/275/60
f 88/275/61 89/274/61 91/276/61 90/277/61
f 90/277/62 91/276/62 284/278/62 286/279/62 92/280/62
f 92/280/63 286/279/63 285/281/63
f 93/18/64 94/282/64 358/283/64 356/19/64
f 151/284/65 152/52/65 96/51/65 95/285/65
f 153/286/66 154/49/66 72/47/66 73/287/66
f 143/288/67 144/56/67 100/55/67 99/289/67
f 145/290/68 146/53/68 97/50/68 98/291/68
f 119/292/69 120/293/69 104/294/69 103/295/69
f 121/296/70 122/61/70 101/54/70 102/297/70
f 127/298/71 128/72/71 108/71/71 107/299/71
f 129/300/72 130/69/72 105/62/72 106/301/72
f 112/302/73 111/88/73 114/87/73 113/303/73
f 135/42/74 136/304/74 111/305/74 112/43/74
f 137/306/75 138/86/75 109/70/75 110/307/75
f 106/301/76 105/62/76 122/61/76 121/296/76
f 99/289/77 100/55/77 120/293/77 119/292/77
f 53/129/78 52/242/78 118/237/78 117/122/78
f 46/170/79 47/230/79 116/234/79 115/233/79
f 52/166/80 106/165/80 121/137/80 118/136/80
f 49/171/2 46/170/2 115/233/2 232/308/2 234/309/2 192/310/2 181/311/2 179/312/2 184/313/2 220/314/2 177/315/2 173/123/2 117/122/2
f 101/54/10 122/61/10 182/68/10 176/316/10 219/317/10 183/318/10 178/319/10 180/320/10 191/321/10 233/322/10 229/323/10 120/293/10 100/55/10
f 47/32/81 99/31/81 119/34/81 116/33/81
f 110/307/82 109/70/82 130/69/82 129/300/82
f 103/295/83 104/294/83 128/72/83 127/298/83
f 57/158/84 56/248/84 126/241/84 125/142/84
f 50/236/85 51/235/85 124/239/85 123/156/85
f 56/324/86 110/325/86 129/164/86 126/163/86
f 53/129/2 221/128/2 222/326/2 235/327/2 203/328/2 199/143/2 125/142/2
f 105/62/10 130/69/10 200/85/10 204/329/10 236/330/10 223/331/10 224/63/10
f 51/36/87 103/35/87 127/38/87 124/37/87
f 113/189/88 114/332/88 138/333/88 137/186/88
f 107/39/89 108/334/89 136/335/89 135/336/89
f 60/337/90 61/190/90 134/185/90 133/338/90
f 54/339/91 55/40/91 132/340/91 131/341/91
f 61/190/92 113/189/92 137/186/92 134/185/92
f 57/158/2 54/157/2 131/175/2 133/174/2
f 109/70/10 138/86/10 136/89/10 108/71/10
f 55/40/93 107/39/93 135/336/93 132/340/93
f 102/297/94 101/54/94 146/53/94 145/290/94
f 95/285/95 96/51/95 144/56/95 143/288/95
f 49/171/96 48/238/96 142/231/96 141/168/96
f 42/11/97 43/226/97 140/229/97 139/169/97
f 45/12/2 42/11/2 139/169/2 141/168/2
f 48/139/98 102/138/98 145/113/98 142/112/98
f 97/50/10 146/53/10 144/56/10 96/51/10
f 43/28/99 95/27/99 143/30/99 140/29/99
f 98/291/100 97/50/100 154/49/100 153/286/100
f 64/342/101 65/48/101 152/52/101 151/284/101
f 45/12/102 44/232/102 150/227/102 149/9/102
f 11/117/103 12/343/103 148/225/103 147/10/103
f 44/115/104 98/114/104 153/105/104 150/104/104
f 72/47/10 154/49/10 152/52/10 65/48/10
f 12/103/105 64/102/105 151/344/105 148/345/105
f 20/118/2 11/117/2 147/10/2 149/9/2
f 65/346/106 64/102/106 162/101/106 161/347/106
f 75/263/107 74/262/107 160/348/107 159/46/107
f 12/103/108 11/349/108 158/350/108 157/100/108
f 22/205/109 21/204/109 156/119/109 155/351/109
f 19/200/110 73/257/110 160/256/110 155/197/110
f 14/130/2 158/116/2 156/119/2 21/204/2 306/352/2 305/353/2 301/354/2 318/131/2
f 13/355/111 67/356/111 162/101/111 157/100/111
f 66/57/10 361/60/10 333/357/10 359/358/10 360/359/10 75/263/10 159/46/10 161/45/10
f 208/360/112 207/361/112 214/362/112 211/363/112 212/364/112 213/365/112
f 210/366/113 209/367/113 205/368/113 206/369/113
f 228/370/114 227/371/114 209/372/114 210/366/114
f 236/373/115 235/374/115 222/375/115 223/376/115
f 186/377/116 185/378/116 193/379/116 194/380/116
f 212/364/117 211/363/117 185/378/117 186/377/117
f 225/381/118 226/382/118 188/383/118 187/384/118
f 165/385/119 166/386/119 168/387/119 167/388/119
f 183/389/120 184/390/120 179/391/120 178/392/120
f 195/393/121 196/394/121 199/395/121 203/396/121 204/397/121 200/398/121
f 178/392/122 179/391/122 181/399/122 180/400/122
f 167/388/123 168/387/123 164/401/123 163/402/123
f 187/384/124 188/383/124 190/403/124 189/404/124
f 176/405/125 177/406/125 220/407/125 219/408/125
f 189/409/126 190/410/126 238/411/126 237/412/126
f 233/413/127 234/414/127 232/415/127 227/371/127 228/370/127 229/416/127
f 217/417/128 218/418/128 198/419/128 197/420/128
f 204/397/129 203/396/129 235/374/129 236/373/129
f 231/73/10 128/72/10 104/294/10 213/421/10 212/422/10 186/423/10 194/424/10
f 191/425/130 192/426/130 234/414/130 233/413/130
f 172/427/131 171/428/131 173/429/131 177/430/131 176/431/131 182/432/131
f 175/433/132 174/434/132 169/435/132 170/436/132
f 194/380/133 193/379/133 230/437/133 226/382/133 225/381/133 231/438/133
f 201/439/134 202/440/134 166/386/134 165/385/134
f 223/376/135 222/375/135 221/441/135 215/442/135 216/443/135 224/444/135
f 206/369/136 205/368/136 207/361/136 208/360/136
f 232/308/2 115/233/2 50/236/2 214/445/2 207/446/2 205/447/2 209/448/2 227/449/2
f 219/408/137 220/407/137 184/390/137 183/389/137
f 214/445/2 50/236/2 123/156/2 230/155/2 193/450/2 185/451/2 211/452/2
f 163/402/138 164/401/138 218/418/138 217/417/138
f 237/412/139 238/411/139 202/440/139 201/439/139
f 216/443/140 215/442/140 174/434/140 175/433/140
f 180/400/141 181/399/141 192/426/141 191/425/141
f 213/421/10 104/294/10 120/293/10 229/323/10 228/453/10 210/454/10 206/455/10 208/456/10
f 197/457/142 198/458/142 196/394/142 195/393/142
f 170/436/143 169/435/143 171/428/143 172/427/143
f 244/459/2 25/207/2 27/209/2 245/460/2
f 239/461/3 8/462/3 266/463/3 267/464/3 268/465/3 265/466/3 264/467/3 263/468/3 262/469/3 261/470/3 260/471/3 259/472/3 258/473/3 257/474/3 256/475/3 255/476/3
f 252/221/144 39/220/144 254/477/144
f 250/478/2 37/219/2 251/222/2
f 248/479/2 33/215/2 35/217/2 249/480/2
f 242/481/2 9/194/2 23/196/2 243/482/2
f 247/483/2 31/213/2 33/215/2 248/479/2
f 253/183/11 7/484/11 240/485/11 241/486/11 242/487/11 243/488/11 244/489/11 245/490/11 246/491/11 247/492/11 248/493/11 249/494/11 250/495/11 251/496/11 252/497/11 254/184/11
f 246/498/2 29/211/2 31/213/2 247/483/2
f 241/499/2 16/191/2 9/194/2 242/481/2
f 267/500/145 41/501/145 40/502/145 268/503/145
f 269/504/1 273/505/1 272/506/1 300/507/1 93/18/1 41/17/1 267/508/1 266/509/1
f 249/480/2 35/217/2 37/219/2 250/478/2
f 245/460/2 27/209/2 29/211/2 246/498/2
f 266/510/2 8/511/2 7/512/2 253/513/2 269/514/2
f 243/482/2 23/196/2 25/207/2 244/459/2
f 272/515/3 6/516/3 270/517/3 288/518/3 289/519/3 290/520/3 291/521/3 292/522/3 293/523/3 294/524/3 295/525/3 296/526/3 297/527/3 298/528/3 299/529/3 300/530/3
f 270/531/1 6/532/1 5/533/1 287/534/1
f 271/535/10 5/536/10 6/537/10 272/538/10 273/539/10
f 276/540/10 77/253/10 63/251/10 275/541/10
f 279/542/10 83/268/10 81/266/10 278/543/10
f 275/541/10 63/251/10 68/250/10 274/544/10
f 277/545/10 79/264/10 77/253/10 276/540/10
f 278/543/10 81/266/10 79/264/10 277/545/10
f 299/546/146 94/547/146 93/548/146 300/549/146
f 283/550/10 91/276/10 89/274/10 282/551/10
f 282/551/10 89/274/10 87/272/10 281/552/10
f 287/553/11 5/554/11 271/180/11 285/179/11 286/555/11 284/556/11 283/557/11 282/558/11 281/559/11 280/560/11 279/561/11 278/562/11 277/563/11 276/564/11 275/565/11 274/566/11
f 284/278/10 91/276/10 283/550/10
f 281/552/10 87/272/10 85/270/10 280/567/10
f 280/567/10 85/270/10 83/268/10 279/542/10
f 315/568/2 263/569/2 264/570/2 316/571/2
f 325/572/147 338/573/147 337/574/147 324/575/147
f 308/576/2 256/577/2 257/578/2 309/579/2
f 322/580/148 17/581/148 18/582/148 320/583/148
f 324/575/11 337/574/11 336/584/11 323/585/11
f 328/586/149 343/587/149 342/588/149 331/589/149
f 331/589/150 342/588/150 341/590/150 330/591/150
f 313/592/2 261/593/2 262/594/2 314/595/2
f 332/22/151 345/21/151 344/596/151 329/597/151
f 306/352/2 21/204/2 16/191/2 241/499/2 240/598/2 239/599/2 255/600/2 307/601/2
f 302/602/2 265/603/2 268/503/2 40/502/2 304/604/2
f 309/579/2 257/578/2 258/605/2 310/606/2
f 301/607/3 4/608/3 321/609/3 322/610/3 320/611/3 319/612/3 318/613/3
f 326/614/11 339/615/11 338/573/11 325/572/11
f 316/571/2 264/570/2 265/603/2 302/602/2
f 312/616/2 260/617/2 261/593/2 313/592/2
f 314/595/2 262/594/2 263/569/2 315/568/2
f 327/618/152 340/619/152 339/615/152 326/614/152
f 317/620/11 3/621/11 305/622/11 306/623/11 307/624/11 308/625/11 309/626/11 310/627/11 311/628/11 312/629/11 313/630/11 314/631/11 315/632/11 316/633/11 302/634/11 304/635/11 303/636/11
f 323/637/153 336/638/153 335/639/153 364/640/153 71/641/153 17/581/153 322/580/153 321/642/153
f 310/606/2 258/605/2 259/643/2 311/644/2
f 329/645/11 344/646/11 343/587/11 328/586/11
f 321/647/2 4/648/2 3/649/2 317/650/2 332/651/2 329/652/2 328/653/2 331/654/2 330/655/2 327/656/2 326/657/2 325/658/2 324/659/2 323/660/2
f 330/661/154 341/662/154 340/663/154 327/664/154
f 311/644/2 259/643/2 260/617/2 312/616/2
f 307/601/2 255/600/2 256/577/2 308/576/2
f 354/665/10 296/666/10 295/667/10 353/668/10
f 357/669/10 298/670/10 297/671/10 355/672/10
f 334/673/10 1/674/10 2/675/10 335/676/10 336/677/10 337/678/10 338/679/10 339/680/10 340/681/10 341/682/10 342/683/10 343/684/10 344/685/10 345/686/10
f 349/687/10 291/688/10 290/689/10 348/690/10
f 347/691/10 289/692/10 288/693/10 346/694/10
f 335/695/3 2/696/3 333/697/3 361/698/3 362/699/3 363/700/3 364/701/3
f 363/702/155 70/703/155 71/641/155 364/640/155
f 355/672/10 297/671/10 296/666/10 354/665/10
f 348/690/10 290/689/10 289/692/10 347/691/10
f 351/704/10 293/705/10 292/706/10 350/707/10
f 359/708/11 1/709/11 334/710/11 356/711/11 358/712/11 357/713/11 355/714/11 354/715/11 353/716/11 352/717/11 351/718/11 350/719/11 349/720/11 348/721/11 347/722/11 346/723/11 360/724/11
f 333/725/1 2/726/1 1/727/1 359/728/1
f 353/668/10 295/667/10 294/729/10 352/730/10
f 346/694/10 288/693/10 270/731/10 287/732/10 274/544/10 68/250/10 75/263/10 360/359/10
f 352/730/10 294/729/10 293/705/10 351/704/10
f 358/733/10 94/547/10 299/546/10 298/670/10 357/669/10
f 350/707/10 292/706/10 291/688/10 349/687/10
