%YAML 1.1
%TAG !u! tag:unity3d.com,2011:
--- !u!1 &4893960401027642013
GameObject:
  m_ObjectHideFlags: 0
  m_CorrespondingSourceObject: {fileID: 0}
  m_PrefabInstance: {fileID: 0}
  m_PrefabAsset: {fileID: 0}
  serializedVersion: 6
  m_Component:
  - component: {fileID: 4893960401027642012}
  m_Layer: 0
  m_Name: DoorHinge
  m_TagString: Untagged
  m_Icon: {fileID: 0}
  m_NavMeshLayer: 0
  m_StaticEditorFlags: 0
  m_IsActive: 0
--- !u!4 &4893960401027642012
Transform:
  m_ObjectHideFlags: 0
  m_CorrespondingSourceObject: {fileID: 0}
  m_PrefabInstance: {fileID: 0}
  m_PrefabAsset: {fileID: 0}
  m_GameObject: {fileID: 4893960401027642013}
  m_LocalRotation: {x: -0, y: -0, z: -0, w: 1}
  m_LocalPosition: {x: 0.5050001, y: 0.024000645, z: 1.4860001}
  m_LocalScale: {x: 1, y: 1, z: 1}
  m_Children:
  - {fileID: 472987640606998469}
  m_Father: {fileID: 0}
  m_RootOrder: 0
  m_LocalEulerAnglesHint: {x: 0, y: 0, z: 0}
--- !u!135 &4893960401472956272
SphereCollider:
  m_ObjectHideFlags: 0
  m_CorrespondingSourceObject: {fileID: 0}
  m_PrefabInstance: {fileID: 0}
  m_PrefabAsset: {fileID: 0}
  m_GameObject: {fileID: 3515967810023157973}
  m_Material: {fileID: 0}
  m_IsTrigger: 0
  m_Enabled: 1
  serializedVersion: 2
  m_Radius: 0.08848254
  m_Center: {x: 0.85818356, y: -0.22802246, z: 0.20973596}
--- !u!320 &4893960401472956286
PlayableDirector:
  m_ObjectHideFlags: 0
  m_CorrespondingSourceObject: {fileID: 0}
  m_PrefabInstance: {fileID: 0}
  m_PrefabAsset: {fileID: 0}
  m_GameObject: {fileID: 3515967810023157973}
  m_Enabled: 1
  serializedVersion: 3
  m_PlayableAsset: {fileID: 0}
  m_InitialState: 1
  m_WrapMode: 2
  m_DirectorUpdateMode: 1
  m_InitialTime: 0
  m_SceneBindings: []
  m_ExposedReferences:
    m_References: []
--- !u!1001 &4893960400894962140
PrefabInstance:
  m_ObjectHideFlags: 0
  serializedVersion: 2
  m_Modification:
    m_TransformParent: {fileID: 472987640606998469}
    m_Modifications:
    - target: {fileID: -4216859302048453862, guid: 652a76cfcc2666a45805e2d1a1e6351f,
        type: 3}
      propertyPath: m_LocalPosition.x
      value: 0.2003404
      objectReference: {fileID: 0}
    - target: {fileID: -4216859302048453862, guid: 652a76cfcc2666a45805e2d1a1e6351f,
        type: 3}
      propertyPath: m_LocalPosition.y
      value: 0.13633408
      objectReference: {fileID: 0}
    - target: {fileID: -4216859302048453862, guid: 652a76cfcc2666a45805e2d1a1e6351f,
        type: 3}
      propertyPath: m_LocalPosition.z
      value: 0.042873207
      objectReference: {fileID: 0}
    - target: {fileID: -4216859302048453862, guid: 652a76cfcc2666a45805e2d1a1e6351f,
        type: 3}
      propertyPath: m_LocalRotation.x
      value: -0.01727665
      objectReference: {fileID: 0}
    - target: {fileID: -4216859302048453862, guid: 652a76cfcc2666a45805e2d1a1e6351f,
        type: 3}
      propertyPath: m_LocalRotation.y
      value: 0.99985075
      objectReference: {fileID: 0}
    - target: {fileID: -4216859302048453862, guid: 652a76cfcc2666a45805e2d1a1e6351f,
        type: 3}
      propertyPath: m_LocalRotation.z
      value: -0
      objectReference: {fileID: 0}
    - target: {fileID: -4216859302048453862, guid: 652a76cfcc2666a45805e2d1a1e6351f,
        type: 3}
      propertyPath: m_LocalRotation.w
      value: 0
      objectReference: {fileID: 0}
    - target: {fileID: -4216859302048453862, guid: 652a76cfcc2666a45805e2d1a1e6351f,
        type: 3}
      propertyPath: m_RootOrder
      value: 0
      objectReference: {fileID: 0}
    - target: {fileID: -4216859302048453862, guid: 652a76cfcc2666a45805e2d1a1e6351f,
        type: 3}
      propertyPath: m_LocalEulerAnglesHint.x
      value: 0
      objectReference: {fileID: 0}
    - target: {fileID: -4216859302048453862, guid: 652a76cfcc2666a45805e2d1a1e6351f,
        type: 3}
      propertyPath: m_LocalEulerAnglesHint.y
      value: 180.00002
      objectReference: {fileID: 0}
    - target: {fileID: -4216859302048453862, guid: 652a76cfcc2666a45805e2d1a1e6351f,
        type: 3}
      propertyPath: m_LocalEulerAnglesHint.z
      value: -1.9800001
      objectReference: {fileID: 0}
    - target: {fileID: -4216859302048453862, guid: 652a76cfcc2666a45805e2d1a1e6351f,
        type: 3}
      propertyPath: m_LocalScale.x
      value: 1.2271447
      objectReference: {fileID: 0}
    - target: {fileID: -4216859302048453862, guid: 652a76cfcc2666a45805e2d1a1e6351f,
        type: 3}
      propertyPath: m_LocalScale.y
      value: 1.2271447
      objectReference: {fileID: 0}
    - target: {fileID: -4216859302048453862, guid: 652a76cfcc2666a45805e2d1a1e6351f,
        type: 3}
      propertyPath: m_LocalScale.z
      value: 1.2271447
      objectReference: {fileID: 0}
    - target: {fileID: -927199367670048503, guid: 652a76cfcc2666a45805e2d1a1e6351f,
        type: 3}
      propertyPath: m_Name
      value: DoorKnob
      objectReference: {fileID: 0}
    - target: {fileID: -927199367670048503, guid: 652a76cfcc2666a45805e2d1a1e6351f,
        type: 3}
      propertyPath: m_TagString
      value: Item
      objectReference: {fileID: 0}
    m_RemovedComponents: []
  m_SourcePrefab: {fileID: 100100000, guid: 652a76cfcc2666a45805e2d1a1e6351f, type: 3}
--- !u!1 &3515967810023157973 stripped
GameObject:
  m_CorrespondingSourceObject: {fileID: -927199367670048503, guid: 652a76cfcc2666a45805e2d1a1e6351f,
    type: 3}
  m_PrefabInstance: {fileID: 4893960400894962140}
  m_PrefabAsset: {fileID: 0}
--- !u!1001 &4893960401498019039
PrefabInstance:
  m_ObjectHideFlags: 0
  serializedVersion: 2
  m_Modification:
    m_TransformParent: {fileID: 4893960401027642012}
    m_Modifications:
    - target: {fileID: -5975033157549033438, guid: ab9ca2d9660d0d84a8ba4534b61c0f69,
        type: 3}
      propertyPath: m_RootOrder
      value: 1
      objectReference: {fileID: 0}
    - target: {fileID: -4216859302048453862, guid: ab9ca2d9660d0d84a8ba4534b61c0f69,
        type: 3}
      propertyPath: m_LocalPosition.x
      value: -0.48499998
      objectReference: {fileID: 0}
    - target: {fileID: -4216859302048453862, guid: ab9ca2d9660d0d84a8ba4534b61c0f69,
        type: 3}
      propertyPath: m_LocalPosition.y
      value: 1.051
      objectReference: {fileID: 0}
    - target: {fileID: -4216859302048453862, guid: ab9ca2d9660d0d84a8ba4534b61c0f69,
        type: 3}
      propertyPath: m_LocalPosition.z
      value: 0.011999965
      objectReference: {fileID: 0}
    - target: {fileID: -4216859302048453862, guid: ab9ca2d9660d0d84a8ba4534b61c0f69,
        type: 3}
      propertyPath: m_LocalRotation.x
      value: -0
      objectReference: {fileID: 0}
    - target: {fileID: -4216859302048453862, guid: ab9ca2d9660d0d84a8ba4534b61c0f69,
        type: 3}
      propertyPath: m_LocalRotation.y
      value: -0
      objectReference: {fileID: 0}
    - target: {fileID: -4216859302048453862, guid: ab9ca2d9660d0d84a8ba4534b61c0f69,
        type: 3}
      propertyPath: m_LocalRotation.z
      value: -0
      objectReference: {fileID: 0}
    - target: {fileID: -4216859302048453862, guid: ab9ca2d9660d0d84a8ba4534b61c0f69,
        type: 3}
      propertyPath: m_LocalRotation.w
      value: 1
      objectReference: {fileID: 0}
    - target: {fileID: -4216859302048453862, guid: ab9ca2d9660d0d84a8ba4534b61c0f69,
        type: 3}
      propertyPath: m_RootOrder
      value: 0
      objectReference: {fileID: 0}
    - target: {fileID: -4216859302048453862, guid: ab9ca2d9660d0d84a8ba4534b61c0f69,
        type: 3}
      propertyPath: m_LocalEulerAnglesHint.x
      value: 0
      objectReference: {fileID: 0}
    - target: {fileID: -4216859302048453862, guid: ab9ca2d9660d0d84a8ba4534b61c0f69,
        type: 3}
      propertyPath: m_LocalEulerAnglesHint.y
      value: 0
      objectReference: {fileID: 0}
    - target: {fileID: -4216859302048453862, guid: ab9ca2d9660d0d84a8ba4534b61c0f69,
        type: 3}
      propertyPath: m_LocalEulerAnglesHint.z
      value: 0
      objectReference: {fileID: 0}
    - target: {fileID: -4216859302048453862, guid: ab9ca2d9660d0d84a8ba4534b61c0f69,
        type: 3}
      propertyPath: m_LocalScale.x
      value: 0.47582
      objectReference: {fileID: 0}
    - target: {fileID: -4216859302048453862, guid: ab9ca2d9660d0d84a8ba4534b61c0f69,
        type: 3}
      propertyPath: m_LocalScale.y
      value: 0.47582
      objectReference: {fileID: 0}
    - target: {fileID: -4216859302048453862, guid: ab9ca2d9660d0d84a8ba4534b61c0f69,
        type: 3}
      propertyPath: m_LocalScale.z
      value: 0.47582
      objectReference: {fileID: 0}
    - target: {fileID: -2416733968201007103, guid: ab9ca2d9660d0d84a8ba4534b61c0f69,
        type: 3}
      propertyPath: m_Materials.Array.data[0]
      value: 
      objectReference: {fileID: 2100000, guid: 061c726fdeb7b4698ae665b88018d0ef, type: 2}
    - target: {fileID: -2416733968201007103, guid: ab9ca2d9660d0d84a8ba4534b61c0f69,
        type: 3}
      propertyPath: m_DynamicOccludee
      value: 0
      objectReference: {fileID: 0}
    - target: {fileID: -2416733968201007103, guid: ab9ca2d9660d0d84a8ba4534b61c0f69,
        type: 3}
      propertyPath: m_RenderingLayerMask
      value: 4294967295
      objectReference: {fileID: 0}
    - target: {fileID: -927199367670048503, guid: ab9ca2d9660d0d84a8ba4534b61c0f69,
        type: 3}
      propertyPath: m_Name
      value: Door 1
      objectReference: {fileID: 0}
    - target: {fileID: 2534866581884222612, guid: ab9ca2d9660d0d84a8ba4534b61c0f69,
        type: 3}
      propertyPath: m_Name
      value: door
      objectReference: {fileID: 0}
    - target: {fileID: 2534866581884222612, guid: ab9ca2d9660d0d84a8ba4534b61c0f69,
        type: 3}
      propertyPath: m_StaticEditorFlags
      value: 1
      objectReference: {fileID: 0}
    m_RemovedComponents: []
  m_SourcePrefab: {fileID: 100100000, guid: ab9ca2d9660d0d84a8ba4534b61c0f69, type: 3}
--- !u!4 &472987640606998469 stripped
Transform:
  m_CorrespondingSourceObject: {fileID: -4216859302048453862, guid: ab9ca2d9660d0d84a8ba4534b61c0f69,
    type: 3}
  m_PrefabInstance: {fileID: 4893960401498019039}
  m_PrefabAsset: {fileID: 0}
