# This file uses centimeters as units for non-parametric coordinates.

mtllib window.mtl
g default
v -6.147200 -0.836756 7.525128
v -6.242740 -0.753889 7.643518
v -6.335161 -0.744276 7.554682
v -6.215671 -0.812853 7.399195
v 6.215671 -0.812853 7.399195
v 6.335161 -0.742920 7.554087
v 6.244679 -0.757931 7.643518
v 6.147200 -0.836756 7.525128
v -6.239485 0.532558 7.422066
v -6.335161 0.406862 7.553155
v -6.246630 0.409410 7.643518
v -6.168041 0.532558 7.547870
v 6.168041 0.532558 7.547870
v 6.244781 0.406839 7.643518
v 6.335161 0.409455 7.555019
v 6.239485 0.532558 7.422066
v -6.168041 0.532558 -7.547870
v -6.244781 0.406839 -7.643518
v -6.335161 0.409455 -7.555019
v -6.239485 0.532558 -7.422066
v 6.239485 0.532558 -7.422066
v 6.335161 0.406862 -7.553155
v 6.246630 0.409410 -7.643518
v 6.168041 0.532558 -7.547870
v -6.215671 -0.812853 -7.399195
v -6.335161 -0.742920 -7.554087
v -6.244679 -0.757931 -7.643518
v -6.147200 -0.836756 -7.525128
v 6.147200 -0.836756 -7.525128
v 6.242740 -0.753889 -7.643518
v 6.335161 -0.744276 -7.554682
v 6.215671 -0.812853 -7.399195
v -5.943406 0.524472 7.068731
v -6.073749 0.532558 7.225822
v -5.977820 0.532558 7.314573
v -5.869725 0.525848 7.184214
v 5.869725 0.525848 7.184214
v 5.977798 0.532558 7.314618
v 6.073684 0.532558 7.225847
v 5.943406 0.524472 7.068731
v 5.943406 0.524472 -7.068731
v 6.073749 0.532558 -7.225822
v 5.977820 0.532558 -7.314573
v 5.869725 0.525848 -7.184214
v -5.869725 0.525848 -7.184214
v -5.977798 0.532558 -7.314618
v -6.073684 0.532558 -7.225847
v -5.943406 0.524472 -7.068731
v -5.688270 0.369027 6.774076
v -5.776405 0.503716 6.867115
v -5.676795 0.502140 6.954065
v -5.599746 0.369625 6.863029
v 5.599746 0.369625 6.863029
v 5.676888 0.502065 6.953339
v 5.777335 0.503832 6.867158
v 5.688270 0.369027 6.774076
v 5.688270 0.369027 -6.774076
v 5.776405 0.503716 -6.867115
v 5.676795 0.502140 -6.954065
v 5.599746 0.369625 -6.863029
v -5.599746 0.369625 -6.863029
v -5.676888 0.502065 -6.953339
v -5.777335 0.503832 -6.867158
v -5.688270 0.369027 -6.774076
v -5.746332 -0.287765 6.830811
v -5.688270 -0.123725 6.772181
v -5.598986 -0.123199 6.863029
v -5.648814 -0.280781 6.925551
v 5.648814 -0.280781 6.925551
v 5.597665 -0.121726 6.863029
v 5.688270 -0.125558 6.773862
v 5.746332 -0.287765 6.830811
v 5.746332 -0.287765 -6.830811
v 5.688270 -0.123725 -6.772181
v 5.598986 -0.123199 -6.863029
v 5.648814 -0.280781 -6.925551
v -5.648814 -0.280781 -6.925551
v -5.597665 -0.121726 -6.863029
v -5.688270 -0.125558 -6.773862
v -5.746332 -0.287765 -6.830811
v -0.394191 -0.466644 7.130637
v 0.394191 -0.466644 7.130637
v -0.394191 0.322973 7.130637
v 0.394191 0.322973 7.130637
v -0.394191 0.322973 -7.130637
v 0.394191 0.322973 -7.130637
v -0.394191 -0.466644 -7.130637
v 0.394191 -0.466644 -7.130637
v -5.811341 -0.248240 -4.158246
v 5.811341 -0.248240 -4.158246
v -5.811341 0.248240 -4.158246
v 5.811341 0.248240 -4.158246
v -5.811341 0.248240 -4.476534
v 5.811341 0.248240 -4.476534
v -5.811341 -0.248240 -4.476534
v 5.811341 -0.248240 -4.476534
v -5.811341 -0.248240 1.595812
v 5.811341 -0.248240 1.595812
v -5.811341 0.248240 1.595812
v 5.811341 0.248240 1.595812
v -5.811341 0.248240 1.277523
v 5.811341 0.248240 1.277523
v -5.811341 -0.248240 1.277523
v 5.811341 -0.248240 1.277523
v -5.811341 -0.248240 4.516532
v 5.811341 -0.248240 4.516532
v -5.811341 0.248240 4.516532
v 5.811341 0.248240 4.516532
v -5.811341 0.248240 4.198243
v 5.811341 0.248240 4.198243
v -5.811341 -0.248240 4.198243
v 5.811341 -0.248240 4.198243
v -5.811341 -0.248240 -1.255772
v 5.811341 -0.248240 -1.255772
v -5.811341 0.248240 -1.255772
v 5.811341 0.248240 -1.255772
v -5.811341 0.248240 -1.574061
v 5.811341 0.248240 -1.574061
v -5.811341 -0.248240 -1.574061
v 5.811341 -0.248240 -1.574061
v 3.181278 -0.248240 7.011817
v 3.181278 -0.248240 -7.193685
v 3.181278 0.248240 7.011817
v 3.181278 0.248240 -7.193685
v 2.862990 0.248240 7.011817
v 2.862990 0.248240 -7.193685
v 2.862990 -0.248240 7.011817
v 2.862990 -0.248240 -7.193685
v -2.834207 -0.248240 7.011817
v -2.834207 -0.248240 -7.193685
v -2.834207 0.248240 7.011817
v -2.834207 0.248240 -7.193685
v -3.152496 0.248240 7.011817
v -3.152496 0.248240 -7.193685
v -3.152496 -0.248240 7.011817
v -3.152496 -0.248240 -7.193685
vt 0.930003 0.026435
vt 0.923731 0.023166
vt 0.887031 0.055104
vt 0.891043 0.060317
vt 0.931234 0.022020
vt 0.990549 0.525618
vt 0.992763 0.532197
vt 0.926709 0.017174
vt 0.888848 0.036307
vt 0.884610 0.031303
vt 0.567373 0.032818
vt 0.572749 0.036105
vt 0.986254 0.526239
vt 0.956121 0.513366
vt 0.953831 0.514741
vt 0.989890 0.533834
vt 0.674928 0.371102
vt 0.672074 0.373492
vt 0.961203 0.560401
vt 0.963685 0.559118
vt 0.875440 0.038507
vt 0.880998 0.042478
vt 0.873484 0.053264
vt 0.869252 0.047943
vt 0.532914 0.045562
vt 0.533760 0.041467
vt 0.957048 0.558096
vt 0.953402 0.558099
vt 0.946500 0.549666
vt 0.948819 0.548230
vt 0.646666 0.387638
vt 0.644916 0.388053
vt 0.531987 0.047967
vt 0.537400 0.051046
vt 0.537220 0.054239
vt 0.533618 0.044474
vt 0.642662 0.385490
vt 0.644724 0.385004
vt 0.567442 0.035698
vt 0.644456 0.382922
vt 0.646398 0.385779
vt 0.670411 0.370701
vt 0.572311 0.038212
vt 0.570014 0.058562
vt 0.570597 0.055317
vt 0.673208 0.368407
vt 0.668174 0.370935
vt 0.665966 0.368098
vt 0.864705 0.055075
vt 0.869658 0.059148
vt 0.863536 0.069224
vt 0.859402 0.063843
vt 0.541224 0.055310
vt 0.944414 0.542539
vt 0.941229 0.542841
vt 0.934785 0.533940
vt 0.936972 0.532209
vt 0.647803 0.383886
vt 0.645612 0.381342
vt 0.647936 0.378321
vt 0.649870 0.381301
vt 0.540379 0.057766
vt 0.546449 0.060686
vt 0.546368 0.063989
vt 0.861732 0.066715
vt 0.865722 0.071481
vt 0.883532 0.064958
vt 0.879505 0.060245
vt 0.552740 0.062554
vt 0.937297 0.525349
vt 0.935038 0.526641
vt 0.947744 0.515643
vt 0.949950 0.514325
vt 0.653637 0.378248
vt 0.651703 0.375537
vt 0.662950 0.369348
vt 0.664906 0.372062
vt 0.552399 0.065469
vt 0.567304 0.058526
vt 0.566834 0.061520
vt 0.938181 0.299821
vt 0.942421 0.330973
vt 0.919166 0.346506
vt 0.914374 0.314884
vt 0.607258 0.243098
vt 0.600343 0.221582
vt 0.627159 0.234590
vt 0.620592 0.213306
vt 0.610520 0.053321
vt 0.708594 0.393623
vt 0.697008 0.400455
vt 0.595275 0.057618
vt 0.691907 0.397770
vt 0.590043 0.057600
vt 0.703452 0.391017
vt 0.605207 0.053343
vt 0.727417 0.052838
vt 0.817590 0.448877
vt 0.805320 0.457462
vt 0.710658 0.058023
vt 0.798401 0.453821
vt 0.703032 0.057997
vt 0.810638 0.445352
vt 0.719709 0.052870
vt 0.807287 0.052507
vt 0.887786 0.484461
vt 0.875258 0.494272
vt 0.789817 0.058302
vt 0.867020 0.489937
vt 0.780292 0.058268
vt 0.879526 0.480274
vt 0.797691 0.052547
vt 0.664033 0.053100
vt 0.759453 0.419405
vt 0.747505 0.427033
vt 0.648025 0.057803
vt 0.741591 0.423920
vt 0.641755 0.057781
vt 0.753500 0.416388
vt 0.657678 0.053126
vt 0.946549 0.435425
vt 0.643134 0.308053
vt 0.631323 0.313855
vt 0.932991 0.446000
vt 0.628788 0.305948
vt 0.931309 0.434964
vt 0.640678 0.300193
vt 0.944987 0.424470
vt 0.912754 0.198425
vt 0.592468 0.145921
vt 0.578983 0.150622
vt 0.896537 0.206764
vt 0.575928 0.141093
vt 0.894291 0.192019
vt 0.589513 0.136466
vt 0.910676 0.183852
vn 0.006385 -0.735893 -0.677067
vn 0.739824 -0.672718 -0.010575
vn 0.772434 -0.635084 -0.003831
vn 0.004880 -0.702346 -0.711819
vn -0.009075 -0.830201 0.557390
vn -0.005061 -0.828248 0.560338
vn 0.004870 -0.828334 0.560214
vn 0.009252 -0.830505 0.556935
vn -0.703667 -0.000714 0.710530
vn -0.703667 -0.000714 0.710529
vn -0.703667 -0.000714 0.710530
vn -0.703667 -0.000714 0.710530
vn -0.500959 -0.865471 0.001022
vn -0.499315 -0.866409 0.004563
vn -0.499536 -0.866284 -0.004081
vn -0.501003 -0.865445 -0.000983
vn -0.739824 -0.672718 -0.010575
vn -0.006385 -0.735893 -0.677067
vn -0.004876 -0.702460 -0.711706
vn -0.772547 -0.634946 -0.003830
vn 0.499536 -0.866284 0.004081
vn 0.501003 -0.865445 0.000983
vn 0.500958 -0.865471 -0.001022
vn 0.499315 -0.866409 -0.004563
vn 0.701319 -0.000318 0.712847
vn 0.701319 -0.000318 0.712847
vn 0.701319 -0.000318 0.712847
vn 0.701319 -0.000318 0.712847
vn 0.000000 1.000000 0.000000
vn 0.000000 1.000000 0.000000
vn 0.000127 0.999959 -0.009048
vn 0.011107 0.999938 -0.000158
vn -0.789517 0.613677 0.007962
vn -0.791770 0.610815 0.002334
vn -0.791747 0.610846 -0.002277
vn -0.789312 0.613935 -0.008328
vn 0.000063 0.609427 0.792842
vn 0.000063 0.609427 0.792842
vn 0.000063 0.609427 0.792842
vn 0.000063 0.609427 0.792842
vn 0.000000 1.000000 0.000000
vn 0.000000 1.000000 -0.000000
vn -0.011104 0.999938 -0.000158
vn -0.000127 0.999959 -0.009049
vn 0.791747 0.610846 0.002277
vn 0.789312 0.613935 0.008328
vn 0.789517 0.613677 -0.007962
vn 0.791770 0.610815 -0.002334
vn 0.000000 1.000000 -0.000000
vn 0.000000 1.000000 0.000000
vn 0.011104 0.999938 0.000158
vn 0.000127 0.999959 0.009049
vn -0.000063 0.609427 -0.792842
vn -0.000063 0.609427 -0.792842
vn -0.000063 0.609427 -0.792842
vn -0.000063 0.609427 -0.792842
vn -0.701319 -0.000318 -0.712847
vn -0.701319 -0.000318 -0.712847
vn -0.701319 -0.000318 -0.712847
vn -0.701319 -0.000318 -0.712847
vn 0.000000 1.000000 -0.000000
vn 0.000000 1.000000 -0.000000
vn -0.000127 0.999959 0.009048
vn -0.011107 0.999938 0.000158
vn 0.703667 -0.000714 -0.710530
vn 0.703667 -0.000714 -0.710530
vn 0.703667 -0.000714 -0.710530
vn 0.703667 -0.000714 -0.710530
vn 0.739824 -0.672718 0.010575
vn 0.006385 -0.735893 0.677067
vn 0.004876 -0.702460 0.711706
vn 0.772547 -0.634946 0.003830
vn -0.004870 -0.828334 -0.560214
vn -0.009252 -0.830505 -0.556935
vn 0.009075 -0.830201 -0.557390
vn 0.005061 -0.828248 -0.560338
vn -0.006385 -0.735893 0.677067
vn -0.739824 -0.672718 0.010575
vn -0.772434 -0.635084 0.003831
vn -0.004880 -0.702346 0.711819
vn 0.077653 0.996980 -0.000713
vn 0.000693 0.997447 -0.071415
vn 0.000590 0.994786 -0.101981
vn 0.122725 0.992441 -0.000511
vn 0.077610 0.996984 0.000711
vn -0.000694 0.997445 -0.071440
vn -0.077610 0.996984 -0.000711
vn -0.122726 0.992440 -0.000509
vn -0.000591 0.994786 -0.101981
vn -0.077653 0.996980 0.000713
vn -0.000693 0.997447 0.071415
vn -0.000590 0.994786 0.101981
vn -0.122725 0.992441 0.000511
vn 0.000694 0.997445 0.071440
vn 0.122726 0.992440 0.000509
vn 0.000591 0.994786 0.101981
vn 0.711028 0.001900 -0.703161
vn 0.711028 0.001900 -0.703161
vn 0.711028 0.001900 -0.703161
vn 0.711028 0.001900 -0.703161
vn 0.835559 0.549401 -0.000026
vn 0.835559 0.549401 -0.000026
vn 0.835559 0.549401 -0.000026
vn 0.835559 0.549401 -0.000026
vn 0.005199 0.567019 -0.823688
vn 0.008941 0.568588 -0.822574
vn -0.009025 0.568608 -0.822559
vn -0.005215 0.567009 -0.823695
vn -0.705084 0.001643 -0.709122
vn -0.705084 0.001643 -0.709122
vn -0.705084 0.001643 -0.709122
vn -0.705084 0.001643 -0.709122
vn -0.835559 0.549401 0.000026
vn -0.835559 0.549401 0.000026
vn -0.835559 0.549401 0.000026
vn -0.835559 0.549401 0.000026
vn -0.711028 0.001900 0.703161
vn -0.711028 0.001900 0.703161
vn -0.711028 0.001900 0.703161
vn -0.711028 0.001900 0.703161
vn -0.005199 0.567019 0.823688
vn -0.008941 0.568588 0.822574
vn 0.009025 0.568608 0.822559
vn 0.005215 0.567009 0.823695
vn 0.705084 0.001643 0.709122
vn 0.705084 0.001643 0.709122
vn 0.705084 0.001643 0.709122
vn 0.705084 0.001643 0.709122
vn 0.994879 -0.101073 0.000007
vn 0.994883 -0.101033 0.000007
vn 0.000007 -0.108438 -0.994103
vn 0.000007 -0.108488 -0.994098
vn -0.994883 -0.101033 -0.000007
vn -0.994879 -0.101073 -0.000007
vn -0.000007 -0.108438 0.994103
vn -0.000007 -0.108488 0.994098
vn -0.000000 0.000000 1.000000
vn -0.000000 0.000000 1.000000
vn -0.000000 0.000000 1.000000
vn -0.000000 0.000000 1.000000
vn 0.000000 0.000000 -1.000000
vn 0.000000 0.000000 -1.000000
vn 0.000000 0.000000 -1.000000
vn 0.000000 0.000000 -1.000000
vn 1.000000 -0.000000 0.000000
vn 1.000000 -0.000000 0.000000
vn 1.000000 -0.000000 0.000000
vn 1.000000 -0.000000 0.000000
vn -1.000000 -0.000000 0.000000
vn -1.000000 -0.000000 0.000000
vn -1.000000 -0.000000 0.000000
vn -1.000000 -0.000000 0.000000
vn -0.000000 0.000000 -1.000000
vn -0.000000 0.000000 -1.000000
vn -1.000000 0.000000 0.000000
vn -1.000000 0.000000 0.000000
vn 0.000000 0.000000 1.000000
vn 0.000000 0.000000 1.000000
vn 1.000000 0.000000 0.000000
vn 1.000000 0.000000 0.000000
vn -0.544429 0.740419 0.394179
vn -0.544429 0.740419 0.394179
vn 0.529769 0.742951 0.409107
vn 0.529769 0.742951 0.409107
vn -0.529769 0.742951 -0.409107
vn -0.529769 0.742951 -0.409107
vn 0.544429 0.740419 -0.394179
vn 0.544429 0.740419 -0.394179
vn 0.503159 0.679178 -0.534367
vn 0.503159 0.679178 -0.534367
vn -0.501002 0.679443 -0.536054
vn -0.501002 0.679443 -0.536054
vn -0.503159 0.679178 0.534367
vn -0.503159 0.679178 0.534367
vn 0.501002 0.679443 0.536054
vn 0.501002 0.679443 0.536054
vn 0.638608 -0.449504 -0.624600
vn 0.638608 -0.449504 -0.624600
vn -0.637549 -0.449427 -0.625737
vn -0.637549 -0.449427 -0.625737
vn -0.638608 -0.449504 0.624600
vn -0.638608 -0.449504 0.624600
vn 0.637549 -0.449427 0.625737
vn 0.637549 -0.449427 0.625737
vn 0.000000 0.000000 1.000000
vn 0.000000 0.000000 1.000000
vn 0.000000 0.000000 1.000000
vn 0.000000 0.000000 1.000000
vn 0.000000 1.000000 0.000000
vn 0.000000 1.000000 0.000000
vn 0.000000 1.000000 0.000000
vn 0.000000 1.000000 0.000000
vn 0.000000 0.000000 -1.000000
vn 0.000000 0.000000 -1.000000
vn 0.000000 0.000000 -1.000000
vn 0.000000 0.000000 -1.000000
vn 0.000000 -1.000000 0.000000
vn 0.000000 -1.000000 0.000000
vn 0.000000 -1.000000 0.000000
vn 0.000000 -1.000000 0.000000
vn 1.000000 0.000000 0.000000
vn 1.000000 0.000000 0.000000
vn 1.000000 0.000000 0.000000
vn 1.000000 0.000000 0.000000
vn -1.000000 0.000000 0.000000
vn -1.000000 0.000000 0.000000
vn -1.000000 0.000000 0.000000
vn -1.000000 0.000000 0.000000
vn 0.000000 0.000000 1.000000
vn 0.000000 0.000000 1.000000
vn 0.000000 0.000000 1.000000
vn 0.000000 0.000000 1.000000
vn 0.000000 1.000000 0.000000
vn 0.000000 1.000000 0.000000
vn 0.000000 1.000000 0.000000
vn 0.000000 1.000000 0.000000
vn 0.000000 0.000000 -1.000000
vn 0.000000 0.000000 -1.000000
vn 0.000000 0.000000 -1.000000
vn 0.000000 0.000000 -1.000000
vn 0.000000 -1.000000 0.000000
vn 0.000000 -1.000000 0.000000
vn 0.000000 -1.000000 0.000000
vn 0.000000 -1.000000 0.000000
vn 1.000000 0.000000 0.000000
vn 1.000000 0.000000 0.000000
vn 1.000000 0.000000 0.000000
vn 1.000000 0.000000 0.000000
vn -1.000000 0.000000 0.000000
vn -1.000000 0.000000 0.000000
vn -1.000000 0.000000 0.000000
vn -1.000000 0.000000 0.000000
vn 0.000000 0.000000 1.000000
vn 0.000000 0.000000 1.000000
vn 0.000000 0.000000 1.000000
vn 0.000000 0.000000 1.000000
vn 0.000000 1.000000 0.000000
vn 0.000000 1.000000 0.000000
vn 0.000000 1.000000 0.000000
vn 0.000000 1.000000 0.000000
vn 0.000000 0.000000 -1.000000
vn 0.000000 0.000000 -1.000000
vn 0.000000 0.000000 -1.000000
vn 0.000000 0.000000 -1.000000
vn 0.000000 -1.000000 0.000000
vn 0.000000 -1.000000 0.000000
vn 0.000000 -1.000000 0.000000
vn 0.000000 -1.000000 0.000000
vn 1.000000 0.000000 0.000000
vn 1.000000 0.000000 0.000000
vn 1.000000 0.000000 0.000000
vn 1.000000 0.000000 0.000000
vn -1.000000 0.000000 0.000000
vn -1.000000 0.000000 0.000000
vn -1.000000 0.000000 0.000000
vn -1.000000 0.000000 0.000000
vn 0.000000 0.000000 1.000000
vn 0.000000 0.000000 1.000000
vn 0.000000 0.000000 1.000000
vn 0.000000 0.000000 1.000000
vn 0.000000 1.000000 0.000000
vn 0.000000 1.000000 0.000000
vn 0.000000 1.000000 0.000000
vn 0.000000 1.000000 0.000000
vn 0.000000 0.000000 -1.000000
vn 0.000000 0.000000 -1.000000
vn 0.000000 0.000000 -1.000000
vn 0.000000 0.000000 -1.000000
vn 0.000000 -1.000000 0.000000
vn 0.000000 -1.000000 0.000000
vn 0.000000 -1.000000 0.000000
vn 0.000000 -1.000000 0.000000
vn 1.000000 0.000000 0.000000
vn 1.000000 0.000000 0.000000
vn 1.000000 0.000000 0.000000
vn 1.000000 0.000000 0.000000
vn -1.000000 0.000000 0.000000
vn -1.000000 0.000000 0.000000
vn -1.000000 0.000000 0.000000
vn -1.000000 0.000000 0.000000
vn 0.000000 0.000000 1.000000
vn 0.000000 0.000000 1.000000
vn 0.000000 0.000000 1.000000
vn 0.000000 0.000000 1.000000
vn 0.000000 1.000000 0.000000
vn 0.000000 1.000000 0.000000
vn 0.000000 1.000000 0.000000
vn 0.000000 1.000000 0.000000
vn 0.000000 0.000000 -1.000000
vn 0.000000 0.000000 -1.000000
vn 0.000000 0.000000 -1.000000
vn 0.000000 0.000000 -1.000000
vn 0.000000 -1.000000 0.000000
vn 0.000000 -1.000000 0.000000
vn 0.000000 -1.000000 0.000000
vn 0.000000 -1.000000 0.000000
vn 1.000000 0.000000 0.000000
vn 1.000000 0.000000 0.000000
vn 1.000000 0.000000 0.000000
vn 1.000000 0.000000 0.000000
vn -1.000000 0.000000 0.000000
vn -1.000000 0.000000 0.000000
vn -1.000000 0.000000 0.000000
vn -1.000000 0.000000 0.000000
vn 1.000000 0.000000 0.000000
vn 1.000000 0.000000 0.000000
vn 1.000000 0.000000 0.000000
vn 1.000000 0.000000 0.000000
vn 0.000000 1.000000 0.000000
vn 0.000000 1.000000 0.000000
vn 0.000000 1.000000 0.000000
vn 0.000000 1.000000 0.000000
vn -1.000000 0.000000 0.000000
vn -1.000000 0.000000 0.000000
vn -1.000000 0.000000 0.000000
vn -1.000000 0.000000 0.000000
vn 0.000000 -1.000000 0.000000
vn 0.000000 -1.000000 0.000000
vn 0.000000 -1.000000 0.000000
vn 0.000000 -1.000000 0.000000
vn 0.000000 0.000000 -1.000000
vn 0.000000 0.000000 -1.000000
vn 0.000000 0.000000 -1.000000
vn 0.000000 0.000000 -1.000000
vn 0.000000 0.000000 1.000000
vn 0.000000 0.000000 1.000000
vn 0.000000 0.000000 1.000000
vn 0.000000 0.000000 1.000000
vn 1.000000 0.000000 0.000000
vn 1.000000 0.000000 0.000000
vn 1.000000 0.000000 0.000000
vn 1.000000 0.000000 0.000000
vn 0.000000 1.000000 0.000000
vn 0.000000 1.000000 0.000000
vn 0.000000 1.000000 0.000000
vn 0.000000 1.000000 0.000000
vn -1.000000 0.000000 0.000000
vn -1.000000 0.000000 0.000000
vn -1.000000 0.000000 0.000000
vn -1.000000 0.000000 0.000000
vn 0.000000 -1.000000 0.000000
vn 0.000000 -1.000000 0.000000
vn 0.000000 -1.000000 0.000000
vn 0.000000 -1.000000 0.000000
vn 0.000000 0.000000 -1.000000
vn 0.000000 0.000000 -1.000000
vn 0.000000 0.000000 -1.000000
vn 0.000000 0.000000 -1.000000
vn 0.000000 0.000000 1.000000
vn 0.000000 0.000000 1.000000
vn 0.000000 0.000000 1.000000
vn 0.000000 0.000000 1.000000
s 1
g pCube11
usemtl lambert2SG
f 1/1/1 4/2/2 65/3/3 68/4/4
s 2
f 2/5/5 1/1/6 8/6/7 7/7/8
s off
f 3/8/9 2/5/10 11/9/11 10/10/12
s 2
f 4/2/13 3/8/14 26/11/15 25/12/16
s 1
f 5/13/17 8/6/18 69/14/19 72/15/20
s 2
f 6/16/21 5/13/22 32/17/23 31/18/24
s off
f 7/7/25 6/16/26 15/19/27 14/20/28
s 3
f 9/21/29 12/22/30 35/23/31 34/24/32
s 4
f 10/10/33 9/21/34 20/25/35 19/26/36
s off
f 12/22/37 11/9/38 14/20/39 13/27/40
s 3
f 13/27/41 16/28/42 39/29/43 38/30/44
s 6
f 16/28/45 15/19/46 22/31/47 21/32/48
s 3
f 17/33/49 20/25/50 47/34/51 46/35/52
s off
f 18/36/53 17/33/54 24/37/55 23/38/56
f 19/26/57 18/36/58 27/39/59 26/11/60
s 3
f 21/32/61 24/37/62 43/40/63 42/41/64
s off
f 23/38/65 22/31/66 31/18/67 30/42/68
s 1
f 25/12/69 28/43/70 77/44/71 80/45/72
s 2
f 28/43/73 27/39/74 30/42/75 29/46/76
s 1
f 29/46/77 32/17/78 73/47/79 76/48/80
s 3
f 33/49/81 36/50/82 51/51/83 50/52/84
f 34/24/32 33/49/81 48/53/85 47/34/51
f 36/50/82 35/23/31 38/30/44 37/54/86
f 37/54/86 40/55/87 55/56/88 54/57/89
f 40/55/87 39/29/43 42/41/64 41/58/90
f 41/58/90 44/59/91 59/60/92 58/61/93
f 44/59/91 43/40/63 46/35/52 45/62/94
f 45/62/94 48/53/85 63/63/95 62/64/96
s off
f 49/65/97 52/66/98 67/67/99 66/68/100
f 50/52/101 49/65/102 64/69/103 63/63/104
s 8
f 52/66/105 51/51/106 54/57/107 53/70/108
s off
f 53/70/109 56/71/110 71/72/111 70/73/112
f 56/71/113 55/56/114 58/61/115 57/74/116
f 57/74/117 60/75/118 75/76/119 74/77/120
s 9
f 60/75/121 59/60/122 62/64/123 61/78/124
s off
f 61/78/125 64/69/126 79/79/127 78/80/128
s 1
f 66/68/129 65/3/3 80/45/72 79/79/130
f 68/4/4 67/67/131 70/73/132 69/14/19
f 72/15/20 71/72/133 74/77/134 73/47/79
f 76/48/80 75/76/135 78/80/136 77/44/71
s off
f 2/5/137 7/7/138 14/20/139 11/9/140
f 18/36/141 23/38/142 30/42/143 27/39/144
f 6/16/145 31/18/146 22/31/147 15/19/148
f 26/11/149 3/8/150 10/10/151 19/26/152
s 3
f 12/22/30 13/27/41 38/30/44 35/23/31
f 16/28/42 21/32/61 42/41/64 39/29/43
f 24/37/62 17/33/49 46/35/52 43/40/63
f 20/25/50 9/21/29 34/24/32 47/34/51
f 36/50/82 37/54/86 54/57/89 51/51/83
f 40/55/87 41/58/90 58/61/93 55/56/88
f 44/59/91 45/62/94 62/64/96 59/60/92
f 48/53/85 33/49/81 50/52/84 63/63/95
s 1
f 52/66/153 53/70/154 70/73/132 67/67/131
f 56/71/155 57/74/156 74/77/134 71/72/133
f 60/75/157 61/78/158 78/80/136 75/76/135
f 64/69/159 49/65/160 66/68/129 79/79/130
f 8/6/18 1/1/1 68/4/4 69/14/19
f 4/2/2 25/12/69 80/45/72 65/3/3
f 28/43/70 29/46/77 76/48/80 77/44/71
f 32/17/78 5/13/17 72/15/20 73/47/79
s 2
f 1/1/6 2/5/5 3/8/14 4/2/13
f 5/13/22 6/16/21 7/7/8 8/6/7
s 4
f 9/21/34 10/10/33 11/9/161 12/22/162
s 6
f 13/27/163 14/20/164 15/19/46 16/28/45
s 4
f 17/33/165 18/36/166 19/26/36 20/25/35
s 6
f 21/32/48 22/31/47 23/38/167 24/37/168
s 2
f 25/12/16 26/11/15 27/39/74 28/43/73
f 29/46/76 30/42/75 31/18/24 32/17/23
s 3
f 33/49/81 34/24/32 35/23/31 36/50/82
f 37/54/86 38/30/44 39/29/43 40/55/87
f 41/58/90 42/41/64 43/40/63 44/59/91
f 45/62/94 46/35/52 47/34/51 48/53/85
s 8
f 49/65/169 50/52/170 51/51/106 52/66/105
f 53/70/108 54/57/107 55/56/171 56/71/172
s 9
f 57/74/173 58/61/174 59/60/122 60/75/121
f 61/78/124 62/64/123 63/63/175 64/69/176
s 1
f 65/3/3 66/68/177 67/67/178 68/4/4
f 69/14/19 70/73/179 71/72/180 72/15/20
f 73/47/79 74/77/181 75/76/182 76/48/80
f 77/44/71 78/80/183 79/79/184 80/45/72
s off
f 81/81/185 82/82/186 84/83/187 83/84/188
f 83/84/189 84/83/190 86/85/191 85/86/192
f 85/86/193 86/85/194 88/87/195 87/88/196
f 87/88/197 88/87/198 82/82/199 81/81/200
f 82/82/201 88/87/202 86/85/203 84/83/204
f 87/88/205 81/81/206 83/84/207 85/86/208
f 89/89/209 90/90/210 92/91/211 91/92/212
f 91/92/213 92/91/214 94/93/215 93/94/216
f 93/94/217 94/93/218 96/95/219 95/96/220
f 95/96/221 96/95/222 90/90/223 89/89/224
f 90/90/225 96/95/226 94/93/227 92/91/228
f 95/96/229 89/89/230 91/92/231 93/94/232
f 97/97/233 98/98/234 100/99/235 99/100/236
f 99/100/237 100/99/238 102/101/239 101/102/240
f 101/102/241 102/101/242 104/103/243 103/104/244
f 103/104/245 104/103/246 98/98/247 97/97/248
f 98/98/249 104/103/250 102/101/251 100/99/252
f 103/104/253 97/97/254 99/100/255 101/102/256
f 105/105/257 106/106/258 108/107/259 107/108/260
f 107/108/261 108/107/262 110/109/263 109/110/264
f 109/110/265 110/109/266 112/111/267 111/112/268
f 111/112/269 112/111/270 106/106/271 105/105/272
f 106/106/273 112/111/274 110/109/275 108/107/276
f 111/112/277 105/105/278 107/108/279 109/110/280
f 113/113/281 114/114/282 116/115/283 115/116/284
f 115/116/285 116/115/286 118/117/287 117/118/288
f 117/118/289 118/117/290 120/119/291 119/120/292
f 119/120/293 120/119/294 114/114/295 113/113/296
f 114/114/297 120/119/298 118/117/299 116/115/300
f 119/120/301 113/113/302 115/116/303 117/118/304
f 121/121/305 122/122/306 124/123/307 123/124/308
f 123/124/309 124/123/310 126/125/311 125/126/312
f 125/126/313 126/125/314 128/127/315 127/128/316
f 127/128/317 128/127/318 122/122/319 121/121/320
f 122/122/321 128/127/322 126/125/323 124/123/324
f 127/128/325 121/121/326 123/124/327 125/126/328
f 129/129/329 130/130/330 132/131/331 131/132/332
f 131/132/333 132/131/334 134/133/335 133/134/336
f 133/134/337 134/133/338 136/135/339 135/136/340
f 135/136/341 136/135/342 130/130/343 129/129/344
f 130/130/345 136/135/346 134/133/347 132/131/348
f 135/136/349 129/129/350 131/132/351 133/134/352
g default
v -5.907495 -0.078450 7.328779
v 5.907495 -0.078450 7.328779
v -5.907495 0.078450 7.328779
v 5.907495 0.078450 7.328779
v -5.907495 0.078450 -7.328779
v 5.907495 0.078450 -7.328779
v -5.907495 -0.078450 -7.328779
v 5.907495 -0.078450 -7.328779
vt 0.769876 0.478424
vt 0.767524 0.990628
vt 0.770453 0.998352
vt 0.770378 0.488116
vt -0.001656 0.998605
vt 0.000770 0.471906
vt -0.002775 0.992316
vt 0.000852 0.464303
vn 0.000000 0.000000 1.000000
vn 0.000000 0.000000 1.000000
vn 0.000000 0.000000 1.000000
vn 0.000000 0.000000 1.000000
vn 0.000000 1.000000 0.000000
vn 0.000000 1.000000 0.000000
vn 0.000000 1.000000 0.000000
vn 0.000000 1.000000 0.000000
vn 0.000000 0.000000 -1.000000
vn 0.000000 0.000000 -1.000000
vn 0.000000 0.000000 -1.000000
vn 0.000000 0.000000 -1.000000
vn 0.000000 -1.000000 0.000000
vn 0.000000 -1.000000 0.000000
vn 0.000000 -1.000000 0.000000
vn 0.000000 -1.000000 0.000000
vn 1.000000 0.000000 0.000000
vn 1.000000 0.000000 0.000000
vn 1.000000 0.000000 0.000000
vn 1.000000 0.000000 0.000000
vn -1.000000 0.000000 0.000000
vn -1.000000 0.000000 0.000000
vn -1.000000 0.000000 0.000000
vn -1.000000 0.000000 0.000000
s off
g pCube12
usemtl phong1SG
f 137/137/353 138/138/354 140/139/355 139/140/356
f 139/140/357 140/139/358 142/141/359 141/142/360
f 141/142/361 142/141/362 144/143/363 143/144/364
f 143/144/365 144/143/366 138/138/367 137/137/368
f 138/138/369 144/143/370 142/141/371 140/139/372
f 143/144/373 137/137/374 139/140/375 141/142/376
