# This file uses centimeters as units for non-parametric coordinates.

mtllib nightstand.mtl
g default
v -0.332465 0.534650 0.294772
v 0.332465 0.534650 0.294772
v -0.332465 0.925331 0.294772
v 0.332465 0.925331 0.294772
v -0.332465 0.925331 -0.294772
v 0.332465 0.925331 -0.294772
v -0.332465 0.534650 -0.294772
v 0.332465 0.534650 -0.294772
v -0.294733 0.604087 0.294772
v 0.294733 0.604087 0.294772
v 0.294733 0.880139 0.294772
v -0.294733 0.880139 0.294772
v -0.294733 0.604087 -0.262228
v 0.294733 0.604087 -0.262228
v 0.294733 0.880139 -0.262228
v -0.294733 0.880139 -0.262228
v -0.356028 0.925331 0.315663
v 0.356028 0.925331 0.315663
v 0.356028 0.925331 -0.315663
v -0.356028 0.925331 -0.315663
v -0.356028 0.938458 0.315663
v -0.342903 0.951583 0.302539
v 0.342903 0.951583 0.302539
v 0.356028 0.938458 0.315663
v 0.342903 0.951583 -0.302539
v 0.356028 0.938458 -0.315663
v -0.342903 0.951583 -0.302539
v -0.356028 0.938458 -0.315663
v 0.243066 -0.098332 -0.183475
v 0.275230 -0.098332 -0.183475
v 0.213176 0.547024 -0.153584
v 0.305121 0.547024 -0.153584
v 0.213176 0.547024 -0.245529
v 0.305121 0.547024 -0.245529
v 0.243066 -0.098332 -0.215638
v 0.275230 -0.098332 -0.215638
v 0.243066 -0.098332 0.213897
v 0.275230 -0.098332 0.213897
v 0.213176 0.547024 0.243788
v 0.305121 0.547024 0.243788
v 0.213176 0.547024 0.151843
v 0.305121 0.547024 0.151843
v 0.243066 -0.098332 0.181734
v 0.275230 -0.098332 0.181734
v -0.285018 -0.098332 -0.183475
v -0.252854 -0.098332 -0.183475
v -0.314908 0.547024 -0.153584
v -0.222963 0.547024 -0.153584
v -0.314908 0.547024 -0.245529
v -0.222963 0.547024 -0.245529
v -0.285018 -0.098332 -0.215638
v -0.252854 -0.098332 -0.215638
v -0.285018 -0.098332 0.213499
v -0.252854 -0.098332 0.213499
v -0.314908 0.547024 0.243390
v -0.222963 0.547024 0.243390
v -0.314908 0.547024 0.151445
v -0.222963 0.547024 0.151445
v -0.285018 -0.098332 0.181336
v -0.252854 -0.098332 0.181336
vt 0.188215 0.714067
vt 0.384967 0.713619
vt 0.385177 0.805760
vt 0.188424 0.806208
vt 0.780397 0.550942
vt 0.779833 0.698748
vt 0.591126 0.698028
vt 0.591690 0.550222
vt 0.460077 0.697528
vt 0.460641 0.549721
vt 0.590626 0.829077
vt 0.779333 0.829798
vt 0.592190 0.419172
vt 0.780897 0.419893
vt 0.048103 0.016965
vt 0.446654 0.016088
vt 0.424734 0.332424
vt 0.071416 0.333202
vt 0.447774 0.524923
vt 0.425098 0.497886
vt 0.049224 0.525801
vt 0.071780 0.498664
vt 0.187791 0.528151
vt 0.384544 0.527703
vt 0.570883 0.713196
vt 0.571093 0.805337
vt 0.385600 0.991676
vt 0.188848 0.992124
vt 0.002508 0.806632
vt 0.002298 0.714491
vt 0.911446 0.551442
vt 0.910882 0.699249
vt 0.910882 0.699249
vt 0.911446 0.551442
vt 0.779833 0.698748
vt 0.780397 0.550942
vt 0.911446 0.551442
vt 0.908712 0.554156
vt 0.783111 0.553676
vt 0.780397 0.550942
vt 0.910882 0.699249
vt 0.908168 0.696514
vt 0.779833 0.698748
vt 0.782568 0.696034
vt 0.870990 0.258655
vt 0.882490 0.259852
vt 0.869124 0.491955
vt 0.836249 0.488532
vt 0.868751 0.525005
vt 0.902174 0.492328
vt 0.901801 0.525378
vt 0.935117 0.489648
vt 0.894051 0.259983
vt 0.905575 0.259045
vt 0.894182 0.248421
vt 0.882620 0.248291
vt 0.874498 0.015945
vt 0.907548 0.016318
vt 0.868307 0.257077
vt 0.880016 0.258197
vt 0.868403 0.494440
vt 0.834929 0.491239
vt 0.868306 0.528067
vt 0.902030 0.494537
vt 0.901933 0.528164
vt 0.935521 0.491529
vt 0.891779 0.258231
vt 0.903495 0.257179
vt 0.891813 0.246468
vt 0.880050 0.246434
vt 0.869800 0.010128
vt 0.903426 0.010225
vt 0.503677 0.265843
vt 0.515080 0.266796
vt 0.506543 0.496714
vt 0.473947 0.493991
vt 0.506841 0.529422
vt 0.539251 0.496416
vt 0.539549 0.529124
vt 0.571792 0.493099
vt 0.526521 0.266691
vt 0.537905 0.265531
vt 0.526417 0.255250
vt 0.514975 0.255354
vt 0.502246 0.025629
vt 0.534954 0.025331
vt 0.509041 0.273951
vt 0.519876 0.275127
vt 0.506321 0.493859
vt 0.475347 0.490497
vt 0.505833 0.525011
vt 0.537473 0.494347
vt 0.536986 0.525499
vt 0.568538 0.491956
vt 0.530773 0.275297
vt 0.541640 0.274461
vt 0.530944 0.264400
vt 0.520046 0.264229
vt 0.513346 0.045180
vt 0.544499 0.045667
vn 0.000000 0.000000 1.000000
vn 0.000000 0.000000 1.000000
vn 0.000000 0.000000 1.000000
vn 0.000000 0.000000 1.000000
vn 0.000000 0.000000 -1.000000
vn 0.000000 0.000000 -1.000000
vn 0.000000 0.000000 -1.000000
vn 0.000000 0.000000 -1.000000
vn 0.000000 -1.000000 0.000000
vn 0.000000 -1.000000 0.000000
vn 0.000000 -1.000000 0.000000
vn 0.000000 -1.000000 0.000000
vn 1.000000 0.000000 0.000000
vn 1.000000 0.000000 0.000000
vn 1.000000 0.000000 0.000000
vn 1.000000 0.000000 0.000000
vn -1.000000 0.000000 0.000000
vn -1.000000 0.000000 0.000000
vn -1.000000 0.000000 0.000000
vn -1.000000 0.000000 0.000000
vn 0.000000 0.000000 1.000000
vn 0.000000 0.000000 1.000000
vn 0.000000 0.000000 1.000000
vn 0.000000 0.000000 1.000000
vn -0.000000 0.000000 1.000000
vn -0.000000 0.000000 1.000000
vn -0.000000 0.000000 1.000000
vn -0.000000 0.000000 1.000000
vn 0.000000 0.000000 1.000000
vn 0.000000 0.000000 1.000000
vn 0.000000 0.000000 1.000000
vn 0.000000 0.000000 1.000000
vn -0.000000 0.000000 1.000000
vn -0.000000 0.000000 1.000000
vn -0.000000 0.000000 1.000000
vn -0.000000 0.000000 1.000000
vn 0.000000 1.000000 0.000000
vn 0.000000 1.000000 0.000000
vn 0.000000 1.000000 0.000000
vn 0.000000 1.000000 0.000000
vn -1.000000 0.000000 0.000000
vn -1.000000 0.000000 0.000000
vn -1.000000 0.000000 0.000000
vn -1.000000 0.000000 0.000000
vn 0.000000 -1.000000 0.000000
vn 0.000000 -1.000000 0.000000
vn 0.000000 -1.000000 0.000000
vn 0.000000 -1.000000 0.000000
vn 1.000000 0.000000 0.000000
vn 1.000000 0.000000 0.000000
vn 1.000000 0.000000 0.000000
vn 1.000000 0.000000 0.000000
vn 0.000000 -1.000000 -0.000001
vn 0.000000 -1.000000 -0.000001
vn 0.000000 -1.000000 -0.000001
vn 0.000000 -1.000000 -0.000001
vn 0.000000 -1.000000 0.000000
vn 0.000000 -1.000000 0.000000
vn 0.000000 -1.000000 0.000000
vn 0.000000 -1.000000 0.000000
vn 0.000000 -1.000000 0.000001
vn 0.000000 -1.000000 0.000001
vn 0.000000 -1.000000 0.000001
vn 0.000000 -1.000000 0.000001
vn 0.000000 -1.000000 0.000000
vn 0.000000 -1.000000 0.000000
vn 0.000000 -1.000000 0.000000
vn 0.000000 -1.000000 0.000000
vn -0.707107 0.707107 0.000000
vn -0.707107 0.707107 0.000000
vn -0.707107 0.707107 0.000000
vn -0.707107 0.707107 0.000000
vn 0.000000 0.707105 0.707109
vn 0.000000 0.707105 0.707109
vn 0.000000 0.707105 0.707109
vn 0.000000 0.707105 0.707109
vn 0.707107 0.707107 0.000000
vn 0.707107 0.707107 0.000000
vn 0.707107 0.707107 0.000000
vn 0.707107 0.707107 0.000000
vn 0.000000 0.707105 -0.707109
vn 0.000000 0.707105 -0.707109
vn 0.000000 0.707105 -0.707109
vn 0.000000 0.707105 -0.707109
vn 0.000000 1.000000 0.000000
vn 0.000000 1.000000 0.000000
vn 0.000000 1.000000 0.000000
vn 0.000000 1.000000 0.000000
vn 0.000000 0.000000 1.000000
vn 0.000000 0.000000 1.000000
vn 0.000000 0.000000 1.000000
vn 0.000000 0.000000 1.000000
vn 1.000000 0.000000 0.000000
vn 1.000000 0.000000 0.000000
vn 1.000000 0.000000 0.000000
vn 1.000000 0.000000 0.000000
vn 0.000000 0.000000 -1.000000
vn 0.000000 0.000000 -1.000000
vn 0.000000 0.000000 -1.000000
vn 0.000000 0.000000 -1.000000
vn -1.000000 0.000000 0.000000
vn -1.000000 0.000000 0.000000
vn -1.000000 0.000000 0.000000
vn -1.000000 0.000000 0.000000
vn 0.000000 -0.046267 0.998929
vn 0.000000 -0.046267 0.998929
vn 0.000000 -0.046267 0.998929
vn 0.000000 -0.046267 0.998929
vn 0.000000 1.000000 0.000000
vn 0.000000 1.000000 0.000000
vn 0.000000 1.000000 0.000000
vn 0.000000 1.000000 0.000000
vn 0.000000 -0.046267 -0.998929
vn 0.000000 -0.046267 -0.998929
vn 0.000000 -0.046267 -0.998929
vn 0.000000 -0.046267 -0.998929
vn 0.000000 -1.000000 0.000000
vn 0.000000 -1.000000 0.000000
vn 0.000000 -1.000000 0.000000
vn 0.000000 -1.000000 0.000000
vn 0.998929 -0.046267 0.000000
vn 0.998929 -0.046267 0.000000
vn 0.998929 -0.046267 0.000000
vn 0.998929 -0.046267 0.000000
vn -0.998929 -0.046267 0.000000
vn -0.998929 -0.046267 0.000000
vn -0.998929 -0.046267 0.000000
vn -0.998929 -0.046267 0.000000
vn 0.000000 -0.046267 0.998929
vn 0.000000 -0.046267 0.998929
vn 0.000000 -0.046267 0.998929
vn 0.000000 -0.046267 0.998929
vn 0.000000 1.000000 0.000000
vn 0.000000 1.000000 0.000000
vn 0.000000 1.000000 0.000000
vn 0.000000 1.000000 0.000000
vn 0.000000 -0.046267 -0.998929
vn 0.000000 -0.046267 -0.998929
vn 0.000000 -0.046267 -0.998929
vn 0.000000 -0.046267 -0.998929
vn 0.000000 -1.000000 0.000000
vn 0.000000 -1.000000 0.000000
vn 0.000000 -1.000000 0.000000
vn 0.000000 -1.000000 0.000000
vn 0.998929 -0.046267 0.000000
vn 0.998929 -0.046267 0.000000
vn 0.998929 -0.046267 0.000000
vn 0.998929 -0.046267 0.000000
vn -0.998929 -0.046267 0.000000
vn -0.998929 -0.046267 0.000000
vn -0.998929 -0.046267 0.000000
vn -0.998929 -0.046267 0.000000
vn 0.000000 -0.046267 0.998929
vn 0.000000 -0.046267 0.998929
vn 0.000000 -0.046267 0.998929
vn 0.000000 -0.046267 0.998929
vn 0.000000 1.000000 0.000000
vn 0.000000 1.000000 0.000000
vn 0.000000 1.000000 0.000000
vn 0.000000 1.000000 0.000000
vn 0.000000 -0.046267 -0.998929
vn 0.000000 -0.046267 -0.998929
vn 0.000000 -0.046267 -0.998929
vn 0.000000 -0.046267 -0.998929
vn 0.000000 -1.000000 0.000000
vn 0.000000 -1.000000 0.000000
vn 0.000000 -1.000000 0.000000
vn 0.000000 -1.000000 0.000000
vn 0.998929 -0.046267 0.000000
vn 0.998929 -0.046267 0.000000
vn 0.998929 -0.046267 0.000000
vn 0.998929 -0.046267 0.000000
vn -0.998929 -0.046267 0.000000
vn -0.998929 -0.046267 0.000000
vn -0.998929 -0.046267 0.000000
vn -0.998929 -0.046267 0.000000
vn 0.000000 -0.046267 0.998929
vn 0.000000 -0.046267 0.998929
vn 0.000000 -0.046267 0.998929
vn 0.000000 -0.046267 0.998929
vn 0.000000 1.000000 0.000000
vn 0.000000 1.000000 0.000000
vn 0.000000 1.000000 0.000000
vn 0.000000 1.000000 0.000000
vn 0.000000 -0.046267 -0.998929
vn 0.000000 -0.046267 -0.998929
vn 0.000000 -0.046267 -0.998929
vn 0.000000 -0.046267 -0.998929
vn 0.000000 -1.000000 0.000000
vn 0.000000 -1.000000 0.000000
vn 0.000000 -1.000000 0.000000
vn 0.000000 -1.000000 0.000000
vn 0.998929 -0.046267 0.000000
vn 0.998929 -0.046267 0.000000
vn 0.998929 -0.046267 0.000000
vn 0.998929 -0.046267 0.000000
vn -0.998929 -0.046267 0.000000
vn -0.998929 -0.046267 0.000000
vn -0.998929 -0.046267 0.000000
vn -0.998929 -0.046267 0.000000
s off
g polySurface1
usemtl initialShadingGroup
f 13/1/1 14/2/2 15/3/3 16/4/4
f 5/5/5 6/6/6 8/7/7 7/8/8
f 7/8/9 8/7/10 2/9/11 1/10/12
f 2/11/13 8/7/14 6/6/15 4/12/16
f 7/8/17 1/13/18 3/14/19 5/5/20
f 1/15/21 2/16/22 10/17/23 9/18/24
f 2/16/25 4/19/26 11/20/27 10/17/28
f 4/19/29 3/21/30 12/22/31 11/20/32
f 3/21/33 1/15/34 9/18/35 12/22/36
f 9/23/37 10/24/38 14/2/39 13/1/40
f 10/25/41 11/26/42 15/3/43 14/2/44
f 11/27/45 12/28/46 16/4/47 15/3/48
f 12/29/49 9/30/50 13/1/51 16/4/52
f 3/31/53 4/32/54 18/33/55 17/34/56
f 4/32/57 6/6/58 19/35/59 18/33/60
f 6/6/61 5/5/62 20/36/63 19/35/64
f 5/5/65 3/31/66 17/34/67 20/36/68
f 21/37/69 22/38/70 27/39/71 28/40/72
f 22/38/73 21/37/74 24/41/75 23/42/76
f 23/42/77 24/41/78 26/43/79 25/44/80
f 25/44/81 26/43/82 28/40/83 27/39/84
f 22/38/85 23/42/86 25/44/87 27/39/88
f 17/34/89 18/33/90 24/41/91 21/37/92
f 18/33/93 19/35/94 26/43/95 24/41/96
f 19/35/97 20/36/98 28/40/99 26/43/100
f 20/36/101 17/34/102 21/37/103 28/40/104
f 29/45/105 30/46/106 32/47/107 31/48/108
f 31/49/109 32/47/110 34/50/111 33/51/112
f 33/52/113 34/50/114 36/53/115 35/54/116
f 35/55/117 36/53/118 30/46/119 29/56/120
f 30/46/121 36/53/122 34/50/123 32/47/124
f 35/55/125 29/56/126 31/57/127 33/58/128
f 37/59/129 38/60/130 40/61/131 39/62/132
f 39/63/133 40/61/134 42/64/135 41/65/136
f 41/66/137 42/64/138 44/67/139 43/68/140
f 43/69/141 44/67/142 38/60/143 37/70/144
f 38/60/145 44/67/146 42/64/147 40/61/148
f 43/69/149 37/70/150 39/71/151 41/72/152
f 45/73/153 46/74/154 48/75/155 47/76/156
f 47/77/157 48/75/158 50/78/159 49/79/160
f 49/80/161 50/78/162 52/81/163 51/82/164
f 51/83/165 52/81/166 46/74/167 45/84/168
f 46/74/169 52/81/170 50/78/171 48/75/172
f 51/83/173 45/84/174 47/85/175 49/86/176
f 53/87/177 54/88/178 56/89/179 55/90/180
f 55/91/181 56/89/182 58/92/183 57/93/184
f 57/94/185 58/92/186 60/95/187 59/96/188
f 59/97/189 60/95/190 54/88/191 53/98/192
f 54/88/193 60/95/194 58/92/195 56/89/196
f 59/97/197 53/98/198 55/99/199 57/100/200
