# This file uses centimeters as units for non-parametric coordinates.

mtllib shoeboxbase.mtl
g default
v -0.739635 -0.262932 0.500000
v 0.739635 -0.262932 0.500000
v -0.739635 0.262932 0.500000
v 0.739635 0.262932 0.500000
v -0.739635 0.262932 -0.500000
v 0.739635 0.262932 -0.500000
v -0.739635 -0.262932 -0.500000
v 0.739635 -0.262932 -0.500000
v -0.739635 0.262932 0.445636
v -0.739635 -0.262932 0.445636
v 0.739635 -0.262932 0.445636
v 0.739635 0.262932 0.445636
v -0.739635 0.262932 -0.448764
v -0.739635 -0.262932 -0.448764
v 0.739635 -0.262932 -0.448764
v 0.739635 0.262932 -0.448764
v -0.676519 0.262932 0.500000
v -0.676519 0.262932 0.445636
v -0.676519 0.262932 -0.448764
v -0.676519 0.262932 -0.500000
v -0.676519 -0.262932 -0.500000
v -0.676519 -0.262932 -0.448764
v -0.676519 -0.262932 0.445636
v -0.676519 -0.262932 0.500000
v 0.688056 0.262932 0.500000
v 0.688056 0.262932 0.445636
v 0.688056 0.262932 -0.448764
v 0.688056 0.262932 -0.500000
v 0.688056 -0.262932 -0.500000
v 0.688056 -0.262932 -0.448764
v 0.688056 -0.262932 0.445636
v 0.688056 -0.262932 0.500000
v -0.676519 -0.245085 0.445636
v -0.676519 -0.245085 -0.448764
v 0.688056 -0.245085 0.445636
v 0.688056 -0.245085 -0.448764
vt 0.375000 0.000000
vt 0.625000 0.000000
vt 0.375000 0.250000
vt 0.625000 0.250000
vt 0.375000 0.500000
vt 0.625000 0.500000
vt 0.375000 0.750000
vt 0.625000 0.750000
vt 0.375000 1.000000
vt 0.625000 1.000000
vt 0.875000 0.000000
vt 0.875000 0.250000
vt 0.125000 0.000000
vt 0.125000 0.250000
vt 0.361409 0.250000
vt 0.375000 0.263591
vt 0.361409 0.000000
vt 0.375000 0.986409
vt 0.625000 0.986409
vt 0.638591 0.000000
vt 0.625000 0.263591
vt 0.638591 0.250000
vt 0.137809 0.250000
vt 0.375000 0.487191
vt 0.137809 0.000000
vt 0.375000 0.762809
vt 0.625000 0.762809
vt 0.862191 0.000000
vt 0.625000 0.487191
vt 0.862191 0.250000
vt 0.385667 0.250000
vt 0.385667 0.263591
vt 0.385667 0.487191
vt 0.385667 0.500000
vt 0.385667 0.750000
vt 0.385667 0.762809
vt 0.385667 0.986409
vt 0.385667 0.000000
vt 0.385667 1.000000
vt 0.616283 0.250000
vt 0.616283 0.263591
vt 0.616283 0.487191
vt 0.616283 0.500000
vt 0.616283 0.750000
vt 0.616283 0.762809
vt 0.616283 0.986409
vt 0.616283 0.000000
vt 0.616283 1.000000
vt 0.385667 0.487191
vt 0.385667 0.263591
vt 0.616283 0.263591
vt 0.616283 0.487191
vn 0.000000 0.000000 1.000000
vn 0.000000 0.000000 1.000000
vn 0.000000 0.000000 1.000000
vn 0.000000 0.000000 1.000000
vn 0.000000 1.000000 0.000000
vn 0.000000 1.000000 0.000000
vn 0.000000 1.000000 0.000000
vn 0.000000 1.000000 0.000000
vn 0.000000 0.000000 -1.000000
vn 0.000000 0.000000 -1.000000
vn 0.000000 0.000000 -1.000000
vn 0.000000 0.000000 -1.000000
vn 0.000000 -1.000000 0.000000
vn 0.000000 -1.000000 0.000000
vn 0.000000 -1.000000 0.000000
vn 0.000000 -1.000000 0.000000
vn 1.000000 0.000000 0.000000
vn 1.000000 0.000000 0.000000
vn 1.000000 0.000000 0.000000
vn 1.000000 0.000000 0.000000
vn -1.000000 0.000000 0.000000
vn -1.000000 0.000000 0.000000
vn -1.000000 0.000000 0.000000
vn -1.000000 0.000000 0.000000
vn -1.000000 0.000000 0.000000
vn -1.000000 0.000000 0.000000
vn 0.000000 -1.000000 0.000000
vn 0.000000 -1.000000 0.000000
vn 1.000000 0.000000 0.000000
vn 1.000000 0.000000 0.000000
vn 0.000000 1.000000 0.000000
vn 0.000000 1.000000 0.000000
vn -1.000000 0.000000 0.000000
vn -1.000000 0.000000 0.000000
vn 0.000000 -1.000000 0.000000
vn 0.000000 -1.000000 0.000000
vn 1.000000 0.000000 0.000000
vn 1.000000 0.000000 0.000000
vn 0.000000 1.000000 0.000000
vn 0.000000 1.000000 0.000000
vn 0.000000 1.000000 0.000000
vn 0.000000 1.000000 0.000000
vn 0.000000 1.000000 0.000000
vn 0.000000 1.000000 0.000000
vn 0.000000 1.000000 0.000000
vn 0.000000 1.000000 0.000000
vn 0.000000 1.000000 0.000000
vn 0.000000 1.000000 0.000000
vn 0.000000 0.000000 -1.000000
vn 0.000000 0.000000 -1.000000
vn 0.000000 -1.000000 0.000000
vn 0.000000 -1.000000 0.000000
vn 0.000000 -1.000000 0.000000
vn 0.000000 -1.000000 0.000000
vn 0.000000 0.000000 1.000000
vn 0.000000 0.000000 1.000000
vn 0.000000 1.000000 0.000000
vn 0.000000 1.000000 0.000000
vn 0.000000 1.000000 0.000000
vn 0.000000 1.000000 0.000000
vn 0.000000 0.000000 -1.000000
vn 0.000000 0.000000 -1.000000
vn 0.000000 -1.000000 0.000000
vn 0.000000 -1.000000 0.000000
vn 0.000000 -1.000000 0.000000
vn 0.000000 -1.000000 0.000000
vn 0.000000 0.000000 1.000000
vn 0.000000 0.000000 1.000000
vn 1.000000 0.000000 0.000000
vn 1.000000 0.000000 0.000000
vn 1.000000 0.000000 0.000000
vn 1.000000 0.000000 0.000000
vn 0.000000 0.000000 -1.000000
vn 0.000000 0.000000 -1.000000
vn 0.000000 0.000000 -1.000000
vn 0.000000 0.000000 -1.000000
vn -1.000000 0.000000 0.000000
vn -1.000000 0.000000 0.000000
vn -1.000000 0.000000 0.000000
vn -1.000000 0.000000 0.000000
vn 0.000000 0.000000 1.000000
vn 0.000000 0.000000 1.000000
vn 0.000000 0.000000 1.000000
vn 0.000000 0.000000 1.000000
s 1
g pCube1
usemtl initialShadingGroup
f 1/1/1 24/38/2 17/31/3 3/3/4
s 2
f 3/3/5 17/31/6 18/32/7 9/16/8
s 3
f 5/5/9 20/34/10 21/35/11 7/7/12
s 4
f 10/18/13 23/37/14 24/39/15 1/9/16
s 5
f 2/2/17 11/20/18 12/22/19 4/4/20
s 6
f 10/17/21 1/1/22 3/3/23 9/15/24
f 14/25/25 10/17/21 9/15/24 13/23/26
s 4
f 14/26/27 22/36/28 23/37/14 10/18/13
s 5
f 12/22/19 11/20/18 15/28/29 16/30/30
s 2
f 9/16/8 18/32/7 19/33/31 13/24/32
s 6
f 7/13/33 14/25/25 13/23/26 5/14/34
s 4
f 7/7/35 21/35/36 22/36/28 14/26/27
s 5
f 16/30/30 15/28/29 8/11/37 6/12/38
s 2
f 13/24/32 19/33/31 20/34/39 5/5/40
f 17/31/6 25/40/41 26/41/42 18/32/7
s off
f 34/49/43 33/50/44 35/51/45 36/52/46
s 2
f 20/34/39 19/33/31 27/42/47 28/43/48
s 3
f 21/35/11 20/34/10 28/43/49 29/44/50
s 4
f 22/36/28 21/35/36 29/44/51 30/45/52
f 23/37/14 22/36/28 30/45/52 31/46/53
f 24/39/15 23/37/14 31/46/53 32/48/54
s 1
f 17/31/3 24/38/2 32/47/55 25/40/56
s 2
f 25/40/41 4/4/57 12/21/58 26/41/42
f 27/42/47 26/41/42 12/21/58 16/29/59
f 28/43/48 27/42/47 16/29/59 6/6/60
s 3
f 29/44/50 28/43/49 6/6/61 8/8/62
s 4
f 30/45/52 29/44/51 8/8/63 15/27/64
f 31/46/53 30/45/52 15/27/64 11/19/65
f 32/48/54 31/46/53 11/19/65 2/10/66
s 1
f 25/40/56 32/47/55 2/2/67 4/4/68
s off
f 19/33/69 18/32/70 33/50/71 34/49/72
f 18/32/73 26/41/74 35/51/75 33/50/76
f 26/41/77 27/42/78 36/52/79 35/51/80
f 27/42/81 19/33/82 34/49/83 36/52/84
